2018022;2018022;08/02/2020;00:03:10;C/OUT;
2019069;2019069;08/02/2020;00:03:58;C/OUT;
2015073;Antonito Tolin;08/02/2020;00:14:56;C/OUT;
2017033;Mico Gumilao;08/02/2020;02:01:17;C/OUT;
2017033;Mico Gumilao;08/02/2020;02:01:21;C/OUT;
2018075;2018075;08/02/2020;04:51:51;C/IN;
2018105;2018105;08/02/2020;05:33:54;C/IN;
2018003;2018003;08/02/2020;05:37:34;C/IN;
2018100;2018100;08/02/2020;05:41:13;C/IN;
2017042;Allbert Jay Valera;08/02/2020;05:43:25;C/IN;
2016035;Judy Lasay;08/02/2020;05:44:40;C/IN;
2014039;Jimmy, Hendra;08/02/2020;05:45:05;C/IN;
2019064;2019064;08/02/2020;05:49:45;C/IN;
2016087;Shaira Castillo;08/02/2020;05:50:06;C/IN;
2016087;Shaira Castillo;08/02/2020;05:50:10;C/IN;
2019026;2019026;08/02/2020;05:50:40;C/IN;
2017003;Nelia E. Germedia;08/02/2020;05:51:28;C/IN;
2016089;Julius C;08/02/2020;05:57:47;C/IN;
2016089;Julius C;08/02/2020;05:57:50;C/IN;
2017006;Percival Lai;08/02/2020;05:59:40;C/IN;
2017006;Percival Lai;08/02/2020;05:59:44;C/IN;
2015016;Ma. Therese Villanueva;08/02/2020;06:00:04;C/OUT;
2015016;Ma. Therese Villanueva;08/02/2020;06:00:08;C/OUT;
2017016;Karren  Gonzales;08/02/2020;06:00:12;C/OUT;
2017036;Joemar C;08/02/2020;06:00:16;C/OUT;
2018015;2018015;08/02/2020;06:01:47;C/OUT;
2019048;2019048;08/02/2020;06:01:51;C/OUT;
2015095;2015095;08/02/2020;06:02:26;C/OUT;
2019067;2019067;08/02/2020;06:03:31;C/OUT;
2016019;Renz Marrion  Federang;08/02/2020;06:16:15;C/IN;
2017060;2017060;08/02/2020;06:22:10;C/IN;
2018056;2018056;08/02/2020;06:23:23;C/IN;
2015094;2015094;08/02/2020;06:31:49;C/IN;
2015094;2015094;08/02/2020;06:31:59;C/IN;
2016018;Rejelle  Corpuz;08/02/2020;06:32:36;C/IN;
2016088;Ferdinand Francia;08/02/2020;06:32:41;C/IN;
2015041;Karen Grace  Santos;08/02/2020;06:35:48;C/IN;
2006007;Myleen Bautista;08/02/2020;06:37:20;C/IN;
2017460;2017460;08/02/2020;06:37:58;C/IN;
2016020;Michael Jordan Parungao;08/02/2020;06:41:03;C/IN;
2006011;Maureen Lintag;08/02/2020;06:41:03;C/IN;
2018094;2018094;08/02/2020;06:41:20;C/IN;
2015028;Diana Galang;08/02/2020;06:41:26;C/IN;
2013005;Nikki Jean Vincoy;08/02/2020;06:41:30;C/IN;
2019037;2019037;08/02/2020;06:41:33;C/IN;
2017062;2017062;08/02/2020;06:41:36;C/IN;
2018065;2018065;08/02/2020;06:41:39;C/IN;
2018093;2018093;08/02/2020;06:41:42;C/IN;
2015013;Babylyn Jolo;08/02/2020;06:41:46;C/IN;
2016040;Janice Borja;08/02/2020;06:41:50;C/IN;
2016009;Rizzalie  Salabsab;08/02/2020;06:41:52;C/IN;
2019038;2019038;08/02/2020;06:41:56;C/IN;
2016078;Antonette Isorena;08/02/2020;06:41:59;C/IN;
2010007;Elinea Mendoza;08/02/2020;06:42:16;C/IN;
2018029;2018029;08/02/2020;06:42:26;C/IN;
2014015;Garlie Jane Walican;08/02/2020;06:42:30;C/IN;
2016004;Jaylyn David;08/02/2020;06:42:35;C/IN;
2010010;Mae  Aguanza;08/02/2020;06:42:40;C/IN;
2010011;Emily D. Daguman;08/02/2020;06:42:44;C/IN;
2015012;Mary Rose Gatong;08/02/2020;06:42:48;C/IN;
2018028;2018028;08/02/2020;06:42:52;C/IN;
2019009;2019009;08/02/2020;06:42:56;C/IN;
2011010;Angel  Abelligos;08/02/2020;06:42:58;C/IN;
2011010;Angel  Abelligos;08/02/2020;06:43:02;C/IN;
2012012;Barbette Talag;08/02/2020;06:43:03;C/IN;
2017052;2017052;08/02/2020;06:43:07;C/IN;
2017025;Julie Ann Recaido;08/02/2020;06:43:11;C/IN;
2018101;2018101;08/02/2020;06:43:12;C/IN;
2016010;Jairah Santos;08/02/2020;06:43:15;C/IN;
2010006;Catherine Cunanan;08/02/2020;06:43:21;C/IN;
2018026;2018026;08/02/2020;06:43:24;C/IN;
2006006;Rowena Jane  Arcilla;08/02/2020;06:43:28;C/IN;
2009003;Liezl  Licop;08/02/2020;06:43:34;C/IN;
2016062;Maricris Santos;08/02/2020;06:43:49;C/IN;
2017017;Jonah Jean Algura;08/02/2020;06:44:04;C/IN;
2015003;Virlyn Costales;08/02/2020;06:44:10;C/IN;
2009005;Mary Rose Gicaraya;08/02/2020;06:44:29;C/IN;
2012014;Mary Joy Calda;08/02/2020;06:44:33;C/IN;
2010005;Joanna Marie  Agregado;08/02/2020;06:45:07;C/OUT;
2011003;Michelle Mangabat;08/02/2020;06:45:19;C/IN;
2016037;Madel Adigue;08/02/2020;06:45:43;C/OUT;
2006002;Rosalie  Magat;08/02/2020;06:45:43;C/IN;
2017061;2017061;08/02/2020;06:45:57;C/IN;
2012025;Johny;08/02/2020;06:46:06;C/OUT;
2012025;Johny;08/02/2020;06:46:07;C/IN;
2017070;2017070;08/02/2020;06:46:56;C/OUT;
2019021;2019021;08/02/2020;06:47:08;C/IN;
2018040;2018040;08/02/2020;06:47:17;C/IN;
2012006;Allyanna David;08/02/2020;06:47:37;C/OUT;
2007007;Song Boen Lie;08/02/2020;06:47:40;C/OUT;
2007007;Song Boen Lie;08/02/2020;06:47:41;C/IN;
2007002;Jannet Alvarez;08/02/2020;06:48:17;C/OUT;
2012002;Lotlot Flores;08/02/2020;06:48:37;C/OUT;
2011015;Hermanto Phang;08/02/2020;06:48:57;C/IN;
2018091;2018091;08/02/2020;06:48:58;C/OUT;
2006001;Imelda Dela Torre;08/02/2020;06:49:33;C/IN;
2019063;2019063;08/02/2020;06:50:34;C/IN;
2018017;2018017;08/02/2020;06:50:44;C/OUT;
2018096;2018096;08/02/2020;06:51:15;C/OUT;
2018082;2018082;08/02/2020;06:51:29;C/OUT;
2016001;Ronilyn  Bechayda;08/02/2020;06:52:43;C/OUT;
2011011;Franky Gunawan;08/02/2020;06:54:17;C/IN;
2014012;Joana Marie Ondoy;08/02/2020;06:54:28;C/OUT;
2016047;Melly Zablan;08/02/2020;06:54:36;C/OUT;
2014016;Narlin Zhang;08/02/2020;06:54:39;C/OUT;
2018089;2018089;08/02/2020;06:54:46;C/OUT;
2018077;2018077;08/02/2020;06:55:00;C/IN;
2019041;2019041;08/02/2020;06:55:25;C/OUT;
2018095;2018095;08/02/2020;06:55:30;C/OUT;
2018088;2018088;08/02/2020;06:55:38;C/OUT;
2018088;2018088;08/02/2020;06:55:39;C/IN;
2018059;2018059;08/02/2020;06:55:49;C/OUT;
2014004;Lee-Ann Lagahit;08/02/2020;06:55:52;C/OUT;
2012004;Aisa Anthonette Gudao;08/02/2020;06:55:58;C/OUT;
2016098;Adi Gunawan;08/02/2020;06:57:10;C/IN;
2019074;2019074;08/02/2020;06:58:48;C/OUT;
2019077;2019077;08/02/2020;06:59:15;C/OUT;
2017030;Karen Danica Maranan;08/02/2020;06:59:32;C/IN;
2018025;2018025;08/02/2020;07:00:08;C/OUT;
2006004;Evelyn L. Latuga;08/02/2020;07:00:46;C/OUT;
2006004;Evelyn L. Latuga;08/02/2020;07:00:53;C/OUT;
2018053;2018053;08/02/2020;07:01:35;C/OUT;
2018001;Orlan Relente;08/02/2020;07:02:04;C/OUT;
2016081;John Caleb Espanola;08/02/2020;07:03:19;C/IN;
2011016;Fendi Tan;08/02/2020;07:04:03;C/IN;
2019028;2019028;08/02/2020;07:04:45;C/OUT;
2016014;Jhovielyn Diane Villarba;08/02/2020;07:04:49;C/OUT;
2015033;Caryl Anne Nocum;08/02/2020;07:05:15;C/OUT;
2018097;2018097;08/02/2020;07:05:47;C/OUT;
2018097;2018097;08/02/2020;07:05:50;C/OUT;
2015004;Dhoriz Escueta;08/02/2020;07:06:42;C/OUT;
2017023;Sharlotte Movilla;08/02/2020;07:07:01;C/OUT;
2016041;Jobelie Borja;08/02/2020;07:07:19;C/OUT;
2019057;2019057;08/02/2020;07:07:43;C/OUT;
2006008;Malu Sigua;08/02/2020;07:08:29;C/OUT;
2008007;Tobias Lawiarso;08/02/2020;07:10:32;C/IN;
2016094;Franz Kevin R. Loayon;08/02/2020;07:10:43;C/OUT;
2018021;2018021;08/02/2020;07:10:46;C/OUT;
2019050;2019050;08/02/2020;07:15:40;C/OUT;
2011008;Richard Elvambuena;08/02/2020;07:15:47;C/OUT;
2019051;2019051;08/02/2020;07:17:08;C/OUT;
2019088;2019088;08/02/2020;07:17:41;C/OUT;
2016076;Mary-Ann Barbadia;08/02/2020;07:26:30;C/IN;
2019047;2019047;08/02/2020;07:28:01;C/OUT;
2015074;Neil Saquin;08/02/2020;07:35:37;C/OUT;
2015072;Mayrose P. Brodeth;08/02/2020;07:52:44;C/IN;
2017037;Kristian;08/02/2020;07:54:06;C/IN;
2017037;Kristian;08/02/2020;07:54:10;C/IN;
2015071;Cindy Cayubit;08/02/2020;07:55:53;C/IN;
2018061;2018061;08/02/2020;07:56:07;C/OUT;
2016050;Kimberly Tiquillo;08/02/2020;07:56:10;C/IN;
2009007;Sukardi Omar;08/02/2020;07:59:06;C/IN;
2018046;2018046;08/02/2020;07:59:25;C/IN;
2013017;Tedy Tan Patti;08/02/2020;07:59:48;C/IN;
2008008;Hendra R;08/02/2020;08:10:48;C/IN;
2016029;Mary Joyce Santos;08/02/2020;08:25:47;C/OUT;
2018009;2018009;08/02/2020;08:35:05;C/IN;
2019055;2019055;08/02/2020;08:40:50;C/IN;
2014032;Gretchen Donato;08/02/2020;08:43:05;C/IN;
2014032;Gretchen Donato;08/02/2020;08:43:40;C/IN;
2013016;Hendrik Ong;08/02/2020;08:47:04;C/IN;
2018013;2018013;08/02/2020;08:49:02;C/IN;
2007006;Suhariadi Hadian;08/02/2020;08:50:44;C/IN;
2018104;2018104;08/02/2020;08:51:46;C/IN;
2011013;Harley Wongso;08/02/2020;08:58:17;C/IN;
2013008;Wilmark John G. Domingo;08/02/2020;09:41:07;C/IN;
2013008;Wilmark John G. Domingo;08/02/2020;09:41:16;C/IN;
2016003;Anne Bernadette Bustos;08/02/2020;09:52:11;C/IN;
1004;1004;08/02/2020;09:58:11;C/IN;
2012023;Leonardo  Delos Santos;08/02/2020;11:49:00;C/IN;
2012023;Leonardo  Delos Santos;08/02/2020;11:49:05;C/IN;
2016088;Ferdinand Francia;08/02/2020;12:01:15;C/OUT;
2016089;Julius C;08/02/2020;12:01:43;C/OUT;
2016089;Julius C;08/02/2020;12:01:47;C/OUT;
2019025;2019025;08/02/2020;12:54:13;C/IN;
2019025;2019025;08/02/2020;12:54:20;C/IN;
2015072;Mayrose P. Brodeth;08/02/2020;13:02:31;C/OUT;
2016019;Renz Marrion  Federang;08/02/2020;13:02:34;C/OUT;
2017040;Geraldin;08/02/2020;13:18:45;C/IN;
2017040;Geraldin;08/02/2020;13:18:55;C/IN;
2018050;2018050;08/02/2020;13:19:16;C/IN;
2015006;Jamielou Montealegre;08/02/2020;13:23:29;C/IN;
2015006;Jamielou Montealegre;08/02/2020;13:23:33;C/IN;
2016059;Paul Anthony Nuguit;08/02/2020;13:43:12;C/IN;
2018051;2018051;08/02/2020;13:47:38;C/IN;
2016036;Marivic  Lasay;08/02/2020;13:49:02;C/IN;
2019052;2019052;08/02/2020;13:57:12;C/IN;
2019091;2019091;08/02/2020;14:00:47;C/OUT;
2018003;2018003;08/02/2020;14:00:53;C/OUT;
2018105;2018105;08/02/2020;14:00:58;C/OUT;
2018075;2018075;08/02/2020;14:01:04;C/OUT;
2016035;Judy Lasay;08/02/2020;14:02:19;C/OUT;
2014039;Jimmy, Hendra;08/02/2020;14:02:36;C/OUT;
2019026;2019026;08/02/2020;14:03:24;C/OUT;
2019064;2019064;08/02/2020;14:05:05;C/OUT;
2017003;Nelia E. Germedia;08/02/2020;14:06:28;C/OUT;
2017003;Nelia E. Germedia;08/02/2020;14:16:49;C/OUT;
2018071;2018071;08/02/2020;14:21:08;C/IN;
2006022;Martin Martin;08/02/2020;14:30:37;C/OUT;
2006022;Martin Martin;08/02/2020;14:30:38;C/IN;
2011012;Ropin;08/02/2020;14:31:06;C/OUT;
2011012;Ropin;08/02/2020;14:31:07;C/IN;
2017042;Allbert Jay Valera;08/02/2020;14:33:27;C/OUT;
2016017;Richard Nichole B. Megu;08/02/2020;14:34:22;C/IN;
2018010;2018010;08/02/2020;14:34:25;C/IN;
2006010;Madel Ramos;08/02/2020;14:34:45;C/IN;
2008004;Joy Salvador;08/02/2020;14:35:37;C/IN;
2019016;2019016;08/02/2020;14:36:30;C/IN;
2008005;Catherine Taruc;08/02/2020;14:38:23;C/IN;
2017033;Mico Gumilao;08/02/2020;14:38:25;C/IN;
2017033;Mico Gumilao;08/02/2020;14:38:28;C/IN;
2007004;Marichu Mariano;08/02/2020;14:41:10;C/IN;
2019076;2019076;08/02/2020;14:41:43;C/IN;
2019078;2019078;08/02/2020;14:41:46;C/IN;
2019039;2019039;08/02/2020;14:41:49;C/IN;
2010008;2010008;08/02/2020;14:41:52;C/IN;
2015019;Kimberlyn Bondoc;08/02/2020;14:41:56;C/IN;
2017018;Melissa Andaya;08/02/2020;14:42:02;C/IN;
2015024;Jiekka Catugas;08/02/2020;14:42:06;C/IN;
2017053;2017053;08/02/2020;14:42:10;C/IN;
2015027;Rosemin Flores;08/02/2020;14:42:13;C/IN;
2016075;Rosario  Filio;08/02/2020;14:42:16;C/IN;
2018085;2018085;08/02/2020;14:42:20;C/IN;
2019001;2019001;08/02/2020;14:42:24;C/IN;
2016044;Vina Estrelle Garcia;08/02/2020;14:42:30;C/IN;
2018057;2018057;08/02/2020;14:42:33;C/IN;
2016074;Ferlyn  Arroyo;08/02/2020;14:42:40;C/IN;
2019059;2019059;08/02/2020;14:42:44;C/IN;
2018030;2018030;08/02/2020;14:42:48;C/IN;
2006017;Jennifer Gapasen;08/02/2020;14:42:52;C/IN;
2018063;2018063;08/02/2020;14:42:56;C/IN;
2019031;2019031;08/02/2020;14:43:00;C/IN;
2019044;2019044;08/02/2020;14:43:03;C/IN;
2012008;Janine Magracia;08/02/2020;14:43:07;C/IN;
2018060;2018060;08/02/2020;14:43:10;C/IN;
2011005;Menessa Pascual;08/02/2020;14:43:14;C/IN;
2015015;Aiza Villania;08/02/2020;14:43:17;C/IN;
2019084;2019084;08/02/2020;14:43:21;C/IN;
2007005;Maricris Severo;08/02/2020;14:43:23;C/IN;
2012001;Lorena De Torres;08/02/2020;14:43:30;C/IN;
2006005;Jonalyn Luna;08/02/2020;14:43:33;C/IN;
2007005;Maricris Severo;08/02/2020;14:43:36;C/IN;
2019012;2019012;08/02/2020;14:43:45;C/IN;
2013009;Maria Gurrobat;08/02/2020;14:44:25;C/IN;
2010011;Emily D. Daguman;08/02/2020;14:45:46;C/OUT;
2016078;Antonette Isorena;08/02/2020;14:45:51;C/OUT;
2016010;Jairah Santos;08/02/2020;14:45:59;C/OUT;
2006007;Myleen Bautista;08/02/2020;14:46:31;C/OUT;
2015073;Antonito Tolin;08/02/2020;14:46:37;C/IN;
2006006;Rowena Jane  Arcilla;08/02/2020;14:47:12;C/OUT;
2019062;2019062;08/02/2020;14:48:02;C/IN;
2013005;Nikki Jean Vincoy;08/02/2020;14:48:09;C/OUT;
2013005;Nikki Jean Vincoy;08/02/2020;14:48:13;C/OUT;
2010010;Mae  Aguanza;08/02/2020;14:48:32;C/OUT;
2006020;Edi Oei;08/02/2020;14:49:13;C/OUT;
2006020;Edi Oei;08/02/2020;14:49:14;C/IN;
2017062;2017062;08/02/2020;14:49:42;C/OUT;
2017062;2017062;08/02/2020;14:50:35;C/OUT;
2018094;2018094;08/02/2020;14:50:43;C/OUT;
2017460;2017460;08/02/2020;14:51:51;C/OUT;
2019069;2019069;08/02/2020;14:52:32;C/IN;
2019037;2019037;08/02/2020;14:54:21;C/OUT;
2019009;2019009;08/02/2020;14:54:44;C/OUT;
2017061;2017061;08/02/2020;14:55:16;C/OUT;
2017052;2017052;08/02/2020;14:55:32;C/OUT;
2016009;Rizzalie  Salabsab;08/02/2020;14:55:37;C/OUT;
2017017;Jonah Jean Algura;08/02/2020;14:55:42;C/OUT;
2015028;Diana Galang;08/02/2020;14:55:47;C/OUT;
2019085;2019085;08/02/2020;14:55:49;C/IN;
2015028;Diana Galang;08/02/2020;14:55:56;C/OUT;
2015003;Virlyn Costales;08/02/2020;14:56:41;C/OUT;
2015013;Babylyn Jolo;08/02/2020;14:57:00;C/OUT;
2015003;Virlyn Costales;08/02/2020;14:57:07;C/OUT;
2014015;Garlie Jane Walican;08/02/2020;14:58:44;C/OUT;
2018065;2018065;08/02/2020;14:59:02;C/OUT;
2016062;Maricris Santos;08/02/2020;14:59:23;C/OUT;
2006006;Rowena Jane  Arcilla;08/02/2020;14:59:31;C/OUT;
2006011;Maureen Lintag;08/02/2020;14:59:39;C/OUT;
2012014;Mary Joy Calda;08/02/2020;14:59:45;C/OUT;
2018029;2018029;08/02/2020;15:00:01;C/OUT;
2017060;2017060;08/02/2020;15:00:08;C/OUT;
2009005;Mary Rose Gicaraya;08/02/2020;15:00:20;C/OUT;
2009003;Liezl  Licop;08/02/2020;15:00:25;C/OUT;
2015012;Mary Rose Gatong;08/02/2020;15:00:29;C/OUT;
2011016;Fendi Tan;08/02/2020;15:00:39;C/OUT;
2011011;Franky Gunawan;08/02/2020;15:00:56;C/OUT;
2016003;Anne Bernadette Bustos;08/02/2020;15:01:02;C/OUT;
2011003;Michelle Mangabat;08/02/2020;15:01:27;C/OUT;
2017025;Julie Ann Recaido;08/02/2020;15:01:40;C/OUT;
2018026;2018026;08/02/2020;15:02:23;C/OUT;
2018028;2018028;08/02/2020;15:02:35;C/OUT;
2018100;2018100;08/02/2020;15:03:24;C/OUT;
2017006;Percival Lai;08/02/2020;15:03:30;C/OUT;
2017006;Percival Lai;08/02/2020;15:03:34;C/OUT;
2016087;Shaira Castillo;08/02/2020;15:03:43;C/OUT;
2016087;Shaira Castillo;08/02/2020;15:03:46;C/OUT;
2011015;Hermanto Phang;08/02/2020;15:03:52;C/OUT;
2016004;Jaylyn David;08/02/2020;15:04:46;C/OUT;
2016020;Michael Jordan Parungao;08/02/2020;15:04:50;C/OUT;
2015041;Karen Grace  Santos;08/02/2020;15:04:56;C/OUT;
2012012;Barbette Talag;08/02/2020;15:05:36;C/OUT;
2010006;Catherine Cunanan;08/02/2020;15:05:51;C/OUT;
2018093;2018093;08/02/2020;15:06:56;C/OUT;
2010007;Elinea Mendoza;08/02/2020;15:10:14;C/OUT;
2008007;Tobias Lawiarso;08/02/2020;15:11:20;C/OUT;
2016018;Rejelle  Corpuz;08/02/2020;15:16:09;C/OUT;
2018040;2018040;08/02/2020;15:16:13;C/OUT;
2018077;2018077;08/02/2020;15:16:35;C/OUT;
2019063;2019063;08/02/2020;15:17:11;C/OUT;
2016098;Adi Gunawan;08/02/2020;15:17:16;C/OUT;
2012024;Newton;08/02/2020;15:17:21;C/OUT;
2015094;2015094;08/02/2020;15:20:46;C/OUT;
2019021;2019021;08/02/2020;15:22:35;C/OUT;
2009007;Sukardi Omar;08/02/2020;16:01:23;C/OUT;
2013017;Tedy Tan Patti;08/02/2020;16:03:55;C/OUT;
2018101;2018101;08/02/2020;16:05:02;C/OUT;
2006002;Rosalie  Magat;08/02/2020;16:06:22;C/OUT;
2016050;Kimberly Tiquillo;08/02/2020;16:06:39;C/OUT;
2006001;Imelda Dela Torre;08/02/2020;16:06:43;C/OUT;
2017030;Karen Danica Maranan;08/02/2020;16:06:47;C/OUT;
2018056;2018056;08/02/2020;16:08:28;C/OUT;
2013008;Wilmark John G. Domingo;08/02/2020;16:32:09;C/OUT;
2016081;John Caleb Espanola;08/02/2020;16:36:20;C/OUT;
2008008;Hendra R;08/02/2020;16:55:23;C/OUT;
2017037;Kristian;08/02/2020;17:00:18;C/OUT;
2011010;Angel  Abelligos;08/02/2020;17:02:53;C/OUT;
2011010;Angel  Abelligos;08/02/2020;17:02:56;C/OUT;
2018046;2018046;08/02/2020;17:03:53;C/OUT;
2016076;Mary-Ann Barbadia;08/02/2020;17:05:09;C/OUT;
2019066;2019066;08/02/2020;17:05:13;C/OUT;
2019055;2019055;08/02/2020;17:05:18;C/OUT;
2019055;2019055;08/02/2020;17:06:03;C/OUT;
2015071;Cindy Cayubit;08/02/2020;17:06:14;C/OUT;
2018104;2018104;08/02/2020;17:08:54;C/OUT;
2011013;Harley Wongso;08/02/2020;17:10:41;C/OUT;
2013016;Hendrik Ong;08/02/2020;17:10:54;C/OUT;
2018009;2018009;08/02/2020;17:11:14;C/OUT;
2007006;Suhariadi Hadian;08/02/2020;17:13:52;C/OUT;
2014032;Gretchen Donato;08/02/2020;17:14:29;C/OUT;
2014032;Gretchen Donato;08/02/2020;17:16:27;C/OUT;
2019028;2019028;08/02/2020;18:42:27;C/IN;
2016041;Jobelie Borja;08/02/2020;18:42:30;C/IN;
2016040;Janice Borja;08/02/2020;18:58:12;C/OUT;
2019038;2019038;08/02/2020;18:58:19;C/OUT;
2016040;Janice Borja;08/02/2020;18:58:23;C/OUT;
2018013;2018013;08/02/2020;19:14:57;C/OUT;
2013014;Arnold de Gracia;08/02/2020;20:25:51;C/IN;
2013014;Arnold de Gracia;08/02/2020;20:25:54;C/IN;
2018099;2018099;08/02/2020;21:25:50;C/IN;
2017016;Karren  Gonzales;08/02/2020;21:28:25;C/IN;
2019048;2019048;08/02/2020;21:34:31;C/IN;
2017036;Joemar C;08/02/2020;21:37:16;C/IN;
2016094;Franz Kevin R. Loayon;08/02/2020;21:47:48;C/IN;
2018015;2018015;08/02/2020;21:48:49;C/IN;
2015095;2015095;08/02/2020;21:51:53;C/IN;
2019068;2019068;08/02/2020;21:51:59;C/IN;
2019067;2019067;08/02/2020;21:52:52;C/IN;
2019049;2019049;08/02/2020;21:53:00;C/IN;
2019049;2019049;08/02/2020;21:53:05;C/IN;
2017040;Geraldin;08/02/2020;22:00:12;C/IN;
2018050;2018050;08/02/2020;22:00:20;C/IN;
2019025;2019025;08/02/2020;22:00:33;C/IN;
2019025;2019025;08/02/2020;22:00:36;C/IN;
2015006;Jamielou Montealegre;08/02/2020;22:00:39;C/IN;
2016059;Paul Anthony Nuguit;08/02/2020;22:00:46;C/IN;
2018071;2018071;08/02/2020;22:02:49;C/IN;
2018051;2018051;08/02/2020;22:03:15;C/IN;
2016036;Marivic  Lasay;08/02/2020;22:03:58;C/OUT;
2018071;2018071;08/02/2020;22:04:07;C/OUT;
2018051;2018051;08/02/2020;22:04:15;C/OUT;
2012023;Leonardo  Delos Santos;08/02/2020;22:05:45;C/OUT;
2012023;Leonardo  Delos Santos;08/02/2020;22:05:50;C/OUT;
2011008;Richard Elvambuena;08/02/2020;22:23:00;C/IN;
2018053;2018053;08/02/2020;22:31:38;C/IN;
2012025;Johny;08/02/2020;22:31:43;C/IN;
2007007;Song Boen Lie;08/02/2020;22:32:05;C/IN;
2007002;Jannet Alvarez;08/02/2020;22:33:57;C/IN;
2019051;2019051;08/02/2020;22:35:20;C/IN;
2006004;Evelyn L. Latuga;08/02/2020;22:38:17;C/IN;
2006008;Malu Sigua;08/02/2020;22:38:22;C/IN;
2010005;Joanna Marie  Agregado;08/02/2020;22:41:15;C/IN;
2014012;Joana Marie Ondoy;08/02/2020;22:41:19;C/IN;
2019077;2019077;08/02/2020;22:41:24;C/IN;
2019074;2019074;08/02/2020;22:41:28;C/IN;
2016047;Melly Zablan;08/02/2020;22:41:30;C/IN;
2019057;2019057;08/02/2020;22:41:34;C/IN;
2015033;Caryl Anne Nocum;08/02/2020;22:41:38;C/IN;
2018096;2018096;08/02/2020;22:41:41;C/IN;
2018082;2018082;08/02/2020;22:41:45;C/IN;
2016043;Abegail D. Dalit;08/02/2020;22:41:49;C/IN;
2012006;Allyanna David;08/02/2020;22:41:56;C/IN;
2015004;Dhoriz Escueta;08/02/2020;22:42:00;C/IN;
2018059;2018059;08/02/2020;22:42:11;C/IN;
2018034;2018034;08/02/2020;22:42:14;C/IN;
2014016;Narlin Zhang;08/02/2020;22:42:17;C/IN;
2017068;2017068;08/02/2020;22:42:22;C/IN;
2018025;2018025;08/02/2020;22:42:25;C/IN;
2018091;2018091;08/02/2020;22:42:29;C/IN;
2015018;Jhanet Rose Viray;08/02/2020;22:42:37;C/IN;
2017070;2017070;08/02/2020;22:42:41;C/IN;
2012004;Aisa Anthonette Gudao;08/02/2020;22:42:45;C/IN;
2018062;2018062;08/02/2020;22:42:49;C/IN;
2014004;Lee-Ann Lagahit;08/02/2020;22:42:53;C/IN;
2017023;Sharlotte Movilla;08/02/2020;22:42:56;C/IN;
2012002;Lotlot Flores;08/02/2020;22:42:59;C/IN;
2016001;Ronilyn  Bechayda;08/02/2020;22:43:06;C/IN;
2016037;Madel Adigue;08/02/2020;22:43:11;C/IN;
2010012;Darlitio;08/02/2020;22:43:45;C/IN;
2017046;John Paulo Reyes;08/02/2020;22:44:03;C/IN;
2019001;2019001;08/02/2020;22:45:06;C/OUT;
2018057;2018057;08/02/2020;22:45:12;C/OUT;
2018060;2018060;08/02/2020;22:45:16;C/OUT;
2018017;2018017;08/02/2020;22:45:44;C/IN;
2006022;Martin Martin;08/02/2020;22:46:39;C/IN;
2006022;Martin Martin;08/02/2020;22:46:40;C/IN;
2019031;2019031;08/02/2020;22:46:46;C/OUT;
2006023;Hartono Lamina;08/02/2020;22:46:57;C/OUT;
2019044;2019044;08/02/2020;22:47:01;C/OUT;
2019039;2019039;08/02/2020;22:47:15;C/OUT;
2018030;2018030;08/02/2020;22:47:44;C/OUT;
2018063;2018063;08/02/2020;22:47:47;C/OUT;
2016075;Rosario  Filio;08/02/2020;22:48:58;C/OUT;
2017018;Melissa Andaya;08/02/2020;22:49:08;C/OUT;
2011005;Menessa Pascual;08/02/2020;22:50:55;C/OUT;
2016044;Vina Estrelle Garcia;08/02/2020;22:51:02;C/OUT;
2015024;Jiekka Catugas;08/02/2020;22:51:16;C/OUT;
2018085;2018085;08/02/2020;22:51:24;C/OUT;
2019062;2019062;08/02/2020;22:51:34;C/OUT;
2019059;2019059;08/02/2020;22:51:47;C/OUT;
2018085;2018085;08/02/2020;22:51:55;C/OUT;
2019012;2019012;08/02/2020;22:51:59;C/OUT;
2007004;Marichu Mariano;08/02/2020;22:52:31;C/OUT;
2006017;Jennifer Gapasen;08/02/2020;22:52:47;C/OUT;
2013009;Maria Gurrobat;08/02/2020;22:53:31;C/OUT;
2012001;Lorena De Torres;08/02/2020;22:53:36;C/OUT;
2008005;Catherine Taruc;08/02/2020;22:53:50;C/OUT;
2016074;Ferlyn  Arroyo;08/02/2020;22:54:34;C/OUT;
2019088;2019088;08/02/2020;22:54:44;C/IN;
2012008;Janine Magracia;08/02/2020;22:54:52;C/OUT;
2006005;Jonalyn Luna;08/02/2020;22:55:15;C/OUT;
2007005;Maricris Severo;08/02/2020;22:55:22;C/OUT;
2015019;Kimberlyn Bondoc;08/02/2020;22:55:27;C/OUT;
2010008;2010008;08/02/2020;22:55:39;C/OUT;
2015027;Rosemin Flores;08/02/2020;22:58:18;C/OUT;
2019084;2019084;08/02/2020;22:59:24;C/OUT;
2019076;2019076;08/02/2020;23:00:56;C/OUT;
2016017;Richard Nichole B. Megu;08/02/2020;23:01:02;C/OUT;
2019016;2019016;08/02/2020;23:01:06;C/OUT;
2008004;Joy Salvador;08/02/2020;23:01:40;C/OUT;
2017033;Mico Gumilao;08/02/2020;23:02:01;C/OUT;
2017033;Mico Gumilao;08/02/2020;23:02:05;C/OUT;
2017053;2017053;08/02/2020;23:03:38;C/OUT;
2015015;Aiza Villania;08/02/2020;23:04:37;C/OUT;
2006010;Madel Ramos;08/02/2020;23:04:44;C/OUT;
2008004;Joy Salvador;08/02/2020;23:04:50;C/OUT;
2018010;2018010;08/02/2020;23:13:28;C/OUT;
2019052;2019052;08/02/2020;23:18:12;C/OUT;
2019085;2019085;08/02/2020;23:18:16;C/OUT;
