2015073;Antonito Tolin;18/02/2020;00:14:56;C/OUT;
2017005;Nathalie Ocbina;18/02/2020;05:08:51;C/IN;
2017016;Karren  Gonzales;18/02/2020;05:13:54;C/IN;
2016089;Julius C;18/02/2020;05:21:30;C/IN;
2016089;Julius C;18/02/2020;05:21:33;C/IN;
2017040;Geraldin;18/02/2020;05:22:53;C/IN;
2017040;Geraldin;18/02/2020;05:22:58;C/IN;
2018067;2018067;18/02/2020;05:25:23;C/IN;
2016087;Shaira Castillo;18/02/2020;05:31:03;C/IN;
2016087;Shaira Castillo;18/02/2020;05:31:07;C/IN;
2012018;Vincent  Caneza;18/02/2020;05:32:32;C/IN;
2018038;2018038;18/02/2020;05:36:59;C/IN;
2017042;Allbert Jay Valera;18/02/2020;05:43:06;C/OUT;
2017042;Allbert Jay Valera;18/02/2020;05:43:12;C/IN;
2017042;Allbert Jay Valera;18/02/2020;05:43:16;C/IN;
2018022;2018022;18/02/2020;05:44:58;C/IN;
2016088;Ferdinand Francia;18/02/2020;05:46:57;C/IN;
2018100;2018100;18/02/2020;05:48:40;C/IN;
2018051;2018051;18/02/2020;05:50:20;C/IN;
2006015;Reynaldo Enriquez;18/02/2020;05:51:36;C/IN;
2015095;2015095;18/02/2020;05:52:18;C/IN;
2017004;Elena Gallanes;18/02/2020;05:53:23;C/IN;
2016036;Marivic  Lasay;18/02/2020;05:53:32;C/IN;
2017004;Elena Gallanes;18/02/2020;05:55:18;C/IN;
2018104;2018104;18/02/2020;05:56:51;C/IN;
2019068;2019068;18/02/2020;05:58:47;C/IN;
2018015;2018015;18/02/2020;05:59:55;C/IN;
2019045;2019045;18/02/2020;06:00:04;C/OUT;
2016035;Judy Lasay;18/02/2020;06:00:54;C/OUT;
2018075;2018075;18/02/2020;06:01:55;C/OUT;
2018048;2018048;18/02/2020;06:01:58;C/IN;
2015006;Jamielou Montealegre;18/02/2020;06:02:00;C/OUT;
2018003;2018003;18/02/2020;06:02:05;C/OUT;
2019064;2019064;18/02/2020;06:04:28;C/OUT;
2013010;Marlon Harry Cardines;18/02/2020;06:07:42;C/IN;
2017003;Nelia E. Germedia;18/02/2020;06:08:12;C/OUT;
2018077;2018077;18/02/2020;06:08:17;C/IN;
2017037;Kristian;18/02/2020;06:10:51;C/IN;
2017037;Kristian;18/02/2020;06:10:55;C/IN;
2018105;2018105;18/02/2020;06:13:04;C/OUT;
2019022;2019022;18/02/2020;06:20:33;C/IN;
2019052;2019052;18/02/2020;06:25:57;C/IN;
2011010;Angel  Abelligos;18/02/2020;06:32:06;C/IN;
2007004;Marichu Mariano;18/02/2020;06:34:01;C/IN;
2006010;Madel Ramos;18/02/2020;06:34:43;C/IN;
2019016;2019016;18/02/2020;06:35:51;C/IN;
2007004;Marichu Mariano;18/02/2020;06:37:33;C/IN;
2006003;Faith Joy L. Baaco;18/02/2020;06:38:44;C/IN;
2019021;2019021;18/02/2020;06:39:51;C/IN;
2006008;Malu Sigua;18/02/2020;06:40:24;C/IN;
2010005;Joanna Marie  Agregado;18/02/2020;06:41:37;C/IN;
2013005;Nikki Jean Vincoy;18/02/2020;06:41:42;C/IN;
2012002;Lotlot Flores;18/02/2020;06:41:46;C/IN;
2018025;2018025;18/02/2020;06:41:49;C/IN;
2010010;Mae  Aguanza;18/02/2020;06:41:53;C/IN;
2019041;2019041;18/02/2020;06:41:59;C/IN;
2016075;Rosario  Filio;18/02/2020;06:42:03;C/IN;
2015027;Rosemin Flores;18/02/2020;06:42:06;C/IN;
2012023;Leonardo  Delos Santos;18/02/2020;06:42:11;C/IN;
2014006;Jean Pascual;18/02/2020;06:42:11;C/IN;
2008005;Catherine Taruc;18/02/2020;06:42:16;C/IN;
2012023;Leonardo  Delos Santos;18/02/2020;06:42:17;C/IN;
2016044;Vina Estrelle Garcia;18/02/2020;06:42:20;C/IN;
2018030;2018030;18/02/2020;06:42:23;C/IN;
2019078;2019078;18/02/2020;06:42:27;C/IN;
2019059;2019059;18/02/2020;06:42:36;C/IN;
2010008;2010008;18/02/2020;06:42:45;C/IN;
2019044;2019044;18/02/2020;06:42:48;C/IN;
2019007;2019007;18/02/2020;06:42:53;C/IN;
2018063;2018063;18/02/2020;06:43:02;C/IN;
2018088;2018088;18/02/2020;06:43:07;C/IN;
2018089;2018089;18/02/2020;06:43:11;C/IN;
2017018;Melissa Andaya;18/02/2020;06:43:16;C/IN;
2013009;Maria Gurrobat;18/02/2020;06:43:21;C/IN;
2018095;2018095;18/02/2020;06:43:25;C/IN;
2015003;Virlyn Costales;18/02/2020;06:43:29;C/IN;
2014016;Narlin Zhang;18/02/2020;06:43:33;C/IN;
2019001;2019001;18/02/2020;06:43:37;C/IN;
2017053;2017053;18/02/2020;06:43:40;C/IN;
2006020;Edi Oei;18/02/2020;06:43:41;C/IN;
2012008;Janine Magracia;18/02/2020;06:43:44;C/IN;
2016014;Jhovielyn Diane Villarba;18/02/2020;06:43:51;C/IN;
2018060;2018060;18/02/2020;06:44:10;C/IN;
2007005;Maricris Severo;18/02/2020;06:44:22;C/IN;
2012025;Johny;18/02/2020;06:44:26;C/OUT;
2012025;Johny;18/02/2020;06:44:28;C/IN;
2019054;2019054;18/02/2020;06:45:08;C/IN;
2018101;2018101;18/02/2020;06:45:12;C/IN;
2019037;2019037;18/02/2020;06:45:14;C/OUT;
2016077;Precious Angelica Liban;18/02/2020;06:45:19;C/OUT;
2016078;Antonette Isorena;18/02/2020;06:45:22;C/OUT;
2011005;Menessa Pascual;18/02/2020;06:45:28;C/OUT;
2018057;2018057;18/02/2020;06:46:06;C/IN;
2010012;Darlitio;18/02/2020;06:46:08;C/OUT;
2010012;Darlitio;18/02/2020;06:46:09;C/IN;
2018057;2018057;18/02/2020;06:46:12;C/IN;
2019062;2019062;18/02/2020;06:47:23;C/IN;
2017070;2017070;18/02/2020;06:47:31;C/OUT;
2015002;Jerrel Joy Azuelo;18/02/2020;06:47:41;C/OUT;
2015013;Babylyn Jolo;18/02/2020;06:47:53;C/OUT;
2012004;Aisa Anthonette Gudao;18/02/2020;06:48:25;C/OUT;
2006006;Rowena Jane  Arcilla;18/02/2020;06:49:21;C/OUT;
2016016;Jessie John Janairo;18/02/2020;06:49:46;C/IN;
2006001;Imelda Dela Torre;18/02/2020;06:49:51;C/IN;
2019063;2019063;18/02/2020;06:50:03;C/IN;
2019051;2019051;18/02/2020;06:50:08;C/IN;
2019087;2019087;18/02/2020;06:50:27;C/IN;
2017061;2017061;18/02/2020;06:50:40;C/OUT;
2017460;2017460;18/02/2020;06:50:59;C/OUT;
2017054;2017054;18/02/2020;06:51:21;C/OUT;
2016004;Jaylyn David;18/02/2020;06:51:51;C/OUT;
2016009;Rizzalie  Salabsab;18/02/2020;06:51:57;C/OUT;
2018045;2018045;18/02/2020;06:53:59;C/IN;
2018032;2018032;18/02/2020;06:57:11;C/OUT;
2016040;Janice Borja;18/02/2020;06:58:52;C/OUT;
2018093;2018093;18/02/2020;06:59:07;C/OUT;
2018094;2018094;18/02/2020;06:59:21;C/OUT;
2017017;Jonah Jean Algura;18/02/2020;07:00:32;C/OUT;
2018029;2018029;18/02/2020;07:00:38;C/OUT;
2012024;Newton;18/02/2020;07:01:03;C/IN;
2017052;2017052;18/02/2020;07:01:07;C/OUT;
2018001;Orlan Relente;18/02/2020;07:01:22;C/OUT;
2016049;Lourie Jane Orellano;18/02/2020;07:01:44;C/OUT;
2011003;Michelle Mangabat;18/02/2020;07:02:30;C/OUT;
2015024;Jiekka Catugas;18/02/2020;07:02:34;C/OUT;
2019023;2019023;18/02/2020;07:02:40;C/OUT;
2009003;Liezl  Licop;18/02/2020;07:02:45;C/OUT;
2016062;Maricris Santos;18/02/2020;07:03:03;C/OUT;
2018028;2018028;18/02/2020;07:03:10;C/OUT;
2009004;Margarita Rivera;18/02/2020;07:03:17;C/OUT;
2009004;Margarita Rivera;18/02/2020;07:03:21;C/OUT;
2010007;Elinea Mendoza;18/02/2020;07:03:55;C/OUT;
2012014;Mary Joy Calda;18/02/2020;07:04:15;C/OUT;
2017006;Percival Lai;18/02/2020;07:05:48;C/OUT;
2017006;Percival Lai;18/02/2020;07:05:52;C/OUT;
2019055;2019055;18/02/2020;07:05:56;C/OUT;
2018026;2018026;18/02/2020;07:07:01;C/OUT;
2015015;Aiza Villania;18/02/2020;07:08:19;C/OUT;
2017046;John Paulo Reyes;18/02/2020;07:12:35;C/OUT;
2017023;Sharlotte Movilla;18/02/2020;07:14:15;C/OUT;
2018061;2018061;18/02/2020;07:14:23;C/OUT;
2013010;Marlon Harry Cardines;18/02/2020;07:15:36;C/OUT;
2019084;2019084;18/02/2020;07:16:11;C/IN;
2018040;2018040;18/02/2020;07:16:21;C/OUT;
2016018;Rejelle  Corpuz;18/02/2020;07:16:27;C/OUT;
2019028;2019028;18/02/2020;07:17:19;C/IN;
2006002;Rosalie  Magat;18/02/2020;07:17:38;C/IN;
2019089;2019089;18/02/2020;07:22:14;C/OUT;
2012001;Lorena De Torres;18/02/2020;07:23:12;C/OUT;
2018099;2018099;18/02/2020;07:23:37;C/OUT;
