2019069;2019069;16/02/2020;00:02:41;C/OUT;
2015073;Antonito Tolin;16/02/2020;00:10:33;C/OUT;
2016045;Aisha May Horca;16/02/2020;02:45:29;C/OUT;
2014012;Joana Marie Ondoy;16/02/2020;02:46:42;C/OUT;
2015018;Jhanet Rose Viray;16/02/2020;02:46:48;C/OUT;
2014004;Lee-Ann Lagahit;16/02/2020;02:48:50;C/OUT;
2014004;Lee-Ann Lagahit;16/02/2020;02:54:55;C/OUT;
2017052;2017052;16/02/2020;03:05:42;C/OUT;
2018050;2018050;16/02/2020;05:19:04;C/IN;
2017040;Geraldin;16/02/2020;05:22:36;C/IN;
2017040;Geraldin;16/02/2020;05:22:41;C/IN;
2012019;Joe Fred  Infante;16/02/2020;05:34:24;C/IN;
2018038;2018038;16/02/2020;05:35:11;C/IN;
2017042;Allbert Jay Valera;16/02/2020;05:39:42;C/IN;
2018051;2018051;16/02/2020;05:48:25;C/IN;
2018104;2018104;16/02/2020;05:50:43;C/IN;
2016036;Marivic  Lasay;16/02/2020;05:53:31;C/IN;
2018022;2018022;16/02/2020;05:54:48;C/IN;
2018101;2018101;16/02/2020;05:55:30;C/IN;
2018071;2018071;16/02/2020;05:58:00;C/IN;
2018015;2018015;16/02/2020;06:00:08;C/IN;
2015006;Jamielou Montealegre;16/02/2020;06:00:14;C/OUT;
2018005;2018005;16/02/2020;06:00:36;C/OUT;
2019048;2019048;16/02/2020;06:00:52;C/OUT;
2018074;2018074;16/02/2020;06:01:18;C/OUT;
2018075;2018075;16/02/2020;06:01:25;C/OUT;
2019051;2019051;16/02/2020;06:02:42;C/IN;
2016035;Judy Lasay;16/02/2020;06:02:59;C/OUT;
2017003;Nelia E. Germedia;16/02/2020;06:03:13;C/OUT;
2018048;2018048;16/02/2020;06:03:21;C/IN;
2019064;2019064;16/02/2020;06:08:07;C/OUT;
2017037;Kristian;16/02/2020;06:13:02;C/IN;
2017037;Kristian;16/02/2020;06:13:05;C/IN;
2017060;2017060;16/02/2020;06:16:44;C/IN;
2011010;Angel  Abelligos;16/02/2020;06:26:35;C/IN;
2011010;Angel  Abelligos;16/02/2020;06:26:40;C/IN;
2019016;2019016;16/02/2020;06:27:19;C/IN;
2019087;2019087;16/02/2020;06:27:36;C/IN;
2019085;2019085;16/02/2020;06:32:26;C/IN;
2008004;Joy Salvador;16/02/2020;06:38:18;C/IN;
2008001;Visna Cabrera;16/02/2020;06:39:56;C/IN;
2008005;Catherine Taruc;16/02/2020;06:40:14;C/IN;
2015041;Karen Grace  Santos;16/02/2020;06:40:57;C/IN;
2006010;Madel Ramos;16/02/2020;06:41:28;C/IN;
2007004;Marichu Mariano;16/02/2020;06:41:42;C/IN;
2019076;2019076;16/02/2020;06:41:49;C/IN;
2018089;2018089;16/02/2020;06:41:55;C/IN;
2018030;2018030;16/02/2020;06:42:02;C/IN;
2019007;2019007;16/02/2020;06:42:14;C/IN;
2018088;2018088;16/02/2020;06:42:18;C/IN;
2014006;Jean Pascual;16/02/2020;06:42:21;C/IN;
2015019;Kimberlyn Bondoc;16/02/2020;06:42:25;C/IN;
2014015;Garlie Jane Walican;16/02/2020;06:42:28;C/IN;
2019078;2019078;16/02/2020;06:42:31;C/IN;
2016044;Vina Estrelle Garcia;16/02/2020;06:42:35;C/IN;
2019059;2019059;16/02/2020;06:42:39;C/IN;
2010008;2010008;16/02/2020;06:42:43;C/IN;
2017062;2017062;16/02/2020;06:42:46;C/IN;
2016075;Rosario  Filio;16/02/2020;06:42:49;C/IN;
2015003;Virlyn Costales;16/02/2020;06:42:54;C/IN;
2019001;2019001;16/02/2020;06:42:58;C/IN;
2018095;2018095;16/02/2020;06:43:03;C/IN;
2018057;2018057;16/02/2020;06:43:06;C/IN;
2017018;Melissa Andaya;16/02/2020;06:43:10;C/IN;
2018063;2018063;16/02/2020;06:43:13;C/IN;
2012002;Lotlot Flores;16/02/2020;06:43:16;C/IN;
2018085;2018085;16/02/2020;06:43:25;C/IN;
2006005;Jonalyn Luna;16/02/2020;06:43:28;C/IN;
2019084;2019084;16/02/2020;06:43:36;C/IN;
2019031;2019031;16/02/2020;06:43:39;C/IN;
2015027;Rosemin Flores;16/02/2020;06:43:43;C/IN;
2016014;Jhovielyn Diane Villarba;16/02/2020;06:43:50;C/IN;
2019012;2019012;16/02/2020;06:43:53;C/IN;
2010010;Mae  Aguanza;16/02/2020;06:43:58;C/IN;
2013009;Maria Gurrobat;16/02/2020;06:44:05;C/IN;
2018060;2018060;16/02/2020;06:44:15;C/IN;
2010012;Darlitio;16/02/2020;06:45:17;C/OUT;
2019037;2019037;16/02/2020;06:45:22;C/OUT;
2007007;Song Boen Lie;16/02/2020;06:45:25;C/OUT;
2015002;Jerrel Joy Azuelo;16/02/2020;06:45:44;C/OUT;
2012025;Johny;16/02/2020;06:45:48;C/OUT;
2006007;Myleen Bautista;16/02/2020;06:46:30;C/OUT;
2006006;Rowena Jane  Arcilla;16/02/2020;06:46:52;C/OUT;
2012025;Johny;16/02/2020;06:47:34;C/OUT;
2019062;2019062;16/02/2020;06:47:35;C/IN;
2017033;Mico Gumilao;16/02/2020;06:48:13;C/IN;
2017033;Mico Gumilao;16/02/2020;06:48:19;C/IN;
2017033;Mico Gumilao;16/02/2020;06:48:33;C/IN;
2018094;2018094;16/02/2020;06:49:54;C/OUT;
2018017;2018017;16/02/2020;06:51:34;C/OUT;
2017061;2017061;16/02/2020;06:52:02;C/OUT;
2016098;Adi Gunawan;16/02/2020;06:53:16;C/IN;
2015012;Mary Rose Gatong;16/02/2020;06:54:12;C/OUT;
2016040;Janice Borja;16/02/2020;06:55:08;C/OUT;
2018065;2018065;16/02/2020;06:55:12;C/OUT;
2017025;Julie Ann Recaido;16/02/2020;06:55:22;C/OUT;
2015002;Jerrel Joy Azuelo;16/02/2020;06:55:27;C/OUT;
2018028;2018028;16/02/2020;06:55:40;C/OUT;
2009003;Liezl  Licop;16/02/2020;06:55:58;C/OUT;
2017017;Jonah Jean Algura;16/02/2020;06:56:07;C/OUT;
2013005;Nikki Jean Vincoy;16/02/2020;06:56:11;C/OUT;
2013005;Nikki Jean Vincoy;16/02/2020;06:56:15;C/OUT;
2018029;2018029;16/02/2020;06:56:23;C/OUT;
2017070;2017070;16/02/2020;06:56:28;C/OUT;
2016049;Lourie Jane Orellano;16/02/2020;06:56:54;C/OUT;
2016010;Jairah Santos;16/02/2020;06:56:58;C/OUT;
2017025;Julie Ann Recaido;16/02/2020;06:57:24;C/OUT;
2016062;Maricris Santos;16/02/2020;06:57:33;C/OUT;
2018032;2018032;16/02/2020;06:57:47;C/OUT;
2018026;2018026;16/02/2020;06:58:10;C/OUT;
2016016;Jessie John Janairo;16/02/2020;06:58:52;C/IN;
2015028;Diana Galang;16/02/2020;07:00:21;C/OUT;
2015028;Diana Galang;16/02/2020;07:00:24;C/OUT;
2017023;Sharlotte Movilla;16/02/2020;07:00:28;C/OUT;
2019038;2019038;16/02/2020;07:00:36;C/OUT;
2016078;Antonette Isorena;16/02/2020;07:00:40;C/OUT;
2013014;Arnold de Gracia;16/02/2020;07:00:48;C/OUT;
2013014;Arnold de Gracia;16/02/2020;07:00:51;C/OUT;
2006011;Maureen Lintag;16/02/2020;07:01:06;C/OUT;
2015015;Aiza Villania;16/02/2020;07:03:56;C/OUT;
2019023;2019023;16/02/2020;07:04:02;C/OUT;
2018093;2018093;16/02/2020;07:06:19;C/OUT;
2018021;2018021;16/02/2020;07:10:37;C/OUT;
2018099;2018099;16/02/2020;07:12:53;C/OUT;
2016082;Reginald Bacani;16/02/2020;07:15:10;C/OUT;
2016018;Rejelle  Corpuz;16/02/2020;07:15:36;C/OUT;
2015094;2015094;16/02/2020;07:16:10;C/OUT;
2016004;Jaylyn David;16/02/2020;07:23:13;C/OUT;
2018046;2018046;16/02/2020;07:52:47;C/IN;
2009008;Eko Nugroho Tandijono;16/02/2020;07:57:00;C/IN;
2015074;Neil Saquin;16/02/2020;08:29:59;C/IN;
2011014;Hendra Xu;16/02/2020;08:38:46;C/IN;
2018009;2018009;16/02/2020;08:42:29;C/IN;
2014032;Gretchen Donato;16/02/2020;08:50:22;C/IN;
2011013;Harley Wongso;16/02/2020;09:00:11;C/IN;
2013008;Wilmark John G. Domingo;16/02/2020;09:51:43;C/IN;
2018097;2018097;16/02/2020;11:35:53;C/IN;
2018097;2018097;16/02/2020;11:35:57;C/IN;
2015073;Antonito Tolin;16/02/2020;11:37:22;C/IN;
2019025;2019025;16/02/2020;12:29:20;C/IN;
2019025;2019025;16/02/2020;12:29:24;C/IN;
2016029;Mary Joyce Santos;16/02/2020;12:46:18;C/IN;
2017036;Joemar C;16/02/2020;13:14:37;C/IN;
2019091;2019091;16/02/2020;13:34:22;C/IN;
2019017;2019017;16/02/2020;13:46:31;C/IN;
2018014;2018014;16/02/2020;13:49:53;C/IN;
2019067;2019067;16/02/2020;13:50:56;C/IN;
2019050;2019050;16/02/2020;13:51:32;C/IN;
2019049;2019049;16/02/2020;13:52:18;C/IN;
2019049;2019049;16/02/2020;13:52:21;C/IN;
2016094;Franz Kevin R. Loayon;16/02/2020;13:52:51;C/IN;
2019026;2019026;16/02/2020;13:54:31;C/IN;
2017040;Geraldin;16/02/2020;14:00:10;C/OUT;
2018050;2018050;16/02/2020;14:00:16;C/OUT;
2018015;2018015;16/02/2020;14:00:23;C/OUT;
2016036;Marivic  Lasay;16/02/2020;14:00:46;C/OUT;
2016059;Paul Anthony Nuguit;16/02/2020;14:00:50;C/OUT;
2018071;2018071;16/02/2020;14:01:21;C/OUT;
2018104;2018104;16/02/2020;14:01:47;C/OUT;
2018051;2018051;16/02/2020;14:03:56;C/OUT;
2018013;2018013;16/02/2020;14:10:54;C/IN;
2006013;Lyn Dayame;16/02/2020;14:14:13;C/IN;
2006013;Lyn Dayame;16/02/2020;14:14:16;C/IN;
2006022;Martin Martin;16/02/2020;14:25:02;C/OUT;
2016017;Richard Nichole B. Megu;16/02/2020;14:25:06;C/IN;
2018053;2018053;16/02/2020;14:27:22;C/IN;
2007002;Jannet Alvarez;16/02/2020;14:38:28;C/IN;
2006004;Evelyn L. Latuga;16/02/2020;14:39:57;C/IN;
2006009;Aileen Sacdalan;16/02/2020;14:40:01;C/IN;
2006008;Malu Sigua;16/02/2020;14:40:47;C/IN;
2017055;2017055;16/02/2020;14:41:21;C/IN;
2016047;Melly Zablan;16/02/2020;14:41:24;C/IN;
2019009;2019009;16/02/2020;14:41:27;C/IN;
2019057;2019057;16/02/2020;14:41:30;C/IN;
2019074;2019074;16/02/2020;14:41:34;C/IN;
2018082;2018082;16/02/2020;14:41:36;C/IN;
2018062;2018062;16/02/2020;14:41:40;C/IN;
2016041;Jobelie Borja;16/02/2020;14:41:51;C/IN;
2016043;Abegail D. Dalit;16/02/2020;14:41:56;C/IN;
2019077;2019077;16/02/2020;14:42:03;C/IN;
2018010;2018010;16/02/2020;14:42:05;C/IN;
2016045;Aisha May Horca;16/02/2020;14:42:07;C/IN;
2017065;Diane De Guzman;16/02/2020;14:42:10;C/IN;
2018096;2018096;16/02/2020;14:42:13;C/IN;
2018091;2018091;16/02/2020;14:42:16;C/IN;
2015009;Richelle Balbeja;16/02/2020;14:42:20;C/IN;
2012012;Barbette Talag;16/02/2020;14:42:25;C/IN;
2014016;Narlin Zhang;16/02/2020;14:42:28;C/IN;
2016001;Ronilyn  Bechayda;16/02/2020;14:42:31;C/IN;
2017024;Flora Mae Palec;16/02/2020;14:42:34;C/IN;
2012004;Aisa Anthonette Gudao;16/02/2020;14:42:40;C/IN;
2014012;Joana Marie Ondoy;16/02/2020;14:42:45;C/IN;
2014004;Lee-Ann Lagahit;16/02/2020;14:42:57;C/IN;
2015018;Jhanet Rose Viray;16/02/2020;14:43:01;C/IN;
2018090;2018090;16/02/2020;14:43:07;C/IN;
2018034;2018034;16/02/2020;14:43:10;C/IN;
2015033;Caryl Anne Nocum;16/02/2020;14:43:13;C/IN;
2010011;Emily D. Daguman;16/02/2020;14:43:18;C/IN;
2016037;Madel Adigue;16/02/2020;14:43:24;C/IN;
2017068;2017068;16/02/2020;14:43:48;C/IN;
2009005;Mary Rose Gicaraya;16/02/2020;14:44:27;C/IN;
2010010;Mae  Aguanza;16/02/2020;14:47:03;C/OUT;
2018088;2018088;16/02/2020;14:49:13;C/OUT;
2017062;2017062;16/02/2020;14:49:49;C/OUT;
2017062;2017062;16/02/2020;14:49:55;C/OUT;
2018089;2018089;16/02/2020;14:49:59;C/OUT;
2008005;Catherine Taruc;16/02/2020;14:50:03;C/OUT;
2017018;Melissa Andaya;16/02/2020;14:50:24;C/OUT;
2019001;2019001;16/02/2020;14:50:53;C/OUT;
2019031;2019031;16/02/2020;14:51:18;C/OUT;
2019062;2019062;16/02/2020;14:51:22;C/OUT;
2014015;Garlie Jane Walican;16/02/2020;14:52:33;C/OUT;
2007004;Marichu Mariano;16/02/2020;14:52:38;C/OUT;
2013009;Maria Gurrobat;16/02/2020;14:53:52;C/OUT;
2017042;Allbert Jay Valera;16/02/2020;14:54:02;C/OUT;
2018063;2018063;16/02/2020;14:54:51;C/OUT;
2018060;2018060;16/02/2020;14:55:16;C/OUT;
2014006;Jean Pascual;16/02/2020;14:55:19;C/OUT;
2018030;2018030;16/02/2020;14:55:32;C/OUT;
2018063;2018063;16/02/2020;14:55:41;C/OUT;
2015003;Virlyn Costales;16/02/2020;14:56:06;C/OUT;
2018057;2018057;16/02/2020;14:57:26;C/OUT;
2010008;2010008;16/02/2020;14:57:52;C/OUT;
2018085;2018085;16/02/2020;14:57:56;C/OUT;
2018095;2018095;16/02/2020;14:58:02;C/OUT;
2016014;Jhovielyn Diane Villarba;16/02/2020;14:58:06;C/OUT;
2006005;Jonalyn Luna;16/02/2020;14:58:32;C/OUT;
2015019;Kimberlyn Bondoc;16/02/2020;14:59:16;C/OUT;
2019031;2019031;16/02/2020;14:59:59;C/OUT;
2017060;2017060;16/02/2020;15:00:03;C/OUT;
2017037;Kristian;16/02/2020;15:00:07;C/OUT;
2013008;Wilmark John G. Domingo;16/02/2020;15:00:13;C/OUT;
2012002;Lotlot Flores;16/02/2020;15:00:19;C/OUT;
2015041;Karen Grace  Santos;16/02/2020;15:00:27;C/OUT;
2015027;Rosemin Flores;16/02/2020;15:00:36;C/OUT;
2019076;2019076;16/02/2020;15:00:59;C/OUT;
2019084;2019084;16/02/2020;15:01:19;C/OUT;
2016098;Adi Gunawan;16/02/2020;15:01:28;C/OUT;
2018022;2018022;16/02/2020;15:01:52;C/OUT;
2018038;2018038;16/02/2020;15:01:56;C/OUT;
2019016;2019016;16/02/2020;15:02:14;C/OUT;
2017033;Mico Gumilao;16/02/2020;15:02:27;C/OUT;
2017033;Mico Gumilao;16/02/2020;15:02:30;C/OUT;
2016075;Rosario  Filio;16/02/2020;15:03:22;C/OUT;
2016044;Vina Estrelle Garcia;16/02/2020;15:03:26;C/OUT;
2019012;2019012;16/02/2020;15:03:34;C/OUT;
2019059;2019059;16/02/2020;15:03:40;C/OUT;
2018048;2018048;16/02/2020;15:04:09;C/OUT;
2012019;Joe Fred  Infante;16/02/2020;15:04:15;C/OUT;
2008004;Joy Salvador;16/02/2020;15:06:29;C/OUT;
2019087;2019087;16/02/2020;15:16:08;C/OUT;
2019085;2019085;16/02/2020;15:16:37;C/OUT;
2006010;Madel Ramos;16/02/2020;15:16:43;C/OUT;
2016016;Jessie John Janairo;16/02/2020;15:17:11;C/OUT;
2018101;2018101;16/02/2020;16:01:44;C/OUT;
2013015;Aries Jonathan;16/02/2020;16:02:25;C/OUT;
2008001;Visna Cabrera;16/02/2020;16:06:19;C/OUT;
2009008;Eko Nugroho Tandijono;16/02/2020;16:13:56;C/OUT;
2019025;2019025;16/02/2020;17:00:08;C/OUT;
2019025;2019025;16/02/2020;17:00:11;C/OUT;
2011014;Hendra Xu;16/02/2020;17:00:43;C/OUT;
2018009;2018009;16/02/2020;17:00:58;C/OUT;
2011010;Angel  Abelligos;16/02/2020;17:02:48;C/OUT;
2011010;Angel  Abelligos;16/02/2020;17:02:51;C/OUT;
2018046;2018046;16/02/2020;17:03:20;C/OUT;
2014032;Gretchen Donato;16/02/2020;17:04:10;C/OUT;
2014032;Gretchen Donato;16/02/2020;17:04:14;C/OUT;
2011013;Harley Wongso;16/02/2020;17:06:49;C/OUT;
2017017;Jonah Jean Algura;16/02/2020;18:42:09;C/IN;
2019038;2019038;16/02/2020;18:42:12;C/IN;
2019078;2019078;16/02/2020;18:46:51;C/OUT;
2019007;2019007;16/02/2020;18:46:55;C/OUT;
2015074;Neil Saquin;16/02/2020;19:02:03;C/OUT;
2019051;2019051;16/02/2020;19:15:59;C/OUT;
2016081;John Caleb Espanola;16/02/2020;20:18:14;C/IN;
2018075;2018075;16/02/2020;20:44:30;C/IN;
2018001;Orlan Relente;16/02/2020;20:53:54;C/IN;
2018003;2018003;16/02/2020;21:08:25;C/IN;
2015073;Antonito Tolin;16/02/2020;21:12:34;C/OUT;
2019045;2019045;16/02/2020;21:13:02;C/IN;
2015006;Jamielou Montealegre;16/02/2020;21:14:18;C/IN;
2015006;Jamielou Montealegre;16/02/2020;21:14:24;C/IN;
2018105;2018105;16/02/2020;21:31:14;C/IN;
2018099;2018099;16/02/2020;21:35:42;C/IN;
2019089;2019089;16/02/2020;21:46:15;C/IN;
2017003;Nelia E. Germedia;16/02/2020;21:51:30;C/IN;
2019064;2019064;16/02/2020;21:53:07;C/IN;
2016035;Judy Lasay;16/02/2020;21:55:17;C/IN;
2017006;Percival Lai;16/02/2020;21:59:39;C/IN;
2017006;Percival Lai;16/02/2020;21:59:42;C/IN;
2017036;Joemar C;16/02/2020;22:00:09;C/OUT;
2016029;Mary Joyce Santos;16/02/2020;22:00:12;C/OUT;
2019091;2019091;16/02/2020;22:00:16;C/OUT;
2019017;2019017;16/02/2020;22:00:53;C/OUT;
2018014;2018014;16/02/2020;22:01:31;C/OUT;
2019026;2019026;16/02/2020;22:01:52;C/OUT;
2019049;2019049;16/02/2020;22:03:00;C/OUT;
2019049;2019049;16/02/2020;22:03:03;C/OUT;
2019067;2019067;16/02/2020;22:03:14;C/OUT;
2006013;Lyn Dayame;16/02/2020;22:05:16;C/OUT;
2006013;Lyn Dayame;16/02/2020;22:05:19;C/OUT;
2019055;2019055;16/02/2020;22:08:55;C/IN;
2018097;2018097;16/02/2020;22:16:09;C/OUT;
2018097;2018097;16/02/2020;22:16:13;C/OUT;
2012025;Johny;16/02/2020;22:32:46;C/IN;
2017460;2017460;16/02/2020;22:33:11;C/IN;
2007007;Song Boen Lie;16/02/2020;22:33:30;C/IN;
2006006;Rowena Jane  Arcilla;16/02/2020;22:34:21;C/IN;
2012025;Johny;16/02/2020;22:34:46;C/IN;
2006011;Maureen Lintag;16/02/2020;22:39:55;C/IN;
2009004;Margarita Rivera;16/02/2020;22:40:16;C/IN;
2016062;Maricris Santos;16/02/2020;22:41:16;C/IN;
2018028;2018028;16/02/2020;22:41:20;C/IN;
2018029;2018029;16/02/2020;22:41:23;C/IN;
2017054;2017054;16/02/2020;22:41:26;C/IN;
2016049;Lourie Jane Orellano;16/02/2020;22:41:29;C/IN;
2016040;Janice Borja;16/02/2020;22:41:33;C/IN;
2019081;2019081;16/02/2020;22:41:36;C/IN;
2015013;Babylyn Jolo;16/02/2020;22:41:39;C/IN;
2016004;Jaylyn David;16/02/2020;22:41:42;C/IN;
2015002;Jerrel Joy Azuelo;16/02/2020;22:41:53;C/IN;
2012014;Mary Joy Calda;16/02/2020;22:41:59;C/IN;
2009003;Liezl  Licop;16/02/2020;22:42:03;C/IN;
2019037;2019037;16/02/2020;22:42:10;C/IN;
2016078;Antonette Isorena;16/02/2020;22:42:13;C/IN;
2018061;2018061;16/02/2020;22:42:17;C/IN;
2016009;Rizzalie  Salabsab;16/02/2020;22:42:21;C/IN;
2018093;2018093;16/02/2020;22:42:24;C/IN;
2018026;2018026;16/02/2020;22:42:27;C/IN;
2018094;2018094;16/02/2020;22:42:30;C/IN;
2017070;2017070;16/02/2020;22:42:34;C/IN;
2015015;Aiza Villania;16/02/2020;22:42:37;C/IN;
2016010;Jairah Santos;16/02/2020;22:42:41;C/IN;
2017052;2017052;16/02/2020;22:42:46;C/IN;
2018032;2018032;16/02/2020;22:42:52;C/IN;
2011003;Michelle Mangabat;16/02/2020;22:42:58;C/IN;
2017023;Sharlotte Movilla;16/02/2020;22:43:02;C/IN;
2012001;Lorena De Torres;16/02/2020;22:43:06;C/IN;
2016077;Precious Angelica Liban;16/02/2020;22:43:10;C/IN;
2010012;Darlitio;16/02/2020;22:44:28;C/IN;
2017065;Diane De Guzman;16/02/2020;22:45:08;C/OUT;
2010011;Emily D. Daguman;16/02/2020;22:45:25;C/OUT;
2007002;Jannet Alvarez;16/02/2020;22:45:37;C/OUT;
2006022;Martin Martin;16/02/2020;22:45:44;C/OUT;
2006022;Martin Martin;16/02/2020;22:45:45;C/IN;
2007002;Jannet Alvarez;16/02/2020;22:45:49;C/OUT;
2016043;Abegail D. Dalit;16/02/2020;22:45:53;C/OUT;
2016037;Madel Adigue;16/02/2020;22:45:57;C/OUT;
2017061;2017061;16/02/2020;22:46:17;C/IN;
2015009;Richelle Balbeja;16/02/2020;22:46:50;C/OUT;
2018062;2018062;16/02/2020;22:46:54;C/OUT;
2019009;2019009;16/02/2020;22:46:59;C/OUT;
2016001;Ronilyn  Bechayda;16/02/2020;22:48:16;C/OUT;
2012004;Aisa Anthonette Gudao;16/02/2020;22:49:21;C/OUT;
2014012;Joana Marie Ondoy;16/02/2020;22:49:51;C/OUT;
2018096;2018096;16/02/2020;22:49:57;C/OUT;
2016047;Melly Zablan;16/02/2020;22:50:11;C/OUT;
2006009;Aileen Sacdalan;16/02/2020;22:50:29;C/OUT;
2018010;2018010;16/02/2020;22:50:34;C/OUT;
2006004;Evelyn L. Latuga;16/02/2020;22:50:39;C/OUT;
2016045;Aisha May Horca;16/02/2020;22:50:46;C/OUT;
2018040;2018040;16/02/2020;22:51:10;C/IN;
2006008;Malu Sigua;16/02/2020;22:51:13;C/OUT;
2017068;2017068;16/02/2020;22:51:18;C/OUT;
2009005;Mary Rose Gicaraya;16/02/2020;22:51:24;C/OUT;
2018090;2018090;16/02/2020;22:51:27;C/OUT;
2014004;Lee-Ann Lagahit;16/02/2020;22:51:33;C/OUT;
2018091;2018091;16/02/2020;22:51:36;C/OUT;
2018082;2018082;16/02/2020;22:53:29;C/OUT;
2018034;2018034;16/02/2020;22:55:08;C/OUT;
2019074;2019074;16/02/2020;22:57:42;C/OUT;
2019077;2019077;16/02/2020;22:57:48;C/OUT;
2017055;2017055;16/02/2020;22:58:06;C/OUT;
2019057;2019057;16/02/2020;22:59:58;C/OUT;
2016017;Richard Nichole B. Megu;16/02/2020;23:00:18;C/OUT;
2016094;Franz Kevin R. Loayon;16/02/2020;23:00:22;C/OUT;
2017024;Flora Mae Palec;16/02/2020;23:01:06;C/OUT;
2016041;Jobelie Borja;16/02/2020;23:01:10;C/OUT;
2018053;2018053;16/02/2020;23:02:52;C/OUT;
2012012;Barbette Talag;16/02/2020;23:03:15;C/OUT;
2015033;Caryl Anne Nocum;16/02/2020;23:07:18;C/OUT;
2019050;2019050;16/02/2020;23:16:38;C/OUT;
2015018;Jhanet Rose Viray;16/02/2020;23:18:59;C/OUT;
