2018022;2018022;31/01/2020;00:00:56;C/OUT;
2019069;2019069;31/01/2020;00:01:10;C/OUT;
2006003;Faith Joy L. Baaco;31/01/2020;00:15:40;C/OUT;
2015073;Antonito Tolin;31/01/2020;00:18:41;C/OUT;
2014012;Joana Marie Ondoy;31/01/2020;02:45:05;C/OUT;
2016004;Jaylyn David;31/01/2020;02:45:09;C/OUT;
2018034;2018034;31/01/2020;02:52:37;C/OUT;
2015016;Ma. Therese Villanueva;31/01/2020;05:06:14;C/IN;
2018067;2018067;31/01/2020;05:11:08;C/IN;
2016089;Julius C;31/01/2020;05:11:27;C/IN;
2016089;Julius C;31/01/2020;05:11:31;C/IN;
2017005;Nathalie Ocbina;31/01/2020;05:14:11;C/IN;
2012018;Vincent  Caneza;31/01/2020;05:19:50;C/IN;
2017016;Karren  Gonzales;31/01/2020;05:22:33;C/IN;
2018011;2018011;31/01/2020;05:31:16;C/IN;
2016019;Renz Marrion  Federang;31/01/2020;05:31:31;C/IN;
2018038;2018038;31/01/2020;05:32:14;C/IN;
2017036;Joemar C;31/01/2020;05:33:49;C/IN;
2016087;Shaira Castillo;31/01/2020;05:37:36;C/IN;
2016087;Shaira Castillo;31/01/2020;05:37:39;C/IN;
2014032;Gretchen Donato;31/01/2020;05:46:05;C/IN;
2019068;2019068;31/01/2020;05:49:47;C/IN;
2015095;2015095;31/01/2020;05:51:14;C/IN;
2019049;2019049;31/01/2020;05:51:42;C/IN;
2019049;2019049;31/01/2020;05:51:47;C/IN;
2016088;Ferdinand Francia;31/01/2020;05:53:04;C/IN;
2019067;2019067;31/01/2020;05:53:19;C/IN;
2018100;2018100;31/01/2020;05:59:40;C/IN;
2017040;Geraldin;31/01/2020;06:00:08;C/OUT;
2018003;2018003;31/01/2020;06:00:14;C/OUT;
2015006;Jamielou Montealegre;31/01/2020;06:00:18;C/OUT;
2016035;Judy Lasay;31/01/2020;06:00:42;C/OUT;
2016059;Paul Anthony Nuguit;31/01/2020;06:01:04;C/OUT;
2019026;2019026;31/01/2020;06:02:00;C/OUT;
2019064;2019064;31/01/2020;06:04:48;C/OUT;
2018077;2018077;31/01/2020;06:07:32;C/IN;
2016082;Reginald Bacani;31/01/2020;06:08:03;C/IN;
2018050;2018050;31/01/2020;06:11:59;C/OUT;
2017037;Kristian;31/01/2020;06:17:56;C/IN;
2017037;Kristian;31/01/2020;06:17:59;C/IN;
2019047;2019047;31/01/2020;06:18:08;C/IN;
2010005;Joanna Marie  Agregado;31/01/2020;06:21:17;C/IN;
2016018;Rejelle  Corpuz;31/01/2020;06:23:50;C/IN;
2018053;2018053;31/01/2020;06:27:46;C/IN;
2006015;Reynaldo Enriquez;31/01/2020;06:27:55;C/IN;
2019051;2019051;31/01/2020;06:33:16;C/IN;
2008003;Rowena Sayo;31/01/2020;06:34:44;C/IN;
2008001;Visna Cabrera;31/01/2020;06:35:46;C/IN;
2019074;2019074;31/01/2020;06:36:19;C/IN;
2016041;Jobelie Borja;31/01/2020;06:36:57;C/IN;
2019041;2019041;31/01/2020;06:37:03;C/IN;
2014006;Jean Pascual;31/01/2020;06:37:48;C/IN;
2006017;Jennifer Gapasen;31/01/2020;06:38:27;C/IN;
2006004;Evelyn L. Latuga;31/01/2020;06:38:46;C/IN;
2017033;Mico Gumilao;31/01/2020;06:39:15;C/IN;
2017033;Mico Gumilao;31/01/2020;06:39:19;C/IN;
2015041;Karen Grace  Santos;31/01/2020;06:39:47;C/IN;
2016045;Aisha May Horca;31/01/2020;06:40:06;C/IN;
2015094;2015094;31/01/2020;06:41:10;C/IN;
2018062;2018062;31/01/2020;06:41:16;C/IN;
20010008;Arlene  Vergara;31/01/2020;06:41:23;C/IN;
2011003;Michelle Mangabat;31/01/2020;06:41:32;C/IN;
2012002;Lotlot Flores;31/01/2020;06:41:35;C/IN;
2018082;2018082;31/01/2020;06:41:40;C/IN;
2018088;2018088;31/01/2020;06:41:44;C/IN;
2019077;2019077;31/01/2020;06:41:59;C/IN;
2018096;2018096;31/01/2020;06:42:21;C/IN;
2018025;2018025;31/01/2020;06:42:26;C/IN;
2006008;Malu Sigua;31/01/2020;06:42:35;C/IN;
2018091;2018091;31/01/2020;06:42:39;C/IN;
2016047;Melly Zablan;31/01/2020;06:42:43;C/IN;
2018095;2018095;31/01/2020;06:42:48;C/IN;
2014016;Narlin Zhang;31/01/2020;06:42:51;C/IN;
2019009;2019009;31/01/2020;06:42:55;C/IN;
2018089;2018089;31/01/2020;06:42:58;C/IN;
2014004;Lee-Ann Lagahit;31/01/2020;06:43:16;C/IN;
2017059;2017059;31/01/2020;06:43:30;C/IN;
2015027;Rosemin Flores;31/01/2020;06:43:34;C/IN;
2015004;Dhoriz Escueta;31/01/2020;06:43:39;C/IN;
2015018;Jhanet Rose Viray;31/01/2020;06:43:43;C/IN;
2016037;Madel Adigue;31/01/2020;06:43:50;C/IN;
2016043;Abegail D. Dalit;31/01/2020;06:43:54;C/IN;
2013009;Maria Gurrobat;31/01/2020;06:43:58;C/IN;
2007005;Maricris Severo;31/01/2020;06:44:08;C/IN;
2016014;Jhovielyn Diane Villarba;31/01/2020;06:44:17;C/IN;
2015033;Caryl Anne Nocum;31/01/2020;06:44:22;C/IN;
2017061;2017061;31/01/2020;06:44:37;C/IN;
2006020;Edi Oei;31/01/2020;06:44:41;C/IN;
2018086;2018086;31/01/2020;06:44:45;C/IN;
2010006;Catherine Cunanan;31/01/2020;06:45:01;C/IN;
2018060;2018060;31/01/2020;06:45:09;C/OUT;
2019050;2019050;31/01/2020;06:45:24;C/IN;
2012001;Lorena De Torres;31/01/2020;06:45:26;C/OUT;
2012008;Janine Magracia;31/01/2020;06:45:29;C/OUT;
2010012;Darlitio;31/01/2020;06:45:33;C/OUT;
2016049;Lourie Jane Orellano;31/01/2020;06:45:42;C/OUT;
2017046;John Paulo Reyes;31/01/2020;06:45:43;C/IN;
2007007;Song Boen Lie;31/01/2020;06:45:45;C/OUT;
2016075;Rosario  Filio;31/01/2020;06:45:45;C/OUT;
2007007;Song Boen Lie;31/01/2020;06:45:46;C/IN;
2018045;2018045;31/01/2020;06:46:01;C/IN;
2017070;2017070;31/01/2020;06:46:15;C/OUT;
2019076;2019076;31/01/2020;06:48:53;C/OUT;
2019078;2019078;31/01/2020;06:48:56;C/OUT;
2016009;Rizzalie  Salabsab;31/01/2020;06:49:04;C/OUT;
2006001;Imelda Dela Torre;31/01/2020;06:49:26;C/IN;
2019031;2019031;31/01/2020;06:49:55;C/OUT;
2019028;2019028;31/01/2020;06:50:47;C/OUT;
2018063;2018063;31/01/2020;06:52:26;C/OUT;
2017054;2017054;31/01/2020;06:53:58;C/OUT;
2016062;Maricris Santos;31/01/2020;06:54:05;C/OUT;
2018010;2018010;31/01/2020;06:54:13;C/OUT;
2019012;2019012;31/01/2020;06:54:47;C/OUT;
2018029;2018029;31/01/2020;06:55:10;C/OUT;
2019088;2019088;31/01/2020;06:55:17;C/IN;
2006005;Jonalyn Luna;31/01/2020;06:56:12;C/OUT;
2015013;Babylyn Jolo;31/01/2020;06:56:17;C/OUT;
2019001;2019001;31/01/2020;06:56:22;C/OUT;
2016098;Adi Gunawan;31/01/2020;06:56:28;C/IN;
2019084;2019084;31/01/2020;06:57:14;C/OUT;
2011010;Angel  Abelligos;31/01/2020;06:57:31;C/IN;
2016040;Janice Borja;31/01/2020;06:58:32;C/OUT;
2018101;2018101;31/01/2020;06:58:35;C/IN;
2016074;Ferlyn  Arroyo;31/01/2020;06:59:53;C/OUT;
2016074;Ferlyn  Arroyo;31/01/2020;06:59:57;C/OUT;
2016074;Ferlyn  Arroyo;31/01/2020;07:00:03;C/OUT;
2013010;Marlon Harry Cardines;31/01/2020;07:00:32;C/OUT;
2016094;Franz Kevin R. Loayon;31/01/2020;07:00:38;C/OUT;
2016017;Richard Nichole B. Megu;31/01/2020;07:00:43;C/OUT;
2015024;Jiekka Catugas;31/01/2020;07:00:49;C/OUT;
2013014;Arnold de Gracia;31/01/2020;07:01:26;C/OUT;
2013014;Arnold de Gracia;31/01/2020;07:01:30;C/OUT;
2012023;Leonardo  Delos Santos;31/01/2020;07:01:34;C/OUT;
2012023;Leonardo  Delos Santos;31/01/2020;07:01:37;C/OUT;
2009004;Margarita Rivera;31/01/2020;07:01:43;C/OUT;
2009004;Margarita Rivera;31/01/2020;07:01:46;C/OUT;
2006009;Aileen Sacdalan;31/01/2020;07:01:54;C/OUT;
2012004;Aisa Anthonette Gudao;31/01/2020;07:02:05;C/OUT;
2018032;2018032;31/01/2020;07:02:20;C/OUT;
2008004;Joy Salvador;31/01/2020;07:02:30;C/OUT;
2008004;Joy Salvador;31/01/2020;07:03:00;C/OUT;
2012001;Lorena De Torres;31/01/2020;07:04:44;C/OUT;
2018048;2018048;31/01/2020;07:06:13;C/OUT;
2018048;2018048;31/01/2020;07:06:17;C/OUT;
2015019;Kimberlyn Bondoc;31/01/2020;07:12:53;C/OUT;
2019087;2019087;31/01/2020;07:15:56;C/OUT;
2011008;Richard Elvambuena;31/01/2020;07:18:07;C/OUT;
2019022;2019022;31/01/2020;07:19:07;C/OUT;
2019053;2019053;31/01/2020;07:19:38;C/OUT;
2019052;2019052;31/01/2020;07:20:06;C/OUT;
2018099;2018099;31/01/2020;07:24:34;C/OUT;
2018061;2018061;31/01/2020;07:25:34;C/OUT;
2017035;Ivy Besnar;31/01/2020;07:43:08;C/IN;
2017057;Abigail Cruz;31/01/2020;07:51:07;C/IN;
2018013;2018013;31/01/2020;07:55:14;C/IN;
2013015;Aries Jonathan;31/01/2020;07:56:00;C/IN;
2009008;Eko Nugroho Tandijono;31/01/2020;08:08:12;C/IN;
2008008;Hendra R;31/01/2020;08:14:00;C/IN;
2018009;2018009;31/01/2020;08:31:47;C/IN;
2009007;Sukardi Omar;31/01/2020;08:33:04;C/IN;
2013016;Hendrik Ong;31/01/2020;08:33:31;C/IN;
2015072;Mayrose P. Brodeth;31/01/2020;08:36:12;C/IN;
2011014;Hendra Xu;31/01/2020;08:41:15;C/IN;
2014039;Jimmy, Hendra;31/01/2020;08:43:59;C/IN;
2019017;2019017;31/01/2020;08:45:18;C/IN;
2011006;Mark Arvin Bello;31/01/2020;08:47:38;C/IN;
2011015;Hermanto Phang;31/01/2020;08:48:11;C/IN;
2011011;Franky Gunawan;31/01/2020;08:49:32;C/IN;
2011016;Fendi Tan;31/01/2020;08:50:04;C/IN;
2007006;Suhariadi Hadian;31/01/2020;08:54:57;C/IN;
2011013;Harley Wongso;31/01/2020;08:58:14;C/IN;
2016076;Mary-Ann Barbadia;31/01/2020;08:58:30;C/IN;
2017030;Karen Danica Maranan;31/01/2020;08:58:53;C/IN;
2008007;Tobias Lawiarso;31/01/2020;09:08:29;C/IN;
2015071;Cindy Cayubit;31/01/2020;09:50:37;C/IN;
2013008;Wilmark John G. Domingo;31/01/2020;09:53:02;C/IN;
2018046;2018046;31/01/2020;09:53:25;C/IN;
2018046;2018046;31/01/2020;09:53:34;C/IN;
2019066;2019066;31/01/2020;09:53:41;C/IN;
2016003;Anne Bernadette Bustos;31/01/2020;10:15:31;C/IN;
2018001;Orlan Relente;31/01/2020;11:38:17;C/IN;
2019025;2019025;31/01/2020;12:23:33;C/IN;
2019025;2019025;31/01/2020;12:23:37;C/IN;
2016015;Sean Carlo Cahuela;31/01/2020;12:38:24;C/IN;
2018040;2018040;31/01/2020;13:01:28;C/IN;
2019045;2019045;31/01/2020;13:08:53;C/IN;
2016029;Mary Joyce Santos;31/01/2020;13:11:10;C/IN;
2019045;2019045;31/01/2020;13:15:56;C/IN;
2018105;2018105;31/01/2020;13:27:36;C/IN;
2018075;2018075;31/01/2020;13:31:03;C/IN;
2006002;Rosalie  Magat;31/01/2020;13:37:10;C/IN;
2017042;Allbert Jay Valera;31/01/2020;13:43:02;C/IN;
2006011;Maureen Lintag;31/01/2020;13:49:27;C/IN;
2018015;2018015;31/01/2020;13:49:30;C/IN;
2016081;John Caleb Espanola;31/01/2020;13:50:04;C/IN;
2017003;Nelia E. Germedia;31/01/2020;13:50:11;C/IN;
2017004;Elena Gallanes;31/01/2020;13:52:14;C/IN;
2017004;Elena Gallanes;31/01/2020;13:53:04;C/IN;
2018014;2018014;31/01/2020;13:53:55;C/IN;
2006013;Lyn Dayame;31/01/2020;13:55:10;C/IN;
2006013;Lyn Dayame;31/01/2020;13:55:14;C/IN;
2006003;Faith Joy L. Baaco;31/01/2020;13:56:36;C/IN;
2017016;Karren  Gonzales;31/01/2020;14:00:06;C/OUT;
2018067;2018067;31/01/2020;14:00:16;C/OUT;
2017036;Joemar C;31/01/2020;14:00:26;C/OUT;
2015016;Ma. Therese Villanueva;31/01/2020;14:00:50;C/OUT;
2017005;Nathalie Ocbina;31/01/2020;14:00:58;C/OUT;
2019068;2019068;31/01/2020;14:01:38;C/OUT;
2019049;2019049;31/01/2020;14:01:58;C/OUT;
2019049;2019049;31/01/2020;14:02:04;C/OUT;
2018011;2018011;31/01/2020;14:02:36;C/OUT;
2019067;2019067;31/01/2020;14:03:15;C/OUT;
2019055;2019055;31/01/2020;14:07:04;C/IN;
2014032;Gretchen Donato;31/01/2020;14:07:46;C/OUT;
2015073;Antonito Tolin;31/01/2020;14:07:47;C/IN;
2015095;2015095;31/01/2020;14:08:04;C/OUT;
2018047;2018047;31/01/2020;14:11:16;C/IN;
2019089;2019089;31/01/2020;14:16:27;C/IN;
2019021;2019021;31/01/2020;14:19:19;C/IN;
2006006;Rowena Jane  Arcilla;31/01/2020;14:20:28;C/IN;
2017060;2017060;31/01/2020;14:22:56;C/IN;
2008005;Catherine Taruc;31/01/2020;14:23:35;C/IN;
2006022;Martin Martin;31/01/2020;14:29:11;C/OUT;
2017460;2017460;31/01/2020;14:29:11;C/IN;
2019063;2019063;31/01/2020;14:30:15;C/IN;
2018041;2018041;31/01/2020;14:31:26;C/IN;
2014015;Garlie Jane Walican;31/01/2020;14:33:43;C/IN;
2015002;Jerrel Joy Azuelo;31/01/2020;14:36:25;C/IN;
2018093;2018093;31/01/2020;14:36:38;C/IN;
2018026;2018026;31/01/2020;14:36:42;C/IN;
2013005;Nikki Jean Vincoy;31/01/2020;14:36:46;C/IN;
2017025;Julie Ann Recaido;31/01/2020;14:36:52;C/IN;
2017065;Diane De Guzman;31/01/2020;14:36:54;C/IN;
2019081;2019081;31/01/2020;14:37:36;C/IN;
2018094;2018094;31/01/2020;14:37:41;C/IN;
2016044;Vina Estrelle Garcia;31/01/2020;14:38:03;C/IN;
2006007;Myleen Bautista;31/01/2020;14:38:07;C/IN;
2016078;Antonette Isorena;31/01/2020;14:38:36;C/IN;
2019037;2019037;31/01/2020;14:39:57;C/IN;
2015028;Diana Galang;31/01/2020;14:40:15;C/IN;
2015028;Diana Galang;31/01/2020;14:40:19;C/IN;
2017055;2017055;31/01/2020;14:40:23;C/IN;
2015012;Mary Rose Gatong;31/01/2020;14:40:27;C/IN;
2017055;2017055;31/01/2020;14:40:32;C/IN;
2019061;2019061;31/01/2020;14:41:02;C/IN;
2019016;2019016;31/01/2020;14:41:20;C/IN;
2012014;Mary Joy Calda;31/01/2020;14:41:30;C/IN;
2018028;2018028;31/01/2020;14:41:35;C/IN;
2016004;Jaylyn David;31/01/2020;14:41:40;C/IN;
2016077;Precious Angelica Liban;31/01/2020;14:41:59;C/IN;
2019038;2019038;31/01/2020;14:42:10;C/IN;
2015015;Aiza Villania;31/01/2020;14:42:15;C/IN;
2009003;Liezl  Licop;31/01/2020;14:42:19;C/IN;
2015003;Virlyn Costales;31/01/2020;14:42:24;C/IN;
2017062;2017062;31/01/2020;14:42:27;C/IN;
2017017;Jonah Jean Algura;31/01/2020;14:42:31;C/IN;
2012012;Barbette Talag;31/01/2020;14:42:38;C/IN;
2010010;Mae  Aguanza;31/01/2020;14:43:05;C/IN;
2019054;2019054;31/01/2020;14:43:34;C/IN;
2009005;Mary Rose Gicaraya;31/01/2020;14:44:20;C/IN;
2016010;Jairah Santos;31/01/2020;14:45:06;C/IN;
2010005;Joanna Marie  Agregado;31/01/2020;14:45:26;C/OUT;
2016047;Melly Zablan;31/01/2020;14:45:32;C/OUT;
2006020;Edi Oei;31/01/2020;14:45:42;C/OUT;
2006020;Edi Oei;31/01/2020;14:45:43;C/IN;
2019069;2019069;31/01/2020;14:46:29;C/IN;
2019041;2019041;31/01/2020;14:47:53;C/OUT;
2018022;2018022;31/01/2020;14:48:01;C/IN;
2016020;Michael Jordan Parungao;31/01/2020;14:48:22;C/IN;
2016043;Abegail D. Dalit;31/01/2020;14:48:36;C/OUT;
2018086;2018086;31/01/2020;14:49:08;C/OUT;
2018025;2018025;31/01/2020;14:49:13;C/OUT;
2006017;Jennifer Gapasen;31/01/2020;14:49:38;C/OUT;
2007005;Maricris Severo;31/01/2020;14:50:04;C/OUT;
2013009;Maria Gurrobat;31/01/2020;14:52:10;C/OUT;
2019077;2019077;31/01/2020;14:53:05;C/OUT;
2015027;Rosemin Flores;31/01/2020;14:53:19;C/OUT;
2006004;Evelyn L. Latuga;31/01/2020;14:53:25;C/OUT;
2014016;Narlin Zhang;31/01/2020;14:54:23;C/OUT;
2014006;Jean Pascual;31/01/2020;14:55:43;C/OUT;
2019074;2019074;31/01/2020;14:55:51;C/OUT;
2016045;Aisha May Horca;31/01/2020;14:56:06;C/OUT;
2018095;2018095;31/01/2020;14:56:50;C/OUT;
2008003;Rowena Sayo;31/01/2020;14:57:27;C/OUT;
2018089;2018089;31/01/2020;14:57:32;C/OUT;
2018096;2018096;31/01/2020;14:58:13;C/OUT;
2019009;2019009;31/01/2020;14:58:16;C/OUT;
2018012;2018012;31/01/2020;14:58:36;C/IN;
2017061;2017061;31/01/2020;14:58:44;C/OUT;
2011003;Michelle Mangabat;31/01/2020;14:59:47;C/OUT;
2012018;Vincent  Caneza;31/01/2020;15:00:08;C/OUT;
2017037;Kristian;31/01/2020;15:00:16;C/OUT;
2017059;2017059;31/01/2020;15:00:34;C/OUT;
2016037;Madel Adigue;31/01/2020;15:01:38;C/OUT;
2015041;Karen Grace  Santos;31/01/2020;15:02:14;C/OUT;
2015033;Caryl Anne Nocum;31/01/2020;15:02:18;C/OUT;
2018082;2018082;31/01/2020;15:02:22;C/OUT;
2016088;Ferdinand Francia;31/01/2020;15:02:43;C/OUT;
2016089;Julius C;31/01/2020;15:02:49;C/OUT;
2016087;Shaira Castillo;31/01/2020;15:02:52;C/OUT;
2014004;Lee-Ann Lagahit;31/01/2020;15:02:56;C/OUT;
2016087;Shaira Castillo;31/01/2020;15:03:24;C/OUT;
2018100;2018100;31/01/2020;15:03:28;C/OUT;
2006015;Reynaldo Enriquez;31/01/2020;15:03:59;C/OUT;
2016014;Jhovielyn Diane Villarba;31/01/2020;15:04:12;C/OUT;
2016047;Melly Zablan;31/01/2020;15:04:19;C/OUT;
2010008;2010008;31/01/2020;15:04:39;C/OUT;
2018053;2018053;31/01/2020;15:05:23;C/OUT;
2017033;Mico Gumilao;31/01/2020;15:07:54;C/OUT;
2017033;Mico Gumilao;31/01/2020;15:07:57;C/OUT;
2018088;2018088;31/01/2020;15:12:03;C/OUT;
2018088;2018088;31/01/2020;15:12:04;C/IN;
2012002;Lotlot Flores;31/01/2020;15:12:30;C/OUT;
2015004;Dhoriz Escueta;31/01/2020;15:12:42;C/OUT;
2006008;Malu Sigua;31/01/2020;15:12:50;C/OUT;
2016019;Renz Marrion  Federang;31/01/2020;15:18:33;C/OUT;
2019085;2019085;31/01/2020;15:18:46;C/OUT;
2018077;2018077;31/01/2020;15:19:20;C/OUT;
2019050;2019050;31/01/2020;15:19:23;C/OUT;
2016018;Rejelle  Corpuz;31/01/2020;15:19:30;C/OUT;
2010006;Catherine Cunanan;31/01/2020;15:20:12;C/OUT;
2018038;2018038;31/01/2020;15:20:17;C/OUT;
2016098;Adi Gunawan;31/01/2020;15:20:34;C/OUT;
2016016;Jessie John Janairo;31/01/2020;15:20:55;C/OUT;
2015018;Jhanet Rose Viray;31/01/2020;15:21:47;C/OUT;
2019088;2019088;31/01/2020;15:22:21;C/OUT;
2015094;2015094;31/01/2020;15:22:25;C/OUT;
2019051;2019051;31/01/2020;15:23:43;C/OUT;
2019047;2019047;31/01/2020;15:24:02;C/OUT;
2019047;2019047;31/01/2020;15:24:05;C/OUT;
2016082;Reginald Bacani;31/01/2020;15:24:26;C/OUT;
2018045;2018045;31/01/2020;16:06:42;C/OUT;
2008001;Visna Cabrera;31/01/2020;16:07:51;C/OUT;
2018101;2018101;31/01/2020;16:10:02;C/OUT;
2013015;Aries Jonathan;31/01/2020;16:11:29;C/OUT;
2009008;Eko Nugroho Tandijono;31/01/2020;16:20:16;C/OUT;
2008008;Hendra R;31/01/2020;16:23:58;C/OUT;
2006001;Imelda Dela Torre;31/01/2020;16:32:10;C/OUT;
2011016;Fendi Tan;31/01/2020;17:00:13;C/OUT;
2019017;2019017;31/01/2020;17:00:18;C/OUT;
2009007;Sukardi Omar;31/01/2020;17:00:26;C/OUT;
2011015;Hermanto Phang;31/01/2020;17:02:47;C/OUT;
2014039;Jimmy, Hendra;31/01/2020;17:02:51;C/OUT;
2011011;Franky Gunawan;31/01/2020;17:03:05;C/OUT;
2017057;Abigail Cruz;31/01/2020;17:03:16;C/OUT;
2017035;Ivy Besnar;31/01/2020;17:03:23;C/OUT;
2017035;Ivy Besnar;31/01/2020;17:03:27;C/OUT;
2011010;Angel  Abelligos;31/01/2020;17:03:53;C/OUT;
2011010;Angel  Abelligos;31/01/2020;17:03:55;C/OUT;
2007006;Suhariadi Hadian;31/01/2020;17:04:00;C/OUT;
2011014;Hendra Xu;31/01/2020;17:04:26;C/OUT;
2018009;2018009;31/01/2020;17:07:07;C/OUT;
2013016;Hendrik Ong;31/01/2020;17:08:29;C/OUT;
2011013;Harley Wongso;31/01/2020;17:12:57;C/OUT;
2008007;Tobias Lawiarso;31/01/2020;17:25:28;C/OUT;
2016076;Mary-Ann Barbadia;31/01/2020;18:02:34;C/OUT;
2015072;Mayrose P. Brodeth;31/01/2020;18:03:13;C/OUT;
2017030;Karen Danica Maranan;31/01/2020;18:03:57;C/OUT;
2011006;Mark Arvin Bello;31/01/2020;18:08:21;C/OUT;
2019012;2019012;31/01/2020;18:41:49;C/IN;
2019028;2019028;31/01/2020;18:41:53;C/IN;
2019078;2019078;31/01/2020;18:41:56;C/IN;
2018062;2018062;31/01/2020;18:46:01;C/OUT;
2018062;2018062;31/01/2020;18:46:02;C/IN;
2018091;2018091;31/01/2020;18:58:07;C/OUT;
2016041;Jobelie Borja;31/01/2020;18:58:10;C/OUT;
2019066;2019066;31/01/2020;19:02:30;C/OUT;
2018046;2018046;31/01/2020;19:03:06;C/OUT;
2015071;Cindy Cayubit;31/01/2020;19:03:26;C/OUT;
2013008;Wilmark John G. Domingo;31/01/2020;19:06:09;C/OUT;
2016003;Anne Bernadette Bustos;31/01/2020;19:07:09;C/OUT;
2018013;2018013;31/01/2020;19:18:43;C/OUT;
2015074;Neil Saquin;31/01/2020;20:24:14;C/IN;
2013014;Arnold de Gracia;31/01/2020;20:30:51;C/IN;
2013014;Arnold de Gracia;31/01/2020;20:30:54;C/IN;
2012023;Leonardo  Delos Santos;31/01/2020;20:42:42;C/IN;
2012023;Leonardo  Delos Santos;31/01/2020;20:42:47;C/IN;
2018003;2018003;31/01/2020;20:56:55;C/IN;
2015006;Jamielou Montealegre;31/01/2020;21:04:20;C/IN;
2015006;Jamielou Montealegre;31/01/2020;21:04:23;C/IN;
2018048;2018048;31/01/2020;21:10:50;C/IN;
2018050;2018050;31/01/2020;21:18:59;C/IN;
2017040;Geraldin;31/01/2020;21:23:40;C/IN;
2017040;Geraldin;31/01/2020;21:23:45;C/IN;
2016059;Paul Anthony Nuguit;31/01/2020;21:28:11;C/IN;
2019022;2019022;31/01/2020;21:34:52;C/IN;
2018051;2018051;31/01/2020;21:50:50;C/IN;
2016036;Marivic  Lasay;31/01/2020;21:50:56;C/IN;
2018071;2018071;31/01/2020;21:51:23;C/IN;
2016036;Marivic  Lasay;31/01/2020;21:51:43;C/IN;
2019026;2019026;31/01/2020;21:51:46;C/IN;
2016094;Franz Kevin R. Loayon;31/01/2020;21:58:23;C/IN;
2016029;Mary Joyce Santos;31/01/2020;22:00:18;C/OUT;
2019045;2019045;31/01/2020;22:00:24;C/OUT;
2017003;Nelia E. Germedia;31/01/2020;22:00:27;C/OUT;
2017003;Nelia E. Germedia;31/01/2020;22:00:30;C/OUT;
2018105;2018105;31/01/2020;22:00:51;C/OUT;
2018001;Orlan Relente;31/01/2020;22:01:17;C/OUT;
2018015;2018015;31/01/2020;22:02:24;C/OUT;
2019025;2019025;31/01/2020;22:03:04;C/OUT;
2019025;2019025;31/01/2020;22:03:08;C/OUT;
2006013;Lyn Dayame;31/01/2020;22:03:11;C/OUT;
2017004;Elena Gallanes;31/01/2020;22:05:50;C/OUT;
2017004;Elena Gallanes;31/01/2020;22:05:53;C/OUT;
2018075;2018075;31/01/2020;22:08:52;C/OUT;
2018014;2018014;31/01/2020;22:19:30;C/OUT;
2019052;2019052;31/01/2020;22:19:45;C/IN;
2011008;Richard Elvambuena;31/01/2020;22:21:35;C/IN;
2018010;2018010;31/01/2020;22:28:23;C/IN;
2019087;2019087;31/01/2020;22:30:59;C/IN;
2019022;2019022;31/01/2020;22:31:51;C/IN;
2007007;Song Boen Lie;31/01/2020;22:32:32;C/IN;
2007007;Song Boen Lie;31/01/2020;22:32:33;C/IN;
2006010;Madel Ramos;31/01/2020;22:35:13;C/IN;
2008004;Joy Salvador;31/01/2020;22:35:17;C/IN;
2008004;Joy Salvador;31/01/2020;22:35:23;C/IN;
2017070;2017070;31/01/2020;22:36:07;C/IN;
2018029;2018029;31/01/2020;22:36:58;C/IN;
2016017;Richard Nichole B. Megu;31/01/2020;22:37:32;C/IN;
2019039;2019039;31/01/2020;22:37:46;C/IN;
2016049;Lourie Jane Orellano;31/01/2020;22:37:49;C/IN;
2010012;Darlitio;31/01/2020;22:37:56;C/IN;
2015019;Kimberlyn Bondoc;31/01/2020;22:38:26;C/IN;
2019076;2019076;31/01/2020;22:38:36;C/IN;
2019001;2019001;31/01/2020;22:39:10;C/IN;
2019001;2019001;31/01/2020;22:39:11;C/IN;
2019031;2019031;31/01/2020;22:39:17;C/IN;
2016075;Rosario  Filio;31/01/2020;22:39:26;C/IN;
2015024;Jiekka Catugas;31/01/2020;22:40:23;C/IN;
2012008;Janine Magracia;31/01/2020;22:40:27;C/IN;
2019007;2019007;31/01/2020;22:40:33;C/IN;
2019053;2019053;31/01/2020;22:40:42;C/IN;
2016040;Janice Borja;31/01/2020;22:41:02;C/IN;
2018063;2018063;31/01/2020;22:41:49;C/IN;
2016074;Ferlyn  Arroyo;31/01/2020;22:42:11;C/IN;
2016074;Ferlyn  Arroyo;31/01/2020;22:42:14;C/IN;
2017054;2017054;31/01/2020;22:42:18;C/IN;
2016009;Rizzalie  Salabsab;31/01/2020;22:42:27;C/IN;
2016062;Maricris Santos;31/01/2020;22:42:34;C/IN;
2006005;Jonalyn Luna;31/01/2020;22:42:42;C/IN;
2012001;Lorena De Torres;31/01/2020;22:42:52;C/IN;
2019084;2019084;31/01/2020;22:42:56;C/IN;
2015015;Aiza Villania;31/01/2020;22:43:00;C/IN;
2018032;2018032;31/01/2020;22:43:13;C/IN;
2018060;2018060;31/01/2020;22:43:19;C/IN;
2018061;2018061;31/01/2020;22:43:29;C/IN;
2007004;Marichu Mariano;31/01/2020;22:43:32;C/IN;
2006007;Myleen Bautista;31/01/2020;22:45:17;C/OUT;
2015002;Jerrel Joy Azuelo;31/01/2020;22:45:22;C/OUT;
2010010;Mae  Aguanza;31/01/2020;22:45:27;C/OUT;
2011012;Ropin;31/01/2020;22:45:59;C/IN;
2006022;Martin Martin;31/01/2020;22:46:03;C/IN;
2008005;Catherine Taruc;31/01/2020;22:46:22;C/OUT;
2019062;2019062;31/01/2020;22:47:00;C/IN;
2017062;2017062;31/01/2020;22:47:48;C/OUT;
2017062;2017062;31/01/2020;22:48:01;C/OUT;
2006006;Rowena Jane  Arcilla;31/01/2020;22:49:01;C/OUT;
2019037;2019037;31/01/2020;22:50:24;C/OUT;
2017055;2017055;31/01/2020;22:50:35;C/OUT;
2016004;Jaylyn David;31/01/2020;22:50:39;C/OUT;
2017460;2017460;31/01/2020;22:50:57;C/OUT;
2017042;Allbert Jay Valera;31/01/2020;22:51:11;C/OUT;
2016010;Jairah Santos;31/01/2020;22:51:18;C/OUT;
2017017;Jonah Jean Algura;31/01/2020;22:51:24;C/OUT;
2016044;Vina Estrelle Garcia;31/01/2020;22:51:55;C/OUT;
2015012;Mary Rose Gatong;31/01/2020;22:52:04;C/OUT;
2015002;Jerrel Joy Azuelo;31/01/2020;22:52:10;C/OUT;
2014015;Garlie Jane Walican;31/01/2020;22:52:13;C/OUT;
2018093;2018093;31/01/2020;22:52:47;C/OUT;
2019081;2019081;31/01/2020;22:52:57;C/OUT;
2016078;Antonette Isorena;31/01/2020;22:54:37;C/OUT;
2019061;2019061;31/01/2020;22:56:12;C/OUT;
2013005;Nikki Jean Vincoy;31/01/2020;22:56:59;C/OUT;
2013005;Nikki Jean Vincoy;31/01/2020;22:57:12;C/OUT;
2018028;2018028;31/01/2020;22:58:26;C/OUT;
2012014;Mary Joy Calda;31/01/2020;22:58:31;C/OUT;
2006011;Maureen Lintag;31/01/2020;22:58:58;C/OUT;
2015028;Diana Galang;31/01/2020;22:59:03;C/OUT;
2015028;Diana Galang;31/01/2020;22:59:06;C/OUT;
2017025;Julie Ann Recaido;31/01/2020;22:59:09;C/OUT;
2015003;Virlyn Costales;31/01/2020;22:59:13;C/OUT;
2009005;Mary Rose Gicaraya;31/01/2020;22:59:33;C/OUT;
2009003;Liezl  Licop;31/01/2020;22:59:41;C/OUT;
2012012;Barbette Talag;31/01/2020;22:59:51;C/OUT;
2016077;Precious Angelica Liban;31/01/2020;22:59:56;C/OUT;
2017060;2017060;31/01/2020;23:00:09;C/OUT;
2019038;2019038;31/01/2020;23:01:18;C/OUT;
2016015;Sean Carlo Cahuela;31/01/2020;23:01:23;C/OUT;
2018047;2018047;31/01/2020;23:01:52;C/OUT;
2018047;2018047;31/01/2020;23:01:53;C/IN;
2018047;2018047;31/01/2020;23:01:55;C/OUT;
2018047;2018047;31/01/2020;23:01:57;C/IN;
2019055;2019055;31/01/2020;23:07:27;C/OUT;
2018094;2018094;31/01/2020;23:11:13;C/OUT;
2006002;Rosalie  Magat;31/01/2020;23:13:00;C/OUT;
2019016;2019016;31/01/2020;23:16:04;C/OUT;
2019021;2019021;31/01/2020;23:16:12;C/OUT;
2019054;2019054;31/01/2020;23:16:17;C/OUT;
2016020;Michael Jordan Parungao;31/01/2020;23:17:01;C/OUT;
2019089;2019089;31/01/2020;23:17:25;C/OUT;
2016081;John Caleb Espanola;31/01/2020;23:17:28;C/OUT;
2018040;2018040;31/01/2020;23:17:33;C/OUT;
2018041;2018041;31/01/2020;23:17:43;C/OUT;
2018012;2018012;31/01/2020;23:20:24;C/OUT;
2019063;2019063;31/01/2020;23:23:33;C/OUT;
2018022;2018022;31/01/2020;00:00:56;C/OUT;
2019069;2019069;31/01/2020;00:01:10;C/OUT;
2019001;2019001;31/01/2020;00:01:55;C/IN;
2018061;2018061;31/01/2020;00:01:59;C/IN;
2019028;2019028;31/01/2020;00:02:03;C/IN;
2012001;Lorena De Torres;31/01/2020;00:02:11;C/IN;
2006005;Jonalyn Luna;31/01/2020;00:02:18;C/IN;
2016074;Ferlyn  Arroyo;31/01/2020;00:02:23;C/IN;
2018029;2018029;31/01/2020;00:02:34;C/IN;
2016009;Rizzalie  Salabsab;31/01/2020;00:05:37;C/IN;
2006003;Faith Joy L. Baaco;31/01/2020;00:15:40;C/OUT;
2015073;Antonito Tolin;31/01/2020;00:18:41;C/OUT;
2014012;Joana Marie Ondoy;31/01/2020;02:45:05;C/OUT;
2016004;Jaylyn David;31/01/2020;02:45:09;C/OUT;
2018034;2018034;31/01/2020;02:52:37;C/OUT;
2019084;2019084;31/01/2020;03:32:54;C/IN;
2012004;Aisa Anthonette Gudao;31/01/2020;03:33:22;C/IN;
2019012;2019012;31/01/2020;04:32:19;C/IN;
2015016;Ma. Therese Villanueva;31/01/2020;05:06:14;C/IN;
2018067;2018067;31/01/2020;05:11:08;C/IN;
2016089;Julius C;31/01/2020;05:11:27;C/IN;
2016089;Julius C;31/01/2020;05:11:31;C/IN;
2017005;Nathalie Ocbina;31/01/2020;05:14:11;C/IN;
2012018;Vincent  Caneza;31/01/2020;05:19:50;C/IN;
2017016;Karren  Gonzales;31/01/2020;05:22:33;C/IN;
2018011;2018011;31/01/2020;05:31:16;C/IN;
2016019;Renz Marrion  Federang;31/01/2020;05:31:31;C/IN;
2018038;2018038;31/01/2020;05:32:14;C/IN;
2017036;Joemar C;31/01/2020;05:33:49;C/IN;
2016087;Shaira Castillo;31/01/2020;05:37:36;C/IN;
2016087;Shaira Castillo;31/01/2020;05:37:39;C/IN;
2014032;Gretchen Donato;31/01/2020;05:46:05;C/IN;
2019068;2019068;31/01/2020;05:49:47;C/IN;
2015095;2015095;31/01/2020;05:51:14;C/IN;
2019049;2019049;31/01/2020;05:51:42;C/IN;
2019049;2019049;31/01/2020;05:51:47;C/IN;
2016088;Ferdinand Francia;31/01/2020;05:53:04;C/IN;
2019067;2019067;31/01/2020;05:53:19;C/IN;
2018100;2018100;31/01/2020;05:59:40;C/IN;
2017040;Geraldin;31/01/2020;06:00:08;C/OUT;
2018003;2018003;31/01/2020;06:00:14;C/OUT;
2015006;Jamielou Montealegre;31/01/2020;06:00:18;C/OUT;
2016035;Judy Lasay;31/01/2020;06:00:42;C/OUT;
2016059;Paul Anthony Nuguit;31/01/2020;06:01:04;C/OUT;
2019026;2019026;31/01/2020;06:02:00;C/OUT;
2019064;2019064;31/01/2020;06:04:48;C/OUT;
2018077;2018077;31/01/2020;06:07:32;C/IN;
2016082;Reginald Bacani;31/01/2020;06:08:03;C/IN;
2018050;2018050;31/01/2020;06:11:59;C/OUT;
2017037;Kristian;31/01/2020;06:17:56;C/IN;
2017037;Kristian;31/01/2020;06:17:59;C/IN;
2019047;2019047;31/01/2020;06:18:08;C/IN;
2010005;Joanna Marie  Agregado;31/01/2020;06:21:17;C/IN;
2016018;Rejelle  Corpuz;31/01/2020;06:23:50;C/IN;
2018053;2018053;31/01/2020;06:27:46;C/IN;
2006015;Reynaldo Enriquez;31/01/2020;06:27:55;C/IN;
2019051;2019051;31/01/2020;06:33:16;C/IN;
2008003;Rowena Sayo;31/01/2020;06:34:44;C/IN;
2008001;Visna Cabrera;31/01/2020;06:35:46;C/IN;
2019074;2019074;31/01/2020;06:36:19;C/IN;
2016041;Jobelie Borja;31/01/2020;06:36:57;C/IN;
2019041;2019041;31/01/2020;06:37:03;C/IN;
2014006;Jean Pascual;31/01/2020;06:37:48;C/IN;
2006017;Jennifer Gapasen;31/01/2020;06:38:27;C/IN;
2006004;Evelyn L. Latuga;31/01/2020;06:38:46;C/IN;
2017033;Mico Gumilao;31/01/2020;06:39:15;C/IN;
2017033;Mico Gumilao;31/01/2020;06:39:19;C/IN;
2015041;Karen Grace  Santos;31/01/2020;06:39:47;C/IN;
2016045;Aisha May Horca;31/01/2020;06:40:06;C/IN;
2015094;2015094;31/01/2020;06:41:10;C/IN;
2018062;2018062;31/01/2020;06:41:16;C/IN;
20010008;Arlene  Vergara;31/01/2020;06:41:23;C/IN;
2011003;Michelle Mangabat;31/01/2020;06:41:32;C/IN;
2012002;Lotlot Flores;31/01/2020;06:41:35;C/IN;
2018082;2018082;31/01/2020;06:41:40;C/IN;
2018088;2018088;31/01/2020;06:41:44;C/IN;
2019077;2019077;31/01/2020;06:41:59;C/IN;
2018096;2018096;31/01/2020;06:42:21;C/IN;
2018025;2018025;31/01/2020;06:42:26;C/IN;
2006008;Malu Sigua;31/01/2020;06:42:35;C/IN;
2018091;2018091;31/01/2020;06:42:39;C/IN;
2016047;Melly Zablan;31/01/2020;06:42:43;C/IN;
2018095;2018095;31/01/2020;06:42:48;C/IN;
2014016;Narlin Zhang;31/01/2020;06:42:51;C/IN;
2019009;2019009;31/01/2020;06:42:55;C/IN;
2018089;2018089;31/01/2020;06:42:58;C/IN;
2014004;Lee-Ann Lagahit;31/01/2020;06:43:16;C/IN;
2017059;2017059;31/01/2020;06:43:30;C/IN;
2015027;Rosemin Flores;31/01/2020;06:43:34;C/IN;
2015004;Dhoriz Escueta;31/01/2020;06:43:39;C/IN;
2015018;Jhanet Rose Viray;31/01/2020;06:43:43;C/IN;
2016037;Madel Adigue;31/01/2020;06:43:50;C/IN;
2016043;Abegail D. Dalit;31/01/2020;06:43:54;C/IN;
2013009;Maria Gurrobat;31/01/2020;06:43:58;C/IN;
2007005;Maricris Severo;31/01/2020;06:44:08;C/IN;
2016014;Jhovielyn Diane Villarba;31/01/2020;06:44:17;C/IN;
2015033;Caryl Anne Nocum;31/01/2020;06:44:22;C/IN;
2017061;2017061;31/01/2020;06:44:37;C/IN;
2006020;Edi Oei;31/01/2020;06:44:41;C/IN;
2018086;2018086;31/01/2020;06:44:45;C/IN;
2010006;Catherine Cunanan;31/01/2020;06:45:01;C/IN;
2018060;2018060;31/01/2020;06:45:09;C/OUT;
2019050;2019050;31/01/2020;06:45:24;C/IN;
2012001;Lorena De Torres;31/01/2020;06:45:26;C/OUT;
2012008;Janine Magracia;31/01/2020;06:45:29;C/OUT;
2010012;Darlitio;31/01/2020;06:45:33;C/OUT;
2016049;Lourie Jane Orellano;31/01/2020;06:45:42;C/OUT;
2017046;John Paulo Reyes;31/01/2020;06:45:43;C/IN;
2016075;Rosario  Filio;31/01/2020;06:45:45;C/OUT;
2007007;Song Boen Lie;31/01/2020;06:45:45;C/OUT;
2007007;Song Boen Lie;31/01/2020;06:45:46;C/IN;
2018045;2018045;31/01/2020;06:46:01;C/IN;
2017070;2017070;31/01/2020;06:46:15;C/OUT;
2019076;2019076;31/01/2020;06:48:53;C/OUT;
2019078;2019078;31/01/2020;06:48:56;C/OUT;
2016009;Rizzalie  Salabsab;31/01/2020;06:49:04;C/OUT;
2006001;Imelda Dela Torre;31/01/2020;06:49:26;C/IN;
2019031;2019031;31/01/2020;06:49:55;C/OUT;
2019028;2019028;31/01/2020;06:50:47;C/OUT;
2018063;2018063;31/01/2020;06:52:26;C/OUT;
2017054;2017054;31/01/2020;06:53:58;C/OUT;
2016062;Maricris Santos;31/01/2020;06:54:05;C/OUT;
2018010;2018010;31/01/2020;06:54:13;C/OUT;
2019012;2019012;31/01/2020;06:54:47;C/OUT;
2018029;2018029;31/01/2020;06:55:10;C/OUT;
2019088;2019088;31/01/2020;06:55:17;C/IN;
2006005;Jonalyn Luna;31/01/2020;06:56:12;C/OUT;
2015013;Babylyn Jolo;31/01/2020;06:56:17;C/OUT;
2019001;2019001;31/01/2020;06:56:22;C/OUT;
2016098;Adi Gunawan;31/01/2020;06:56:28;C/IN;
2019084;2019084;31/01/2020;06:57:14;C/OUT;
2011010;Angel  Abelligos;31/01/2020;06:57:31;C/IN;
2016040;Janice Borja;31/01/2020;06:58:32;C/OUT;
2018101;2018101;31/01/2020;06:58:35;C/IN;
2016074;Ferlyn  Arroyo;31/01/2020;06:59:53;C/OUT;
2016074;Ferlyn  Arroyo;31/01/2020;06:59:57;C/OUT;
2016074;Ferlyn  Arroyo;31/01/2020;07:00:03;C/OUT;
2013010;Marlon Harry Cardines;31/01/2020;07:00:32;C/OUT;
2016094;Franz Kevin R. Loayon;31/01/2020;07:00:38;C/OUT;
2016017;Richard Nichole B. Megu;31/01/2020;07:00:43;C/OUT;
2015024;Jiekka Catugas;31/01/2020;07:00:49;C/OUT;
2013014;Arnold de Gracia;31/01/2020;07:01:26;C/OUT;
2018086;2018086;31/01/2020;07:01:29;C/IN;
2013014;Arnold de Gracia;31/01/2020;07:01:30;C/OUT;
2012023;Leonardo  Delos Santos;31/01/2020;07:01:34;C/OUT;
2012023;Leonardo  Delos Santos;31/01/2020;07:01:37;C/OUT;
2009004;Margarita Rivera;31/01/2020;07:01:43;C/OUT;
2009004;Margarita Rivera;31/01/2020;07:01:46;C/OUT;
2006009;Aileen Sacdalan;31/01/2020;07:01:54;C/OUT;
2019009;2019009;31/01/2020;07:02:04;C/IN;
2012004;Aisa Anthonette Gudao;31/01/2020;07:02:05;C/OUT;
2018032;2018032;31/01/2020;07:02:20;C/OUT;
2008004;Joy Salvador;31/01/2020;07:02:30;C/OUT;
2019041;2019041;31/01/2020;07:02:47;C/IN;
2015033;Caryl Anne Nocum;31/01/2020;07:02:59;C/IN;
2008004;Joy Salvador;31/01/2020;07:03:00;C/OUT;
2018089;2018089;31/01/2020;07:03:08;C/IN;
2016041;Jobelie Borja;31/01/2020;07:03:57;C/IN;
2018025;2018025;31/01/2020;07:04:13;C/IN;
2012001;Lorena De Torres;31/01/2020;07:04:44;C/OUT;
2014006;Jean Pascual;31/01/2020;07:05:02;C/IN;
2006017;Jennifer Gapasen;31/01/2020;07:05:45;C/IN;
2010008;2010008;31/01/2020;07:05:53;C/IN;
2018048;2018048;31/01/2020;07:06:13;C/OUT;
2018048;2018048;31/01/2020;07:06:17;C/OUT;
2008003;Rowena Sayo;31/01/2020;07:07:09;C/IN;
2016014;Jhovielyn Diane Villarba;31/01/2020;07:07:14;C/IN;
2016043;Abegail D. Dalit;31/01/2020;07:07:18;C/IN;
2006008;Malu Sigua;31/01/2020;07:07:21;C/IN;
2011003;Michelle Mangabat;31/01/2020;07:07:37;C/IN;
2015019;Kimberlyn Bondoc;31/01/2020;07:12:53;C/OUT;
2019087;2019087;31/01/2020;07:15:56;C/OUT;
2019074;2019074;31/01/2020;07:17:18;C/IN;
2016045;Aisha May Horca;31/01/2020;07:17:22;C/IN;
2018096;2018096;31/01/2020;07:17:26;C/IN;
2014016;Narlin Zhang;31/01/2020;07:17:43;C/IN;
2012002;Lotlot Flores;31/01/2020;07:17:47;C/IN;
2012002;Lotlot Flores;31/01/2020;07:17:51;C/IN;
2011008;Richard Elvambuena;31/01/2020;07:18:07;C/OUT;
2010005;Joanna Marie  Agregado;31/01/2020;07:18:18;C/IN;
2018082;2018082;31/01/2020;07:18:46;C/IN;
2019022;2019022;31/01/2020;07:19:07;C/OUT;
2019053;2019053;31/01/2020;07:19:38;C/OUT;
2019052;2019052;31/01/2020;07:20:06;C/OUT;
2006004;Evelyn L. Latuga;31/01/2020;07:20:41;C/IN;
2018099;2018099;31/01/2020;07:24:34;C/OUT;
2018061;2018061;31/01/2020;07:25:34;C/OUT;
2014004;Lee-Ann Lagahit;31/01/2020;07:32:04;C/IN;
2018095;2018095;31/01/2020;07:32:28;C/IN;
2016047;Melly Zablan;31/01/2020;07:32:35;C/IN;
2017035;Ivy Besnar;31/01/2020;07:43:05;C/IN;
2017035;Ivy Besnar;31/01/2020;07:43:08;C/IN;
2014006;Jean Pascual;31/01/2020;07:47:43;C/IN;
2013009;Maria Gurrobat;31/01/2020;07:50:55;C/IN;
2017057;Abigail Cruz;31/01/2020;07:51:07;C/IN;
2007005;Maricris Severo;31/01/2020;07:51:09;C/IN;
2018013;2018013;31/01/2020;07:55:14;C/IN;
2013015;Aries Jonathan;31/01/2020;07:56:00;C/IN;
2009008;Eko Nugroho Tandijono;31/01/2020;08:08:12;C/IN;
2008008;Hendra R;31/01/2020;08:14:00;C/IN;
2018009;2018009;31/01/2020;08:31:47;C/IN;
2009007;Sukardi Omar;31/01/2020;08:33:04;C/IN;
2013016;Hendrik Ong;31/01/2020;08:33:31;C/IN;
2015072;Mayrose P. Brodeth;31/01/2020;08:36:12;C/IN;
2011014;Hendra Xu;31/01/2020;08:41:15;C/IN;
2014039;Jimmy, Hendra;31/01/2020;08:43:59;C/IN;
2019017;2019017;31/01/2020;08:45:18;C/IN;
2011006;Mark Arvin Bello;31/01/2020;08:47:38;C/IN;
2011015;Hermanto Phang;31/01/2020;08:48:11;C/IN;
2011011;Franky Gunawan;31/01/2020;08:49:32;C/IN;
2011016;Fendi Tan;31/01/2020;08:50:04;C/IN;
2007006;Suhariadi Hadian;31/01/2020;08:54:57;C/IN;
2011013;Harley Wongso;31/01/2020;08:58:14;C/IN;
2016076;Mary-Ann Barbadia;31/01/2020;08:58:30;C/IN;
2017030;Karen Danica Maranan;31/01/2020;08:58:53;C/IN;
2008007;Tobias Lawiarso;31/01/2020;09:08:29;C/IN;
2019077;2019077;31/01/2020;09:17:57;C/IN;
2018091;2018091;31/01/2020;09:30:41;C/IN;
2015004;Dhoriz Escueta;31/01/2020;09:47:40;C/IN;
2015018;Jhanet Rose Viray;31/01/2020;09:47:45;C/IN;
2015071;Cindy Cayubit;31/01/2020;09:50:37;C/IN;
2013008;Wilmark John G. Domingo;31/01/2020;09:53:02;C/IN;
2018046;2018046;31/01/2020;09:53:25;C/IN;
2018046;2018046;31/01/2020;09:53:34;C/IN;
2019066;2019066;31/01/2020;09:53:41;C/IN;
2016003;Anne Bernadette Bustos;31/01/2020;10:15:31;C/IN;
2018001;Orlan Relente;31/01/2020;11:38:17;C/IN;
2016037;Madel Adigue;31/01/2020;11:43:03;C/IN;
2019025;2019025;31/01/2020;12:23:33;C/IN;
2019025;2019025;31/01/2020;12:23:37;C/IN;
2016015;Sean Carlo Cahuela;31/01/2020;12:38:24;C/IN;
2018040;2018040;31/01/2020;13:01:28;C/IN;
2019045;2019045;31/01/2020;13:08:53;C/IN;
2016029;Mary Joyce Santos;31/01/2020;13:11:10;C/IN;
2019045;2019045;31/01/2020;13:15:56;C/IN;
2018105;2018105;31/01/2020;13:27:36;C/IN;
2018075;2018075;31/01/2020;13:31:03;C/IN;
2006002;Rosalie  Magat;31/01/2020;13:37:10;C/IN;
2017042;Allbert Jay Valera;31/01/2020;13:43:02;C/IN;
2006011;Maureen Lintag;31/01/2020;13:49:27;C/IN;
2018015;2018015;31/01/2020;13:49:30;C/IN;
2016081;John Caleb Espanola;31/01/2020;13:50:04;C/IN;
2017003;Nelia E. Germedia;31/01/2020;13:50:11;C/IN;
2017004;Elena Gallanes;31/01/2020;13:52:14;C/IN;
2017004;Elena Gallanes;31/01/2020;13:53:04;C/IN;
2018014;2018014;31/01/2020;13:53:55;C/IN;
2006013;Lyn Dayame;31/01/2020;13:55:10;C/IN;
2006013;Lyn Dayame;31/01/2020;13:55:14;C/IN;
2006003;Faith Joy L. Baaco;31/01/2020;13:56:36;C/IN;
2017016;Karren  Gonzales;31/01/2020;14:00:06;C/OUT;
2018067;2018067;31/01/2020;14:00:16;C/OUT;
2017036;Joemar C;31/01/2020;14:00:26;C/OUT;
2015016;Ma. Therese Villanueva;31/01/2020;14:00:50;C/OUT;
2017005;Nathalie Ocbina;31/01/2020;14:00:58;C/OUT;
2019068;2019068;31/01/2020;14:01:38;C/OUT;
2019049;2019049;31/01/2020;14:01:58;C/OUT;
2019049;2019049;31/01/2020;14:02:04;C/OUT;
2018011;2018011;31/01/2020;14:02:36;C/OUT;
2019067;2019067;31/01/2020;14:03:15;C/OUT;
2019055;2019055;31/01/2020;14:07:04;C/IN;
2014032;Gretchen Donato;31/01/2020;14:07:46;C/OUT;
2015073;Antonito Tolin;31/01/2020;14:07:47;C/IN;
2015095;2015095;31/01/2020;14:08:04;C/OUT;
2018047;2018047;31/01/2020;14:11:16;C/IN;
2019089;2019089;31/01/2020;14:16:27;C/IN;
2019021;2019021;31/01/2020;14:19:19;C/IN;
2006006;Rowena Jane  Arcilla;31/01/2020;14:20:28;C/IN;
2017060;2017060;31/01/2020;14:22:56;C/IN;
2008005;Catherine Taruc;31/01/2020;14:23:35;C/IN;
2017460;2017460;31/01/2020;14:29:11;C/IN;
2006022;Martin Martin;31/01/2020;14:29:11;C/OUT;
2019063;2019063;31/01/2020;14:30:15;C/IN;
2018041;2018041;31/01/2020;14:31:26;C/IN;
2015027;Rosemin Flores;31/01/2020;14:32:53;C/IN;
2014015;Garlie Jane Walican;31/01/2020;14:33:43;C/IN;
2015002;Jerrel Joy Azuelo;31/01/2020;14:36:25;C/IN;
2018093;2018093;31/01/2020;14:36:38;C/IN;
2018026;2018026;31/01/2020;14:36:42;C/IN;
2013005;Nikki Jean Vincoy;31/01/2020;14:36:46;C/IN;
2017025;Julie Ann Recaido;31/01/2020;14:36:52;C/IN;
2017065;Diane De Guzman;31/01/2020;14:36:54;C/IN;
2019081;2019081;31/01/2020;14:37:36;C/IN;
2018094;2018094;31/01/2020;14:37:41;C/IN;
2016044;Vina Estrelle Garcia;31/01/2020;14:38:03;C/IN;
2006007;Myleen Bautista;31/01/2020;14:38:07;C/IN;
2016078;Antonette Isorena;31/01/2020;14:38:36;C/IN;
2019037;2019037;31/01/2020;14:39:57;C/IN;
2015028;Diana Galang;31/01/2020;14:40:15;C/IN;
2015028;Diana Galang;31/01/2020;14:40:19;C/IN;
2017055;2017055;31/01/2020;14:40:23;C/IN;
2015012;Mary Rose Gatong;31/01/2020;14:40:27;C/IN;
2017055;2017055;31/01/2020;14:40:32;C/IN;
2019061;2019061;31/01/2020;14:41:02;C/IN;
2019016;2019016;31/01/2020;14:41:20;C/IN;
2012014;Mary Joy Calda;31/01/2020;14:41:30;C/IN;
2018028;2018028;31/01/2020;14:41:35;C/IN;
2016004;Jaylyn David;31/01/2020;14:41:40;C/IN;
2016077;Precious Angelica Liban;31/01/2020;14:41:59;C/IN;
2019038;2019038;31/01/2020;14:42:10;C/IN;
2015015;Aiza Villania;31/01/2020;14:42:15;C/IN;
2009003;Liezl  Licop;31/01/2020;14:42:19;C/IN;
2015003;Virlyn Costales;31/01/2020;14:42:24;C/IN;
2017062;2017062;31/01/2020;14:42:27;C/IN;
2017017;Jonah Jean Algura;31/01/2020;14:42:31;C/IN;
2012012;Barbette Talag;31/01/2020;14:42:38;C/IN;
2010010;Mae  Aguanza;31/01/2020;14:43:05;C/IN;
2019054;2019054;31/01/2020;14:43:34;C/IN;
2009005;Mary Rose Gicaraya;31/01/2020;14:44:20;C/IN;
2018062;2018062;31/01/2020;14:44:51;C/IN;
2016010;Jairah Santos;31/01/2020;14:45:06;C/IN;
2010005;Joanna Marie  Agregado;31/01/2020;14:45:26;C/OUT;
2016047;Melly Zablan;31/01/2020;14:45:32;C/OUT;
2006020;Edi Oei;31/01/2020;14:45:42;C/OUT;
2006020;Edi Oei;31/01/2020;14:45:43;C/IN;
2019069;2019069;31/01/2020;14:46:29;C/IN;
2019041;2019041;31/01/2020;14:47:53;C/OUT;
2018022;2018022;31/01/2020;14:48:01;C/IN;
2016020;Michael Jordan Parungao;31/01/2020;14:48:22;C/IN;
2016043;Abegail D. Dalit;31/01/2020;14:48:36;C/OUT;
2018086;2018086;31/01/2020;14:49:08;C/OUT;
2018025;2018025;31/01/2020;14:49:13;C/OUT;
2006017;Jennifer Gapasen;31/01/2020;14:49:38;C/OUT;
2007005;Maricris Severo;31/01/2020;14:50:04;C/OUT;
2013009;Maria Gurrobat;31/01/2020;14:52:10;C/OUT;
2019077;2019077;31/01/2020;14:53:05;C/OUT;
2015027;Rosemin Flores;31/01/2020;14:53:19;C/OUT;
2006004;Evelyn L. Latuga;31/01/2020;14:53:25;C/OUT;
2014016;Narlin Zhang;31/01/2020;14:54:23;C/OUT;
2018088;2018088;31/01/2020;14:55:14;C/IN;
2016010;Jairah Santos;31/01/2020;14:55:18;C/IN;
2014006;Jean Pascual;31/01/2020;14:55:43;C/OUT;
2019074;2019074;31/01/2020;14:55:51;C/OUT;
2016045;Aisha May Horca;31/01/2020;14:56:06;C/OUT;
2018095;2018095;31/01/2020;14:56:50;C/OUT;
2008003;Rowena Sayo;31/01/2020;14:57:27;C/OUT;
2018089;2018089;31/01/2020;14:57:32;C/OUT;
2018096;2018096;31/01/2020;14:58:13;C/OUT;
2019009;2019009;31/01/2020;14:58:16;C/OUT;
2018012;2018012;31/01/2020;14:58:36;C/IN;
2017061;2017061;31/01/2020;14:58:44;C/OUT;
2011003;Michelle Mangabat;31/01/2020;14:59:47;C/OUT;
2012018;Vincent  Caneza;31/01/2020;15:00:08;C/OUT;
2017037;Kristian;31/01/2020;15:00:16;C/OUT;
2017059;2017059;31/01/2020;15:00:34;C/OUT;
2016037;Madel Adigue;31/01/2020;15:01:38;C/OUT;
2015041;Karen Grace  Santos;31/01/2020;15:02:14;C/OUT;
2015033;Caryl Anne Nocum;31/01/2020;15:02:18;C/OUT;
2018082;2018082;31/01/2020;15:02:22;C/OUT;
2016088;Ferdinand Francia;31/01/2020;15:02:43;C/OUT;
2016089;Julius C;31/01/2020;15:02:49;C/OUT;
2016087;Shaira Castillo;31/01/2020;15:02:52;C/OUT;
2014004;Lee-Ann Lagahit;31/01/2020;15:02:56;C/OUT;
2016087;Shaira Castillo;31/01/2020;15:03:24;C/OUT;
2018100;2018100;31/01/2020;15:03:28;C/OUT;
2006015;Reynaldo Enriquez;31/01/2020;15:03:59;C/OUT;
2016014;Jhovielyn Diane Villarba;31/01/2020;15:04:12;C/OUT;
2016047;Melly Zablan;31/01/2020;15:04:19;C/OUT;
2010008;2010008;31/01/2020;15:04:39;C/OUT;
2018053;2018053;31/01/2020;15:05:23;C/OUT;
2017033;Mico Gumilao;31/01/2020;15:07:54;C/OUT;
2017033;Mico Gumilao;31/01/2020;15:07:57;C/OUT;
2018088;2018088;31/01/2020;15:12:03;C/OUT;
2018088;2018088;31/01/2020;15:12:04;C/IN;
2012002;Lotlot Flores;31/01/2020;15:12:30;C/OUT;
2015004;Dhoriz Escueta;31/01/2020;15:12:42;C/OUT;
2006008;Malu Sigua;31/01/2020;15:12:50;C/OUT;
2016019;Renz Marrion  Federang;31/01/2020;15:18:33;C/OUT;
2019085;2019085;31/01/2020;15:18:46;C/OUT;
2018077;2018077;31/01/2020;15:19:20;C/OUT;
2019050;2019050;31/01/2020;15:19:23;C/OUT;
2016018;Rejelle  Corpuz;31/01/2020;15:19:30;C/OUT;
2010006;Catherine Cunanan;31/01/2020;15:20:12;C/OUT;
2018038;2018038;31/01/2020;15:20:17;C/OUT;
2016098;Adi Gunawan;31/01/2020;15:20:34;C/OUT;
2016016;Jessie John Janairo;31/01/2020;15:20:55;C/OUT;
2015018;Jhanet Rose Viray;31/01/2020;15:21:47;C/OUT;
2019088;2019088;31/01/2020;15:22:21;C/OUT;
2015094;2015094;31/01/2020;15:22:25;C/OUT;
2019051;2019051;31/01/2020;15:23:43;C/OUT;
2019047;2019047;31/01/2020;15:24:02;C/OUT;
2019047;2019047;31/01/2020;15:24:05;C/OUT;
2016082;Reginald Bacani;31/01/2020;15:24:26;C/OUT;
2009005;Mary Rose Gicaraya;31/01/2020;15:31:54;C/IN;
2009005;Mary Rose Gicaraya;31/01/2020;15:31:59;C/IN;
2009005;Mary Rose Gicaraya;31/01/2020;15:32:07;C/IN;
2018028;2018028;31/01/2020;15:32:15;C/IN;
2010010;Mae  Aguanza;31/01/2020;15:36:40;C/IN;
2017055;2017055;31/01/2020;15:47:07;C/IN;
2012014;Mary Joy Calda;31/01/2020;15:47:39;C/IN;
2009003;Liezl  Licop;31/01/2020;16:01:01;C/IN;
2006006;Rowena Jane  Arcilla;31/01/2020;16:01:13;C/IN;
2019037;2019037;31/01/2020;16:01:44;C/IN;
2015028;Diana Galang;31/01/2020;16:01:59;C/IN;
2016078;Antonette Isorena;31/01/2020;16:02:58;C/IN;
2018094;2018094;31/01/2020;16:03:06;C/IN;
2018045;2018045;31/01/2020;16:06:42;C/OUT;
2008001;Visna Cabrera;31/01/2020;16:07:51;C/OUT;
2018101;2018101;31/01/2020;16:10:02;C/OUT;
2013015;Aries Jonathan;31/01/2020;16:11:29;C/OUT;
2017062;2017062;31/01/2020;16:17:46;C/IN;
2015002;Jerrel Joy Azuelo;31/01/2020;16:17:50;C/IN;
2009008;Eko Nugroho Tandijono;31/01/2020;16:20:16;C/OUT;
2008008;Hendra R;31/01/2020;16:23:58;C/OUT;
2006001;Imelda Dela Torre;31/01/2020;16:32:10;C/OUT;
2018026;2018026;31/01/2020;16:33:00;C/IN;
2011016;Fendi Tan;31/01/2020;17:00:13;C/OUT;
2019017;2019017;31/01/2020;17:00:18;C/OUT;
2009007;Sukardi Omar;31/01/2020;17:00:26;C/OUT;
2019038;2019038;31/01/2020;17:02:18;C/IN;
2011015;Hermanto Phang;31/01/2020;17:02:47;C/OUT;
2014039;Jimmy, Hendra;31/01/2020;17:02:51;C/OUT;
2011011;Franky Gunawan;31/01/2020;17:03:05;C/OUT;
2017057;Abigail Cruz;31/01/2020;17:03:16;C/OUT;
2017035;Ivy Besnar;31/01/2020;17:03:23;C/OUT;
2017035;Ivy Besnar;31/01/2020;17:03:27;C/OUT;
2011010;Angel  Abelligos;31/01/2020;17:03:53;C/OUT;
2011010;Angel  Abelligos;31/01/2020;17:03:55;C/OUT;
2007006;Suhariadi Hadian;31/01/2020;17:04:00;C/OUT;
2011014;Hendra Xu;31/01/2020;17:04:26;C/OUT;
2018009;2018009;31/01/2020;17:07:07;C/OUT;
2013016;Hendrik Ong;31/01/2020;17:08:29;C/OUT;
2011013;Harley Wongso;31/01/2020;17:12:57;C/OUT;
2008007;Tobias Lawiarso;31/01/2020;17:25:28;C/OUT;
2016076;Mary-Ann Barbadia;31/01/2020;18:02:34;C/OUT;
2015072;Mayrose P. Brodeth;31/01/2020;18:03:13;C/OUT;
2017030;Karen Danica Maranan;31/01/2020;18:03:57;C/OUT;
2011006;Mark Arvin Bello;31/01/2020;18:08:21;C/OUT;
2019012;2019012;31/01/2020;18:41:49;C/IN;
2019028;2019028;31/01/2020;18:41:53;C/IN;
2019078;2019078;31/01/2020;18:41:56;C/IN;
2018062;2018062;31/01/2020;18:46:01;C/OUT;
2018062;2018062;31/01/2020;18:46:02;C/IN;
2018091;2018091;31/01/2020;18:58:07;C/OUT;
2016041;Jobelie Borja;31/01/2020;18:58:10;C/OUT;
2019066;2019066;31/01/2020;19:02:30;C/OUT;
2018046;2018046;31/01/2020;19:03:06;C/OUT;
2015071;Cindy Cayubit;31/01/2020;19:03:26;C/OUT;
2013008;Wilmark John G. Domingo;31/01/2020;19:06:09;C/OUT;
2016003;Anne Bernadette Bustos;31/01/2020;19:07:09;C/OUT;
2018013;2018013;31/01/2020;19:18:43;C/OUT;
2015074;Neil Saquin;31/01/2020;20:24:14;C/IN;
2013014;Arnold de Gracia;31/01/2020;20:30:51;C/IN;
2013014;Arnold de Gracia;31/01/2020;20:30:54;C/IN;
2012023;Leonardo  Delos Santos;31/01/2020;20:42:42;C/IN;
2012023;Leonardo  Delos Santos;31/01/2020;20:42:47;C/IN;
2018003;2018003;31/01/2020;20:56:55;C/IN;
2015006;Jamielou Montealegre;31/01/2020;21:04:20;C/IN;
2015006;Jamielou Montealegre;31/01/2020;21:04:23;C/IN;
2018048;2018048;31/01/2020;21:10:50;C/IN;
2018050;2018050;31/01/2020;21:18:59;C/IN;
2017040;Geraldin;31/01/2020;21:23:40;C/IN;
2017040;Geraldin;31/01/2020;21:23:45;C/IN;
2016059;Paul Anthony Nuguit;31/01/2020;21:28:11;C/IN;
2019022;2019022;31/01/2020;21:34:52;C/IN;
2018051;2018051;31/01/2020;21:50:50;C/IN;
2016036;Marivic  Lasay;31/01/2020;21:50:56;C/IN;
2018071;2018071;31/01/2020;21:51:23;C/IN;
2016036;Marivic  Lasay;31/01/2020;21:51:43;C/IN;
2019026;2019026;31/01/2020;21:51:46;C/IN;
2016094;Franz Kevin R. Loayon;31/01/2020;21:58:23;C/IN;
2016029;Mary Joyce Santos;31/01/2020;22:00:18;C/OUT;
2019045;2019045;31/01/2020;22:00:24;C/OUT;
2017003;Nelia E. Germedia;31/01/2020;22:00:27;C/OUT;
2017003;Nelia E. Germedia;31/01/2020;22:00:30;C/OUT;
2018105;2018105;31/01/2020;22:00:51;C/OUT;
2018001;Orlan Relente;31/01/2020;22:01:17;C/OUT;
2018015;2018015;31/01/2020;22:02:24;C/OUT;
2019025;2019025;31/01/2020;22:03:04;C/OUT;
2019025;2019025;31/01/2020;22:03:08;C/OUT;
2006013;Lyn Dayame;31/01/2020;22:03:11;C/OUT;
2017004;Elena Gallanes;31/01/2020;22:05:50;C/OUT;
2017004;Elena Gallanes;31/01/2020;22:05:53;C/OUT;
2018075;2018075;31/01/2020;22:08:52;C/OUT;
2018014;2018014;31/01/2020;22:19:30;C/OUT;
2019052;2019052;31/01/2020;22:19:45;C/IN;
2011008;Richard Elvambuena;31/01/2020;22:21:35;C/IN;
2018010;2018010;31/01/2020;22:28:23;C/IN;
2019087;2019087;31/01/2020;22:30:59;C/IN;
2019022;2019022;31/01/2020;22:31:51;C/IN;
2007007;Song Boen Lie;31/01/2020;22:32:32;C/IN;
2007007;Song Boen Lie;31/01/2020;22:32:33;C/IN;
2006010;Madel Ramos;31/01/2020;22:35:13;C/IN;
2008004;Joy Salvador;31/01/2020;22:35:17;C/IN;
2008004;Joy Salvador;31/01/2020;22:35:23;C/IN;
2017070;2017070;31/01/2020;22:36:07;C/IN;
2018029;2018029;31/01/2020;22:36:58;C/IN;
2016017;Richard Nichole B. Megu;31/01/2020;22:37:32;C/IN;
2019039;2019039;31/01/2020;22:37:46;C/IN;
2016049;Lourie Jane Orellano;31/01/2020;22:37:49;C/IN;
2010012;Darlitio;31/01/2020;22:37:56;C/IN;
2015019;Kimberlyn Bondoc;31/01/2020;22:38:26;C/IN;
2019076;2019076;31/01/2020;22:38:36;C/IN;
2019001;2019001;31/01/2020;22:39:10;C/IN;
2019001;2019001;31/01/2020;22:39:11;C/IN;
2019031;2019031;31/01/2020;22:39:17;C/IN;
2016075;Rosario  Filio;31/01/2020;22:39:26;C/IN;
2015024;Jiekka Catugas;31/01/2020;22:40:23;C/IN;
2012008;Janine Magracia;31/01/2020;22:40:27;C/IN;
2019007;2019007;31/01/2020;22:40:33;C/IN;
2019053;2019053;31/01/2020;22:40:42;C/IN;
2016040;Janice Borja;31/01/2020;22:41:02;C/IN;
2018063;2018063;31/01/2020;22:41:49;C/IN;
2016074;Ferlyn  Arroyo;31/01/2020;22:42:11;C/IN;
2016074;Ferlyn  Arroyo;31/01/2020;22:42:14;C/IN;
2017054;2017054;31/01/2020;22:42:18;C/IN;
2016009;Rizzalie  Salabsab;31/01/2020;22:42:27;C/IN;
2016062;Maricris Santos;31/01/2020;22:42:34;C/IN;
2006005;Jonalyn Luna;31/01/2020;22:42:42;C/IN;
2012001;Lorena De Torres;31/01/2020;22:42:52;C/IN;
2019084;2019084;31/01/2020;22:42:56;C/IN;
2015015;Aiza Villania;31/01/2020;22:43:00;C/IN;
2018032;2018032;31/01/2020;22:43:13;C/IN;
2018060;2018060;31/01/2020;22:43:19;C/IN;
2018061;2018061;31/01/2020;22:43:29;C/IN;
2007004;Marichu Mariano;31/01/2020;22:43:32;C/IN;
2006007;Myleen Bautista;31/01/2020;22:45:17;C/OUT;
2015002;Jerrel Joy Azuelo;31/01/2020;22:45:22;C/OUT;
2010010;Mae  Aguanza;31/01/2020;22:45:27;C/OUT;
2011012;Ropin;31/01/2020;22:45:59;C/IN;
2006022;Martin Martin;31/01/2020;22:46:03;C/IN;
2008005;Catherine Taruc;31/01/2020;22:46:22;C/OUT;
2019062;2019062;31/01/2020;22:47:00;C/IN;
2017062;2017062;31/01/2020;22:47:48;C/OUT;
2017062;2017062;31/01/2020;22:48:01;C/OUT;
2006006;Rowena Jane  Arcilla;31/01/2020;22:49:01;C/OUT;
2019037;2019037;31/01/2020;22:50:24;C/OUT;
2017055;2017055;31/01/2020;22:50:35;C/OUT;
2016004;Jaylyn David;31/01/2020;22:50:39;C/OUT;
2017460;2017460;31/01/2020;22:50:57;C/OUT;
2017042;Allbert Jay Valera;31/01/2020;22:51:11;C/OUT;
2016010;Jairah Santos;31/01/2020;22:51:18;C/OUT;
2017017;Jonah Jean Algura;31/01/2020;22:51:24;C/OUT;
2016044;Vina Estrelle Garcia;31/01/2020;22:51:55;C/OUT;
2015012;Mary Rose Gatong;31/01/2020;22:52:04;C/OUT;
2015002;Jerrel Joy Azuelo;31/01/2020;22:52:10;C/OUT;
2014015;Garlie Jane Walican;31/01/2020;22:52:13;C/OUT;
2018093;2018093;31/01/2020;22:52:47;C/OUT;
2019081;2019081;31/01/2020;22:52:57;C/OUT;
2016078;Antonette Isorena;31/01/2020;22:54:37;C/OUT;
2019061;2019061;31/01/2020;22:56:12;C/OUT;
2013005;Nikki Jean Vincoy;31/01/2020;22:56:59;C/OUT;
2013005;Nikki Jean Vincoy;31/01/2020;22:57:12;C/OUT;
2018028;2018028;31/01/2020;22:58:26;C/OUT;
2012014;Mary Joy Calda;31/01/2020;22:58:31;C/OUT;
2006011;Maureen Lintag;31/01/2020;22:58:58;C/OUT;
2015028;Diana Galang;31/01/2020;22:59:03;C/OUT;
2015028;Diana Galang;31/01/2020;22:59:06;C/OUT;
2017025;Julie Ann Recaido;31/01/2020;22:59:09;C/OUT;
2015003;Virlyn Costales;31/01/2020;22:59:13;C/OUT;
2009005;Mary Rose Gicaraya;31/01/2020;22:59:33;C/OUT;
2009003;Liezl  Licop;31/01/2020;22:59:41;C/OUT;
2012012;Barbette Talag;31/01/2020;22:59:51;C/OUT;
2016077;Precious Angelica Liban;31/01/2020;22:59:56;C/OUT;
2017060;2017060;31/01/2020;23:00:09;C/OUT;
2019038;2019038;31/01/2020;23:01:18;C/OUT;
2016015;Sean Carlo Cahuela;31/01/2020;23:01:23;C/OUT;
2018047;2018047;31/01/2020;23:01:52;C/OUT;
2018047;2018047;31/01/2020;23:01:53;C/IN;
2018047;2018047;31/01/2020;23:01:55;C/OUT;
2018047;2018047;31/01/2020;23:01:57;C/IN;
2019055;2019055;31/01/2020;23:07:27;C/OUT;
2018094;2018094;31/01/2020;23:11:13;C/OUT;
2006002;Rosalie  Magat;31/01/2020;23:13:00;C/OUT;
2019016;2019016;31/01/2020;23:16:04;C/OUT;
2019021;2019021;31/01/2020;23:16:12;C/OUT;
2019054;2019054;31/01/2020;23:16:17;C/OUT;
2016020;Michael Jordan Parungao;31/01/2020;23:17:01;C/OUT;
2019089;2019089;31/01/2020;23:17:25;C/OUT;
2016081;John Caleb Espanola;31/01/2020;23:17:28;C/OUT;
2018040;2018040;31/01/2020;23:17:33;C/OUT;
2018041;2018041;31/01/2020;23:17:43;C/OUT;
2018012;2018012;31/01/2020;23:20:24;C/OUT;
2019063;2019063;31/01/2020;23:23:33;C/OUT;
2018022;2018022;31/01/2020;00:00:56;C/OUT;
2019069;2019069;31/01/2020;00:01:10;C/OUT;
2019001;2019001;31/01/2020;00:01:55;C/IN;
2018061;2018061;31/01/2020;00:01:59;C/IN;
2019028;2019028;31/01/2020;00:02:03;C/IN;
2012001;Lorena De Torres;31/01/2020;00:02:11;C/IN;
2006005;Jonalyn Luna;31/01/2020;00:02:18;C/IN;
2016074;Ferlyn  Arroyo;31/01/2020;00:02:23;C/IN;
2018029;2018029;31/01/2020;00:02:34;C/IN;
2016009;Rizzalie  Salabsab;31/01/2020;00:05:37;C/IN;
2006003;Faith Joy L. Baaco;31/01/2020;00:15:40;C/OUT;
2015073;Antonito Tolin;31/01/2020;00:18:41;C/OUT;
2014012;Joana Marie Ondoy;31/01/2020;02:45:05;C/OUT;
2016004;Jaylyn David;31/01/2020;02:45:09;C/OUT;
2018034;2018034;31/01/2020;02:52:37;C/OUT;
2019084;2019084;31/01/2020;03:32:54;C/IN;
2012004;Aisa Anthonette Gudao;31/01/2020;03:33:22;C/IN;
2019012;2019012;31/01/2020;04:32:19;C/IN;
2015016;Ma. Therese Villanueva;31/01/2020;05:06:14;C/IN;
2018067;2018067;31/01/2020;05:11:08;C/IN;
2016089;Julius C;31/01/2020;05:11:27;C/IN;
2016089;Julius C;31/01/2020;05:11:31;C/IN;
2017005;Nathalie Ocbina;31/01/2020;05:14:11;C/IN;
2012018;Vincent  Caneza;31/01/2020;05:19:50;C/IN;
2017016;Karren  Gonzales;31/01/2020;05:22:33;C/IN;
2018011;2018011;31/01/2020;05:31:16;C/IN;
2016019;Renz Marrion  Federang;31/01/2020;05:31:31;C/IN;
2018038;2018038;31/01/2020;05:32:14;C/IN;
2017036;Joemar C;31/01/2020;05:33:49;C/IN;
2016087;Shaira Castillo;31/01/2020;05:37:36;C/IN;
2016087;Shaira Castillo;31/01/2020;05:37:39;C/IN;
2014032;Gretchen Donato;31/01/2020;05:46:05;C/IN;
2019068;2019068;31/01/2020;05:49:47;C/IN;
2015095;2015095;31/01/2020;05:51:14;C/IN;
2019049;2019049;31/01/2020;05:51:42;C/IN;
2019049;2019049;31/01/2020;05:51:47;C/IN;
2016088;Ferdinand Francia;31/01/2020;05:53:04;C/IN;
2019067;2019067;31/01/2020;05:53:19;C/IN;
2018100;2018100;31/01/2020;05:59:40;C/IN;
2017040;Geraldin;31/01/2020;06:00:08;C/OUT;
2018003;2018003;31/01/2020;06:00:14;C/OUT;
2015006;Jamielou Montealegre;31/01/2020;06:00:18;C/OUT;
2016035;Judy Lasay;31/01/2020;06:00:42;C/OUT;
2016059;Paul Anthony Nuguit;31/01/2020;06:01:04;C/OUT;
2019026;2019026;31/01/2020;06:02:00;C/OUT;
2019064;2019064;31/01/2020;06:04:48;C/OUT;
2018077;2018077;31/01/2020;06:07:32;C/IN;
2016082;Reginald Bacani;31/01/2020;06:08:03;C/IN;
2018050;2018050;31/01/2020;06:11:59;C/OUT;
2017037;Kristian;31/01/2020;06:17:56;C/IN;
2017037;Kristian;31/01/2020;06:17:59;C/IN;
2019047;2019047;31/01/2020;06:18:08;C/IN;
2010005;Joanna Marie  Agregado;31/01/2020;06:21:17;C/IN;
2016018;Rejelle  Corpuz;31/01/2020;06:23:50;C/IN;
2018053;2018053;31/01/2020;06:27:46;C/IN;
2006015;Reynaldo Enriquez;31/01/2020;06:27:55;C/IN;
2019051;2019051;31/01/2020;06:33:16;C/IN;
2008003;Rowena Sayo;31/01/2020;06:34:44;C/IN;
2008001;Visna Cabrera;31/01/2020;06:35:46;C/IN;
2019074;2019074;31/01/2020;06:36:19;C/IN;
2016041;Jobelie Borja;31/01/2020;06:36:57;C/IN;
2019041;2019041;31/01/2020;06:37:03;C/IN;
2014006;Jean Pascual;31/01/2020;06:37:48;C/IN;
2006017;Jennifer Gapasen;31/01/2020;06:38:27;C/IN;
2006004;Evelyn L. Latuga;31/01/2020;06:38:46;C/IN;
2017033;Mico Gumilao;31/01/2020;06:39:15;C/IN;
2017033;Mico Gumilao;31/01/2020;06:39:19;C/IN;
2015041;Karen Grace  Santos;31/01/2020;06:39:47;C/IN;
2016045;Aisha May Horca;31/01/2020;06:40:06;C/IN;
2015094;2015094;31/01/2020;06:41:10;C/IN;
2018062;2018062;31/01/2020;06:41:16;C/IN;
20010008;Arlene  Vergara;31/01/2020;06:41:23;C/IN;
2011003;Michelle Mangabat;31/01/2020;06:41:32;C/IN;
2012002;Lotlot Flores;31/01/2020;06:41:35;C/IN;
2018082;2018082;31/01/2020;06:41:40;C/IN;
2018088;2018088;31/01/2020;06:41:44;C/IN;
2019077;2019077;31/01/2020;06:41:59;C/IN;
2018096;2018096;31/01/2020;06:42:21;C/IN;
2018025;2018025;31/01/2020;06:42:26;C/IN;
2006008;Malu Sigua;31/01/2020;06:42:35;C/IN;
2018091;2018091;31/01/2020;06:42:39;C/IN;
2016047;Melly Zablan;31/01/2020;06:42:43;C/IN;
2018095;2018095;31/01/2020;06:42:48;C/IN;
2014016;Narlin Zhang;31/01/2020;06:42:51;C/IN;
2019009;2019009;31/01/2020;06:42:55;C/IN;
2018089;2018089;31/01/2020;06:42:58;C/IN;
2014004;Lee-Ann Lagahit;31/01/2020;06:43:16;C/IN;
2017059;2017059;31/01/2020;06:43:30;C/IN;
2015027;Rosemin Flores;31/01/2020;06:43:34;C/IN;
2015004;Dhoriz Escueta;31/01/2020;06:43:39;C/IN;
2015018;Jhanet Rose Viray;31/01/2020;06:43:43;C/IN;
2016037;Madel Adigue;31/01/2020;06:43:50;C/IN;
2016043;Abegail D. Dalit;31/01/2020;06:43:54;C/IN;
2013009;Maria Gurrobat;31/01/2020;06:43:58;C/IN;
2007005;Maricris Severo;31/01/2020;06:44:08;C/IN;
2016014;Jhovielyn Diane Villarba;31/01/2020;06:44:17;C/IN;
2015033;Caryl Anne Nocum;31/01/2020;06:44:22;C/IN;
2017061;2017061;31/01/2020;06:44:37;C/IN;
2006020;Edi Oei;31/01/2020;06:44:41;C/IN;
2018086;2018086;31/01/2020;06:44:45;C/IN;
2010006;Catherine Cunanan;31/01/2020;06:45:01;C/IN;
2018060;2018060;31/01/2020;06:45:09;C/OUT;
2019050;2019050;31/01/2020;06:45:24;C/IN;
2012001;Lorena De Torres;31/01/2020;06:45:26;C/OUT;
2012008;Janine Magracia;31/01/2020;06:45:29;C/OUT;
2010012;Darlitio;31/01/2020;06:45:33;C/OUT;
2016049;Lourie Jane Orellano;31/01/2020;06:45:42;C/OUT;
2017046;John Paulo Reyes;31/01/2020;06:45:43;C/IN;
2007007;Song Boen Lie;31/01/2020;06:45:45;C/OUT;
2016075;Rosario  Filio;31/01/2020;06:45:45;C/OUT;
2007007;Song Boen Lie;31/01/2020;06:45:46;C/IN;
2018045;2018045;31/01/2020;06:46:01;C/IN;
2017070;2017070;31/01/2020;06:46:15;C/OUT;
2019076;2019076;31/01/2020;06:48:53;C/OUT;
2019078;2019078;31/01/2020;06:48:56;C/OUT;
2016009;Rizzalie  Salabsab;31/01/2020;06:49:04;C/OUT;
2006001;Imelda Dela Torre;31/01/2020;06:49:26;C/IN;
2019031;2019031;31/01/2020;06:49:55;C/OUT;
2019028;2019028;31/01/2020;06:50:47;C/OUT;
2018063;2018063;31/01/2020;06:52:26;C/OUT;
2017054;2017054;31/01/2020;06:53:58;C/OUT;
2016062;Maricris Santos;31/01/2020;06:54:05;C/OUT;
2018010;2018010;31/01/2020;06:54:13;C/OUT;
2019012;2019012;31/01/2020;06:54:47;C/OUT;
2018029;2018029;31/01/2020;06:55:10;C/OUT;
2019088;2019088;31/01/2020;06:55:17;C/IN;
2006005;Jonalyn Luna;31/01/2020;06:56:12;C/OUT;
2015013;Babylyn Jolo;31/01/2020;06:56:17;C/OUT;
2019001;2019001;31/01/2020;06:56:22;C/OUT;
2016098;Adi Gunawan;31/01/2020;06:56:28;C/IN;
2019084;2019084;31/01/2020;06:57:14;C/OUT;
2011010;Angel  Abelligos;31/01/2020;06:57:31;C/IN;
2016040;Janice Borja;31/01/2020;06:58:32;C/OUT;
2018101;2018101;31/01/2020;06:58:35;C/IN;
2016074;Ferlyn  Arroyo;31/01/2020;06:59:53;C/OUT;
2016074;Ferlyn  Arroyo;31/01/2020;06:59:57;C/OUT;
2016074;Ferlyn  Arroyo;31/01/2020;07:00:03;C/OUT;
2013010;Marlon Harry Cardines;31/01/2020;07:00:32;C/OUT;
2016094;Franz Kevin R. Loayon;31/01/2020;07:00:38;C/OUT;
2016017;Richard Nichole B. Megu;31/01/2020;07:00:43;C/OUT;
2015024;Jiekka Catugas;31/01/2020;07:00:49;C/OUT;
2013014;Arnold de Gracia;31/01/2020;07:01:26;C/OUT;
2018086;2018086;31/01/2020;07:01:29;C/IN;
2013014;Arnold de Gracia;31/01/2020;07:01:30;C/OUT;
2012023;Leonardo  Delos Santos;31/01/2020;07:01:34;C/OUT;
2012023;Leonardo  Delos Santos;31/01/2020;07:01:37;C/OUT;
2009004;Margarita Rivera;31/01/2020;07:01:43;C/OUT;
2009004;Margarita Rivera;31/01/2020;07:01:46;C/OUT;
2006009;Aileen Sacdalan;31/01/2020;07:01:54;C/OUT;
2019009;2019009;31/01/2020;07:02:04;C/IN;
2012004;Aisa Anthonette Gudao;31/01/2020;07:02:05;C/OUT;
2018032;2018032;31/01/2020;07:02:20;C/OUT;
2008004;Joy Salvador;31/01/2020;07:02:30;C/OUT;
2019041;2019041;31/01/2020;07:02:47;C/IN;
2015033;Caryl Anne Nocum;31/01/2020;07:02:59;C/IN;
2008004;Joy Salvador;31/01/2020;07:03:00;C/OUT;
2018089;2018089;31/01/2020;07:03:08;C/IN;
2016041;Jobelie Borja;31/01/2020;07:03:57;C/IN;
2018025;2018025;31/01/2020;07:04:13;C/IN;
2012001;Lorena De Torres;31/01/2020;07:04:44;C/OUT;
2014006;Jean Pascual;31/01/2020;07:05:02;C/IN;
2006017;Jennifer Gapasen;31/01/2020;07:05:45;C/IN;
2010008;2010008;31/01/2020;07:05:53;C/IN;
2018048;2018048;31/01/2020;07:06:13;C/OUT;
2018048;2018048;31/01/2020;07:06:17;C/OUT;
2008003;Rowena Sayo;31/01/2020;07:07:09;C/IN;
2016014;Jhovielyn Diane Villarba;31/01/2020;07:07:14;C/IN;
2016043;Abegail D. Dalit;31/01/2020;07:07:18;C/IN;
2006008;Malu Sigua;31/01/2020;07:07:21;C/IN;
2011003;Michelle Mangabat;31/01/2020;07:07:37;C/IN;
2015019;Kimberlyn Bondoc;31/01/2020;07:12:53;C/OUT;
2019087;2019087;31/01/2020;07:15:56;C/OUT;
2019074;2019074;31/01/2020;07:17:18;C/IN;
2016045;Aisha May Horca;31/01/2020;07:17:22;C/IN;
2018096;2018096;31/01/2020;07:17:26;C/IN;
2014016;Narlin Zhang;31/01/2020;07:17:43;C/IN;
2012002;Lotlot Flores;31/01/2020;07:17:47;C/IN;
2012002;Lotlot Flores;31/01/2020;07:17:51;C/IN;
2011008;Richard Elvambuena;31/01/2020;07:18:07;C/OUT;
2010005;Joanna Marie  Agregado;31/01/2020;07:18:18;C/IN;
2018082;2018082;31/01/2020;07:18:46;C/IN;
2019022;2019022;31/01/2020;07:19:07;C/OUT;
2019053;2019053;31/01/2020;07:19:38;C/OUT;
2019052;2019052;31/01/2020;07:20:06;C/OUT;
2006004;Evelyn L. Latuga;31/01/2020;07:20:41;C/IN;
2018099;2018099;31/01/2020;07:24:34;C/OUT;
2018061;2018061;31/01/2020;07:25:34;C/OUT;
2014004;Lee-Ann Lagahit;31/01/2020;07:32:04;C/IN;
2018095;2018095;31/01/2020;07:32:28;C/IN;
2016047;Melly Zablan;31/01/2020;07:32:35;C/IN;
2017035;Ivy Besnar;31/01/2020;07:43:05;C/IN;
2017035;Ivy Besnar;31/01/2020;07:43:08;C/IN;
2014006;Jean Pascual;31/01/2020;07:47:43;C/IN;
2013009;Maria Gurrobat;31/01/2020;07:50:55;C/IN;
2017057;Abigail Cruz;31/01/2020;07:51:07;C/IN;
2007005;Maricris Severo;31/01/2020;07:51:09;C/IN;
2018013;2018013;31/01/2020;07:55:14;C/IN;
2013015;Aries Jonathan;31/01/2020;07:56:00;C/IN;
2009008;Eko Nugroho Tandijono;31/01/2020;08:08:12;C/IN;
2008008;Hendra R;31/01/2020;08:14:00;C/IN;
2018009;2018009;31/01/2020;08:31:47;C/IN;
2009007;Sukardi Omar;31/01/2020;08:33:04;C/IN;
2013016;Hendrik Ong;31/01/2020;08:33:31;C/IN;
2015072;Mayrose P. Brodeth;31/01/2020;08:36:12;C/IN;
2011014;Hendra Xu;31/01/2020;08:41:15;C/IN;
2014039;Jimmy, Hendra;31/01/2020;08:43:59;C/IN;
2019017;2019017;31/01/2020;08:45:18;C/IN;
2011006;Mark Arvin Bello;31/01/2020;08:47:38;C/IN;
2011015;Hermanto Phang;31/01/2020;08:48:11;C/IN;
2011011;Franky Gunawan;31/01/2020;08:49:32;C/IN;
2011016;Fendi Tan;31/01/2020;08:50:04;C/IN;
2007006;Suhariadi Hadian;31/01/2020;08:54:57;C/IN;
2011013;Harley Wongso;31/01/2020;08:58:14;C/IN;
2016076;Mary-Ann Barbadia;31/01/2020;08:58:30;C/IN;
2017030;Karen Danica Maranan;31/01/2020;08:58:53;C/IN;
2008007;Tobias Lawiarso;31/01/2020;09:08:29;C/IN;
2019077;2019077;31/01/2020;09:17:57;C/IN;
2018091;2018091;31/01/2020;09:30:41;C/IN;
2015004;Dhoriz Escueta;31/01/2020;09:47:40;C/IN;
2015018;Jhanet Rose Viray;31/01/2020;09:47:45;C/IN;
2015071;Cindy Cayubit;31/01/2020;09:50:37;C/IN;
2013008;Wilmark John G. Domingo;31/01/2020;09:53:02;C/IN;
2018046;2018046;31/01/2020;09:53:25;C/IN;
2018046;2018046;31/01/2020;09:53:34;C/IN;
2019066;2019066;31/01/2020;09:53:41;C/IN;
2016003;Anne Bernadette Bustos;31/01/2020;10:15:31;C/IN;
2018001;Orlan Relente;31/01/2020;11:38:17;C/IN;
2016037;Madel Adigue;31/01/2020;11:43:03;C/IN;
2019025;2019025;31/01/2020;12:23:33;C/IN;
2019025;2019025;31/01/2020;12:23:37;C/IN;
2016015;Sean Carlo Cahuela;31/01/2020;12:38:24;C/IN;
2018040;2018040;31/01/2020;13:01:28;C/IN;
2019045;2019045;31/01/2020;13:08:53;C/IN;
2016029;Mary Joyce Santos;31/01/2020;13:11:10;C/IN;
2019045;2019045;31/01/2020;13:15:56;C/IN;
2018105;2018105;31/01/2020;13:27:36;C/IN;
2018075;2018075;31/01/2020;13:31:03;C/IN;
2006002;Rosalie  Magat;31/01/2020;13:37:10;C/IN;
2017042;Allbert Jay Valera;31/01/2020;13:43:02;C/IN;
2006011;Maureen Lintag;31/01/2020;13:49:27;C/IN;
2018015;2018015;31/01/2020;13:49:30;C/IN;
2016081;John Caleb Espanola;31/01/2020;13:50:04;C/IN;
2017003;Nelia E. Germedia;31/01/2020;13:50:11;C/IN;
2017004;Elena Gallanes;31/01/2020;13:52:14;C/IN;
2017004;Elena Gallanes;31/01/2020;13:53:04;C/IN;
2018014;2018014;31/01/2020;13:53:55;C/IN;
2006013;Lyn Dayame;31/01/2020;13:55:10;C/IN;
2006013;Lyn Dayame;31/01/2020;13:55:14;C/IN;
2006003;Faith Joy L. Baaco;31/01/2020;13:56:36;C/IN;
2017016;Karren  Gonzales;31/01/2020;14:00:06;C/OUT;
2018067;2018067;31/01/2020;14:00:16;C/OUT;
2017036;Joemar C;31/01/2020;14:00:26;C/OUT;
2015016;Ma. Therese Villanueva;31/01/2020;14:00:50;C/OUT;
2017005;Nathalie Ocbina;31/01/2020;14:00:58;C/OUT;
2019068;2019068;31/01/2020;14:01:38;C/OUT;
2019049;2019049;31/01/2020;14:01:58;C/OUT;
2019049;2019049;31/01/2020;14:02:04;C/OUT;
2018011;2018011;31/01/2020;14:02:36;C/OUT;
2019067;2019067;31/01/2020;14:03:15;C/OUT;
2019055;2019055;31/01/2020;14:07:04;C/IN;
2014032;Gretchen Donato;31/01/2020;14:07:46;C/OUT;
2015073;Antonito Tolin;31/01/2020;14:07:47;C/IN;
2015095;2015095;31/01/2020;14:08:04;C/OUT;
2018047;2018047;31/01/2020;14:11:16;C/IN;
2019089;2019089;31/01/2020;14:16:27;C/IN;
2019021;2019021;31/01/2020;14:19:19;C/IN;
2006006;Rowena Jane  Arcilla;31/01/2020;14:20:28;C/IN;
2017060;2017060;31/01/2020;14:22:56;C/IN;
2008005;Catherine Taruc;31/01/2020;14:23:35;C/IN;
2017460;2017460;31/01/2020;14:29:11;C/IN;
2006022;Martin Martin;31/01/2020;14:29:11;C/OUT;
2019063;2019063;31/01/2020;14:30:15;C/IN;
2018041;2018041;31/01/2020;14:31:26;C/IN;
2015027;Rosemin Flores;31/01/2020;14:32:53;C/IN;
2014015;Garlie Jane Walican;31/01/2020;14:33:43;C/IN;
2015002;Jerrel Joy Azuelo;31/01/2020;14:36:25;C/IN;
2018093;2018093;31/01/2020;14:36:38;C/IN;
2018026;2018026;31/01/2020;14:36:42;C/IN;
2013005;Nikki Jean Vincoy;31/01/2020;14:36:46;C/IN;
2017025;Julie Ann Recaido;31/01/2020;14:36:52;C/IN;
2017065;Diane De Guzman;31/01/2020;14:36:54;C/IN;
2019081;2019081;31/01/2020;14:37:36;C/IN;
2018094;2018094;31/01/2020;14:37:41;C/IN;
2016044;Vina Estrelle Garcia;31/01/2020;14:38:03;C/IN;
2006007;Myleen Bautista;31/01/2020;14:38:07;C/IN;
2016078;Antonette Isorena;31/01/2020;14:38:36;C/IN;
2019037;2019037;31/01/2020;14:39:57;C/IN;
2015028;Diana Galang;31/01/2020;14:40:15;C/IN;
2015028;Diana Galang;31/01/2020;14:40:19;C/IN;
2017055;2017055;31/01/2020;14:40:23;C/IN;
2015012;Mary Rose Gatong;31/01/2020;14:40:27;C/IN;
2017055;2017055;31/01/2020;14:40:32;C/IN;
2019061;2019061;31/01/2020;14:41:02;C/IN;
2019016;2019016;31/01/2020;14:41:20;C/IN;
2012014;Mary Joy Calda;31/01/2020;14:41:30;C/IN;
2018028;2018028;31/01/2020;14:41:35;C/IN;
2016004;Jaylyn David;31/01/2020;14:41:40;C/IN;
2016077;Precious Angelica Liban;31/01/2020;14:41:59;C/IN;
2019038;2019038;31/01/2020;14:42:10;C/IN;
2015015;Aiza Villania;31/01/2020;14:42:15;C/IN;
2009003;Liezl  Licop;31/01/2020;14:42:19;C/IN;
2015003;Virlyn Costales;31/01/2020;14:42:24;C/IN;
2017062;2017062;31/01/2020;14:42:27;C/IN;
2017017;Jonah Jean Algura;31/01/2020;14:42:31;C/IN;
2012012;Barbette Talag;31/01/2020;14:42:38;C/IN;
2010010;Mae  Aguanza;31/01/2020;14:43:05;C/IN;
2019054;2019054;31/01/2020;14:43:34;C/IN;
2009005;Mary Rose Gicaraya;31/01/2020;14:44:20;C/IN;
2018062;2018062;31/01/2020;14:44:51;C/IN;
2016010;Jairah Santos;31/01/2020;14:45:06;C/IN;
2010005;Joanna Marie  Agregado;31/01/2020;14:45:26;C/OUT;
2016047;Melly Zablan;31/01/2020;14:45:32;C/OUT;
2006020;Edi Oei;31/01/2020;14:45:42;C/OUT;
2006020;Edi Oei;31/01/2020;14:45:43;C/IN;
2019069;2019069;31/01/2020;14:46:29;C/IN;
2019041;2019041;31/01/2020;14:47:53;C/OUT;
2018022;2018022;31/01/2020;14:48:01;C/IN;
2016020;Michael Jordan Parungao;31/01/2020;14:48:22;C/IN;
2016043;Abegail D. Dalit;31/01/2020;14:48:36;C/OUT;
2018086;2018086;31/01/2020;14:49:08;C/OUT;
2018025;2018025;31/01/2020;14:49:13;C/OUT;
2006017;Jennifer Gapasen;31/01/2020;14:49:38;C/OUT;
2007005;Maricris Severo;31/01/2020;14:50:04;C/OUT;
2013009;Maria Gurrobat;31/01/2020;14:52:10;C/OUT;
2019077;2019077;31/01/2020;14:53:05;C/OUT;
2015027;Rosemin Flores;31/01/2020;14:53:19;C/OUT;
2006004;Evelyn L. Latuga;31/01/2020;14:53:25;C/OUT;
2014016;Narlin Zhang;31/01/2020;14:54:23;C/OUT;
2018088;2018088;31/01/2020;14:55:14;C/IN;
2016010;Jairah Santos;31/01/2020;14:55:18;C/IN;
2014006;Jean Pascual;31/01/2020;14:55:43;C/OUT;
2019074;2019074;31/01/2020;14:55:51;C/OUT;
2016045;Aisha May Horca;31/01/2020;14:56:06;C/OUT;
2018095;2018095;31/01/2020;14:56:50;C/OUT;
2008003;Rowena Sayo;31/01/2020;14:57:27;C/OUT;
2018089;2018089;31/01/2020;14:57:32;C/OUT;
2018096;2018096;31/01/2020;14:58:13;C/OUT;
2019009;2019009;31/01/2020;14:58:16;C/OUT;
2018012;2018012;31/01/2020;14:58:36;C/IN;
2017061;2017061;31/01/2020;14:58:44;C/OUT;
2011003;Michelle Mangabat;31/01/2020;14:59:47;C/OUT;
2012018;Vincent  Caneza;31/01/2020;15:00:08;C/OUT;
2017037;Kristian;31/01/2020;15:00:16;C/OUT;
2017059;2017059;31/01/2020;15:00:34;C/OUT;
2016037;Madel Adigue;31/01/2020;15:01:38;C/OUT;
2015041;Karen Grace  Santos;31/01/2020;15:02:14;C/OUT;
2015033;Caryl Anne Nocum;31/01/2020;15:02:18;C/OUT;
2018082;2018082;31/01/2020;15:02:22;C/OUT;
2016088;Ferdinand Francia;31/01/2020;15:02:43;C/OUT;
2016089;Julius C;31/01/2020;15:02:49;C/OUT;
2016087;Shaira Castillo;31/01/2020;15:02:52;C/OUT;
2014004;Lee-Ann Lagahit;31/01/2020;15:02:56;C/OUT;
2016087;Shaira Castillo;31/01/2020;15:03:24;C/OUT;
2018100;2018100;31/01/2020;15:03:28;C/OUT;
2006015;Reynaldo Enriquez;31/01/2020;15:03:59;C/OUT;
2016014;Jhovielyn Diane Villarba;31/01/2020;15:04:12;C/OUT;
2016047;Melly Zablan;31/01/2020;15:04:19;C/OUT;
2010008;2010008;31/01/2020;15:04:39;C/OUT;
2018053;2018053;31/01/2020;15:05:23;C/OUT;
2017033;Mico Gumilao;31/01/2020;15:07:54;C/OUT;
2017033;Mico Gumilao;31/01/2020;15:07:57;C/OUT;
2018088;2018088;31/01/2020;15:12:03;C/OUT;
2018088;2018088;31/01/2020;15:12:04;C/IN;
2012002;Lotlot Flores;31/01/2020;15:12:30;C/OUT;
2015004;Dhoriz Escueta;31/01/2020;15:12:42;C/OUT;
2006008;Malu Sigua;31/01/2020;15:12:50;C/OUT;
2016019;Renz Marrion  Federang;31/01/2020;15:18:33;C/OUT;
2019085;2019085;31/01/2020;15:18:46;C/OUT;
2018077;2018077;31/01/2020;15:19:20;C/OUT;
2019050;2019050;31/01/2020;15:19:23;C/OUT;
2016018;Rejelle  Corpuz;31/01/2020;15:19:30;C/OUT;
2010006;Catherine Cunanan;31/01/2020;15:20:12;C/OUT;
2018038;2018038;31/01/2020;15:20:17;C/OUT;
2016098;Adi Gunawan;31/01/2020;15:20:34;C/OUT;
2016016;Jessie John Janairo;31/01/2020;15:20:55;C/OUT;
2015018;Jhanet Rose Viray;31/01/2020;15:21:47;C/OUT;
2019088;2019088;31/01/2020;15:22:21;C/OUT;
2015094;2015094;31/01/2020;15:22:25;C/OUT;
2019051;2019051;31/01/2020;15:23:43;C/OUT;
2019047;2019047;31/01/2020;15:24:02;C/OUT;
2019047;2019047;31/01/2020;15:24:05;C/OUT;
2016082;Reginald Bacani;31/01/2020;15:24:26;C/OUT;
2009005;Mary Rose Gicaraya;31/01/2020;15:31:54;C/IN;
2009005;Mary Rose Gicaraya;31/01/2020;15:31:59;C/IN;
2009005;Mary Rose Gicaraya;31/01/2020;15:32:07;C/IN;
2018028;2018028;31/01/2020;15:32:15;C/IN;
2010010;Mae  Aguanza;31/01/2020;15:36:40;C/IN;
2017055;2017055;31/01/2020;15:47:07;C/IN;
2012014;Mary Joy Calda;31/01/2020;15:47:39;C/IN;
2009003;Liezl  Licop;31/01/2020;16:01:01;C/IN;
2006006;Rowena Jane  Arcilla;31/01/2020;16:01:13;C/IN;
2019037;2019037;31/01/2020;16:01:44;C/IN;
2015028;Diana Galang;31/01/2020;16:01:59;C/IN;
2016078;Antonette Isorena;31/01/2020;16:02:58;C/IN;
2018094;2018094;31/01/2020;16:03:06;C/IN;
2018045;2018045;31/01/2020;16:06:42;C/OUT;
2008001;Visna Cabrera;31/01/2020;16:07:51;C/OUT;
2018101;2018101;31/01/2020;16:10:02;C/OUT;
2013015;Aries Jonathan;31/01/2020;16:11:29;C/OUT;
2017062;2017062;31/01/2020;16:17:46;C/IN;
2015002;Jerrel Joy Azuelo;31/01/2020;16:17:50;C/IN;
2009008;Eko Nugroho Tandijono;31/01/2020;16:20:16;C/OUT;
2008008;Hendra R;31/01/2020;16:23:58;C/OUT;
2006001;Imelda Dela Torre;31/01/2020;16:32:10;C/OUT;
2018026;2018026;31/01/2020;16:33:00;C/IN;
2011016;Fendi Tan;31/01/2020;17:00:13;C/OUT;
2019017;2019017;31/01/2020;17:00:18;C/OUT;
2009007;Sukardi Omar;31/01/2020;17:00:26;C/OUT;
2019038;2019038;31/01/2020;17:02:18;C/IN;
2011015;Hermanto Phang;31/01/2020;17:02:47;C/OUT;
2014039;Jimmy, Hendra;31/01/2020;17:02:51;C/OUT;
2011011;Franky Gunawan;31/01/2020;17:03:05;C/OUT;
2017057;Abigail Cruz;31/01/2020;17:03:16;C/OUT;
2017035;Ivy Besnar;31/01/2020;17:03:23;C/OUT;
2017035;Ivy Besnar;31/01/2020;17:03:27;C/OUT;
2011010;Angel  Abelligos;31/01/2020;17:03:53;C/OUT;
2011010;Angel  Abelligos;31/01/2020;17:03:55;C/OUT;
2007006;Suhariadi Hadian;31/01/2020;17:04:00;C/OUT;
2011014;Hendra Xu;31/01/2020;17:04:26;C/OUT;
2018009;2018009;31/01/2020;17:07:07;C/OUT;
2013016;Hendrik Ong;31/01/2020;17:08:29;C/OUT;
2011013;Harley Wongso;31/01/2020;17:12:57;C/OUT;
2008007;Tobias Lawiarso;31/01/2020;17:25:28;C/OUT;
2016076;Mary-Ann Barbadia;31/01/2020;18:02:34;C/OUT;
2015072;Mayrose P. Brodeth;31/01/2020;18:03:13;C/OUT;
2017030;Karen Danica Maranan;31/01/2020;18:03:57;C/OUT;
2011006;Mark Arvin Bello;31/01/2020;18:08:21;C/OUT;
2019012;2019012;31/01/2020;18:41:49;C/IN;
2019028;2019028;31/01/2020;18:41:53;C/IN;
2019078;2019078;31/01/2020;18:41:56;C/IN;
2018062;2018062;31/01/2020;18:46:01;C/OUT;
2018062;2018062;31/01/2020;18:46:02;C/IN;
2018091;2018091;31/01/2020;18:58:07;C/OUT;
2016041;Jobelie Borja;31/01/2020;18:58:10;C/OUT;
2019066;2019066;31/01/2020;19:02:30;C/OUT;
2018046;2018046;31/01/2020;19:03:06;C/OUT;
2015071;Cindy Cayubit;31/01/2020;19:03:26;C/OUT;
2013008;Wilmark John G. Domingo;31/01/2020;19:06:09;C/OUT;
2016003;Anne Bernadette Bustos;31/01/2020;19:07:09;C/OUT;
2018013;2018013;31/01/2020;19:18:43;C/OUT;
2015074;Neil Saquin;31/01/2020;20:24:14;C/IN;
2013014;Arnold de Gracia;31/01/2020;20:30:51;C/IN;
2013014;Arnold de Gracia;31/01/2020;20:30:54;C/IN;
2012023;Leonardo  Delos Santos;31/01/2020;20:42:42;C/IN;
2012023;Leonardo  Delos Santos;31/01/2020;20:42:47;C/IN;
2018003;2018003;31/01/2020;20:56:55;C/IN;
2015006;Jamielou Montealegre;31/01/2020;21:04:20;C/IN;
2015006;Jamielou Montealegre;31/01/2020;21:04:23;C/IN;
2018048;2018048;31/01/2020;21:10:50;C/IN;
2018050;2018050;31/01/2020;21:18:59;C/IN;
2017040;Geraldin;31/01/2020;21:23:40;C/IN;
2017040;Geraldin;31/01/2020;21:23:45;C/IN;
2016059;Paul Anthony Nuguit;31/01/2020;21:28:11;C/IN;
2019022;2019022;31/01/2020;21:34:52;C/IN;
2018051;2018051;31/01/2020;21:50:50;C/IN;
2016036;Marivic  Lasay;31/01/2020;21:50:56;C/IN;
2018071;2018071;31/01/2020;21:51:23;C/IN;
2016036;Marivic  Lasay;31/01/2020;21:51:43;C/IN;
2019026;2019026;31/01/2020;21:51:46;C/IN;
2016094;Franz Kevin R. Loayon;31/01/2020;21:58:23;C/IN;
2016029;Mary Joyce Santos;31/01/2020;22:00:18;C/OUT;
2019045;2019045;31/01/2020;22:00:24;C/OUT;
2017003;Nelia E. Germedia;31/01/2020;22:00:27;C/OUT;
2017003;Nelia E. Germedia;31/01/2020;22:00:30;C/OUT;
2018105;2018105;31/01/2020;22:00:51;C/OUT;
2018001;Orlan Relente;31/01/2020;22:01:17;C/OUT;
2018015;2018015;31/01/2020;22:02:24;C/OUT;
2019025;2019025;31/01/2020;22:03:04;C/OUT;
2019025;2019025;31/01/2020;22:03:08;C/OUT;
2006013;Lyn Dayame;31/01/2020;22:03:11;C/OUT;
2017004;Elena Gallanes;31/01/2020;22:05:50;C/OUT;
2017004;Elena Gallanes;31/01/2020;22:05:53;C/OUT;
2018075;2018075;31/01/2020;22:08:52;C/OUT;
2018014;2018014;31/01/2020;22:19:30;C/OUT;
2019052;2019052;31/01/2020;22:19:45;C/IN;
2011008;Richard Elvambuena;31/01/2020;22:21:35;C/IN;
2018010;2018010;31/01/2020;22:28:23;C/IN;
2019087;2019087;31/01/2020;22:30:59;C/IN;
2019022;2019022;31/01/2020;22:31:51;C/IN;
2007007;Song Boen Lie;31/01/2020;22:32:32;C/IN;
2007007;Song Boen Lie;31/01/2020;22:32:33;C/IN;
2006010;Madel Ramos;31/01/2020;22:35:13;C/IN;
2008004;Joy Salvador;31/01/2020;22:35:17;C/IN;
2008004;Joy Salvador;31/01/2020;22:35:23;C/IN;
2017070;2017070;31/01/2020;22:36:07;C/IN;
2018029;2018029;31/01/2020;22:36:58;C/IN;
2016017;Richard Nichole B. Megu;31/01/2020;22:37:32;C/IN;
2019039;2019039;31/01/2020;22:37:46;C/IN;
2016049;Lourie Jane Orellano;31/01/2020;22:37:49;C/IN;
2010012;Darlitio;31/01/2020;22:37:56;C/IN;
2015019;Kimberlyn Bondoc;31/01/2020;22:38:26;C/IN;
2019076;2019076;31/01/2020;22:38:36;C/IN;
2019001;2019001;31/01/2020;22:39:10;C/IN;
2019001;2019001;31/01/2020;22:39:11;C/IN;
2019031;2019031;31/01/2020;22:39:17;C/IN;
2016075;Rosario  Filio;31/01/2020;22:39:26;C/IN;
2015024;Jiekka Catugas;31/01/2020;22:40:23;C/IN;
2012008;Janine Magracia;31/01/2020;22:40:27;C/IN;
2019007;2019007;31/01/2020;22:40:33;C/IN;
2019053;2019053;31/01/2020;22:40:42;C/IN;
2016040;Janice Borja;31/01/2020;22:41:02;C/IN;
2018063;2018063;31/01/2020;22:41:49;C/IN;
2016074;Ferlyn  Arroyo;31/01/2020;22:42:11;C/IN;
2016074;Ferlyn  Arroyo;31/01/2020;22:42:14;C/IN;
2017054;2017054;31/01/2020;22:42:18;C/IN;
2016009;Rizzalie  Salabsab;31/01/2020;22:42:27;C/IN;
2016062;Maricris Santos;31/01/2020;22:42:34;C/IN;
2006005;Jonalyn Luna;31/01/2020;22:42:42;C/IN;
2012001;Lorena De Torres;31/01/2020;22:42:52;C/IN;
2019084;2019084;31/01/2020;22:42:56;C/IN;
2015015;Aiza Villania;31/01/2020;22:43:00;C/IN;
2018032;2018032;31/01/2020;22:43:13;C/IN;
2018060;2018060;31/01/2020;22:43:19;C/IN;
2018061;2018061;31/01/2020;22:43:29;C/IN;
2007004;Marichu Mariano;31/01/2020;22:43:32;C/IN;
2006007;Myleen Bautista;31/01/2020;22:45:17;C/OUT;
2015002;Jerrel Joy Azuelo;31/01/2020;22:45:22;C/OUT;
2010010;Mae  Aguanza;31/01/2020;22:45:27;C/OUT;
2011012;Ropin;31/01/2020;22:45:59;C/IN;
2006022;Martin Martin;31/01/2020;22:46:03;C/IN;
2008005;Catherine Taruc;31/01/2020;22:46:22;C/OUT;
2019062;2019062;31/01/2020;22:47:00;C/IN;
2017062;2017062;31/01/2020;22:47:48;C/OUT;
2017062;2017062;31/01/2020;22:48:01;C/OUT;
2006006;Rowena Jane  Arcilla;31/01/2020;22:49:01;C/OUT;
2019037;2019037;31/01/2020;22:50:24;C/OUT;
2017055;2017055;31/01/2020;22:50:35;C/OUT;
2016004;Jaylyn David;31/01/2020;22:50:39;C/OUT;
2017460;2017460;31/01/2020;22:50:57;C/OUT;
2017042;Allbert Jay Valera;31/01/2020;22:51:11;C/OUT;
2016010;Jairah Santos;31/01/2020;22:51:18;C/OUT;
2017017;Jonah Jean Algura;31/01/2020;22:51:24;C/OUT;
2016044;Vina Estrelle Garcia;31/01/2020;22:51:55;C/OUT;
2015012;Mary Rose Gatong;31/01/2020;22:52:04;C/OUT;
2015002;Jerrel Joy Azuelo;31/01/2020;22:52:10;C/OUT;
2014015;Garlie Jane Walican;31/01/2020;22:52:13;C/OUT;
2018093;2018093;31/01/2020;22:52:47;C/OUT;
2019081;2019081;31/01/2020;22:52:57;C/OUT;
2016078;Antonette Isorena;31/01/2020;22:54:37;C/OUT;
2019061;2019061;31/01/2020;22:56:12;C/OUT;
2013005;Nikki Jean Vincoy;31/01/2020;22:56:59;C/OUT;
2013005;Nikki Jean Vincoy;31/01/2020;22:57:12;C/OUT;
2018028;2018028;31/01/2020;22:58:26;C/OUT;
2012014;Mary Joy Calda;31/01/2020;22:58:31;C/OUT;
2006011;Maureen Lintag;31/01/2020;22:58:58;C/OUT;
2015028;Diana Galang;31/01/2020;22:59:03;C/OUT;
2015028;Diana Galang;31/01/2020;22:59:06;C/OUT;
2017025;Julie Ann Recaido;31/01/2020;22:59:09;C/OUT;
2015003;Virlyn Costales;31/01/2020;22:59:13;C/OUT;
2009005;Mary Rose Gicaraya;31/01/2020;22:59:33;C/OUT;
2009003;Liezl  Licop;31/01/2020;22:59:41;C/OUT;
2012012;Barbette Talag;31/01/2020;22:59:51;C/OUT;
2016077;Precious Angelica Liban;31/01/2020;22:59:56;C/OUT;
2017060;2017060;31/01/2020;23:00:09;C/OUT;
2019038;2019038;31/01/2020;23:01:18;C/OUT;
2016015;Sean Carlo Cahuela;31/01/2020;23:01:23;C/OUT;
2018047;2018047;31/01/2020;23:01:52;C/OUT;
2018047;2018047;31/01/2020;23:01:53;C/IN;
2018047;2018047;31/01/2020;23:01:55;C/OUT;
2018047;2018047;31/01/2020;23:01:57;C/IN;
2019055;2019055;31/01/2020;23:07:27;C/OUT;
2018094;2018094;31/01/2020;23:11:13;C/OUT;
2006002;Rosalie  Magat;31/01/2020;23:13:00;C/OUT;
2019016;2019016;31/01/2020;23:16:04;C/OUT;
2019021;2019021;31/01/2020;23:16:12;C/OUT;
2019054;2019054;31/01/2020;23:16:17;C/OUT;
2016020;Michael Jordan Parungao;31/01/2020;23:17:01;C/OUT;
2019089;2019089;31/01/2020;23:17:25;C/OUT;
2016081;John Caleb Espanola;31/01/2020;23:17:28;C/OUT;
2018040;2018040;31/01/2020;23:17:33;C/OUT;
2018041;2018041;31/01/2020;23:17:43;C/OUT;
2018012;2018012;31/01/2020;23:20:24;C/OUT;
2019063;2019063;31/01/2020;23:23:33;C/OUT;
