2018022;2018022;04/02/2020;00:00:24;C/OUT;
2019069;2019069;04/02/2020;00:00:32;C/OUT;
2015073;Antonito Tolin;04/02/2020;00:22:50;C/OUT;
2016089;Julius C;04/02/2020;05:11:46;C/IN;
2016089;Julius C;04/02/2020;05:11:50;C/IN;
2017036;Joemar C;04/02/2020;05:21:52;C/IN;
2012018;Vincent  Caneza;04/02/2020;05:26:25;C/IN;
2018045;2018045;04/02/2020;05:28:53;C/IN;
2018105;2018105;04/02/2020;05:29:50;C/IN;
2018074;2018074;04/02/2020;05:30:34;C/IN;
2016019;Renz Marrion  Federang;04/02/2020;05:31:17;C/IN;
2018038;2018038;04/02/2020;05:40:15;C/IN;
2019045;2019045;04/02/2020;05:40:20;C/IN;
2017042;Allbert Jay Valera;04/02/2020;05:42:03;C/IN;
2018100;2018100;04/02/2020;05:48:16;C/IN;
2016088;Ferdinand Francia;04/02/2020;05:48:20;C/IN;
2019067;2019067;04/02/2020;05:50:44;C/IN;
2018104;2018104;04/02/2020;05:50:49;C/IN;
2017004;Elena Gallanes;04/02/2020;05:50:55;C/IN;
2017004;Elena Gallanes;04/02/2020;05:51:43;C/IN;
2019023;2019023;04/02/2020;05:52:00;C/IN;
2019049;2019049;04/02/2020;05:53:57;C/IN;
2019049;2019049;04/02/2020;05:54:02;C/IN;
2006013;Lyn Dayame;04/02/2020;05:56:50;C/IN;
2006013;Lyn Dayame;04/02/2020;05:56:52;C/IN;
2019017;2019017;04/02/2020;05:58:03;C/IN;
2017016;Karren  Gonzales;04/02/2020;06:00:05;C/OUT;
2015016;Ma. Therese Villanueva;04/02/2020;06:00:10;C/OUT;
2015006;Jamielou Montealegre;04/02/2020;06:00:14;C/OUT;
2016029;Mary Joyce Santos;04/02/2020;06:00:17;C/OUT;
2018015;2018015;04/02/2020;06:01:45;C/OUT;
2016036;Marivic  Lasay;04/02/2020;06:02:28;C/OUT;
2015095;2015095;04/02/2020;06:03:02;C/OUT;
2018051;2018051;04/02/2020;06:07:44;C/OUT;
2016018;Rejelle  Corpuz;04/02/2020;06:16:41;C/IN;
2011010;Angel  Abelligos;04/02/2020;06:19:51;C/IN;
2011010;Angel  Abelligos;04/02/2020;06:19:54;C/IN;
2017060;2017060;04/02/2020;06:20:51;C/IN;
2016082;Reginald Bacani;04/02/2020;06:25:00;C/IN;
2018041;2018041;04/02/2020;06:29:05;C/IN;
2013014;Arnold de Gracia;04/02/2020;06:34:22;C/IN;
2013014;Arnold de Gracia;04/02/2020;06:34:26;C/IN;
2013014;Arnold de Gracia;04/02/2020;06:34:29;C/IN;
2018065;2018065;04/02/2020;06:37:36;C/IN;
2018077;2018077;04/02/2020;06:37:41;C/IN;
2016081;John Caleb Espanola;04/02/2020;06:37:57;C/IN;
2007004;Marichu Mariano;04/02/2020;06:39:41;C/IN;
2006004;Evelyn L. Latuga;04/02/2020;06:39:59;C/IN;
2019021;2019021;04/02/2020;06:39:59;C/IN;
2006007;Myleen Bautista;04/02/2020;06:40:55;C/IN;
2018062;2018062;04/02/2020;06:41:21;C/IN;
2017065;Diane De Guzman;04/02/2020;06:41:24;C/IN;
2019074;2019074;04/02/2020;06:41:27;C/IN;
2017055;2017055;04/02/2020;06:41:31;C/IN;
2016043;Abegail D. Dalit;04/02/2020;06:41:34;C/IN;
2018034;2018034;04/02/2020;06:41:37;C/IN;
2018065;2018065;04/02/2020;06:41:39;C/IN;
2016041;Jobelie Borja;04/02/2020;06:41:43;C/IN;
2018096;2018096;04/02/2020;06:41:46;C/IN;
2013005;Nikki Jean Vincoy;04/02/2020;06:41:50;C/IN;
2019005;2019005;04/02/2020;06:41:56;C/IN;
2006009;Aileen Sacdalan;04/02/2020;06:41:59;C/IN;
2019038;2019038;04/02/2020;06:42:06;C/IN;
2016001;Ronilyn  Bechayda;04/02/2020;06:42:10;C/IN;
2010011;Emily D. Daguman;04/02/2020;06:42:14;C/IN;
2014004;Lee-Ann Lagahit;04/02/2020;06:42:16;C/IN;
2015012;Mary Rose Gatong;04/02/2020;06:42:20;C/IN;
2015009;Richelle Balbeja;04/02/2020;06:42:24;C/IN;
2015028;Diana Galang;04/02/2020;06:42:27;C/IN;
2012012;Barbette Talag;04/02/2020;06:42:31;C/IN;
2010006;Catherine Cunanan;04/02/2020;06:42:35;C/IN;
2006015;Reynaldo Enriquez;04/02/2020;06:42:37;C/IN;
2014016;Narlin Zhang;04/02/2020;06:42:38;C/IN;
2018091;2018091;04/02/2020;06:42:41;C/IN;
2018090;2018090;04/02/2020;06:42:45;C/IN;
2017062;2017062;04/02/2020;06:42:49;C/IN;
2017024;Flora Mae Palec;04/02/2020;06:42:55;C/IN;
2015027;Rosemin Flores;04/02/2020;06:42:59;C/IN;
2017025;Julie Ann Recaido;04/02/2020;06:43:03;C/IN;
2015018;Jhanet Rose Viray;04/02/2020;06:43:10;C/IN;
2012006;Allyanna David;04/02/2020;06:43:14;C/IN;
2012006;Allyanna David;04/02/2020;06:43:17;C/IN;
2007005;Maricris Severo;04/02/2020;06:43:21;C/IN;
2016047;Melly Zablan;04/02/2020;06:43:24;C/IN;
2017068;2017068;04/02/2020;06:43:45;C/IN;
2016010;Jairah Santos;04/02/2020;06:43:50;C/IN;
2009005;Mary Rose Gicaraya;04/02/2020;06:44:01;C/IN;
2017061;2017061;04/02/2020;06:44:44;C/IN;
2017059;2017059;04/02/2020;06:44:48;C/IN;
2019001;2019001;04/02/2020;06:45:06;C/OUT;
2012008;Janine Magracia;04/02/2020;06:45:22;C/OUT;
2012008;Janine Magracia;04/02/2020;06:45:23;C/IN;
2017046;John Paulo Reyes;04/02/2020;06:45:39;C/IN;
2010005;Joanna Marie  Agregado;04/02/2020;06:46:13;C/OUT;
2008005;Catherine Taruc;04/02/2020;06:46:17;C/OUT;
2017070;2017070;04/02/2020;06:47:57;C/OUT;
2006003;Faith Joy L. Baaco;04/02/2020;06:48:12;C/IN;
2006020;Edi Oei;04/02/2020;06:48:22;C/IN;
2010012;Darlitio;04/02/2020;06:49:18;C/OUT;
2010012;Darlitio;04/02/2020;06:49:19;C/IN;
2007007;Song Boen Lie;04/02/2020;06:49:32;C/OUT;
2007007;Song Boen Lie;04/02/2020;06:49:33;C/IN;
2018060;2018060;04/02/2020;06:49:39;C/OUT;
2014006;Jean Pascual;04/02/2020;06:49:48;C/OUT;
2018095;2018095;04/02/2020;06:49:57;C/OUT;
2018017;2018017;04/02/2020;06:50:25;C/OUT;
2015094;2015094;04/02/2020;06:50:37;C/IN;
2016020;Michael Jordan Parungao;04/02/2020;06:50:45;C/IN;
2018088;2018088;04/02/2020;06:50:57;C/OUT;
2018088;2018088;04/02/2020;06:50:58;C/IN;
2018089;2018089;04/02/2020;06:51:23;C/OUT;
2006005;Jonalyn Luna;04/02/2020;06:51:31;C/OUT;
2019031;2019031;04/02/2020;06:52:05;C/OUT;
2019007;2019007;04/02/2020;06:52:15;C/OUT;
2018010;2018010;04/02/2020;06:52:49;C/OUT;
2019084;2019084;04/02/2020;06:53:37;C/OUT;
2019028;2019028;04/02/2020;06:54:10;C/OUT;
2006002;Rosalie  Magat;04/02/2020;06:54:12;C/IN;
2018029;2018029;04/02/2020;06:54:22;C/OUT;
2018025;2018025;04/02/2020;06:54:26;C/OUT;
2019076;2019076;04/02/2020;06:54:37;C/OUT;
2019041;2019041;04/02/2020;06:56:23;C/OUT;
2019044;2019044;04/02/2020;06:56:30;C/OUT;
2018040;2018040;04/02/2020;06:56:40;C/IN;
2018063;2018063;04/02/2020;06:56:51;C/OUT;
2018030;2018030;04/02/2020;06:56:55;C/OUT;
2018030;2018030;04/02/2020;06:57:06;C/OUT;
2006010;Madel Ramos;04/02/2020;06:57:26;C/OUT;
2016014;Jhovielyn Diane Villarba;04/02/2020;06:57:33;C/OUT;
2016098;Adi Gunawan;04/02/2020;06:57:55;C/IN;
2010008;2010008;04/02/2020;06:58:01;C/OUT;
2018101;2018101;04/02/2020;06:58:25;C/IN;
2008004;Joy Salvador;04/02/2020;06:58:37;C/OUT;
2019059;2019059;04/02/2020;06:58:43;C/OUT;
2016016;Jessie John Janairo;04/02/2020;06:59:00;C/IN;
2015019;Kimberlyn Bondoc;04/02/2020;07:00:30;C/OUT;
2018097;2018097;04/02/2020;07:00:41;C/OUT;
2018097;2018097;04/02/2020;07:00:45;C/OUT;
2016094;Franz Kevin R. Loayon;04/02/2020;07:00:50;C/OUT;
2017033;Mico Gumilao;04/02/2020;07:00:56;C/OUT;
2017033;Mico Gumilao;04/02/2020;07:01:00;C/OUT;
2018001;Orlan Relente;04/02/2020;07:01:25;C/OUT;
2018021;2018021;04/02/2020;07:01:57;C/OUT;
2012002;Lotlot Flores;04/02/2020;07:04:58;C/OUT;
2018053;2018053;04/02/2020;07:05:07;C/OUT;
2018048;2018048;04/02/2020;07:05:49;C/OUT;
2018061;2018061;04/02/2020;07:08:36;C/OUT;
2017053;2017053;04/02/2020;07:09:27;C/OUT;
2017023;Sharlotte Movilla;04/02/2020;07:09:45;C/OUT;
2019063;2019063;04/02/2020;07:10:17;C/IN;
2015004;Dhoriz Escueta;04/02/2020;07:12:35;C/OUT;
2019050;2019050;04/02/2020;07:19:50;C/OUT;
2011008;Richard Elvambuena;04/02/2020;07:19:57;C/OUT;
2019088;2019088;04/02/2020;07:23:06;C/OUT;
2019051;2019051;04/02/2020;07:23:26;C/OUT;
2018099;2018099;04/02/2020;07:35:07;C/OUT;
2017035;Ivy Besnar;04/02/2020;07:44:05;C/IN;
2017035;Ivy Besnar;04/02/2020;07:44:09;C/IN;
2017057;Abigail Cruz;04/02/2020;07:50:19;C/IN;
2008008;Hendra R;04/02/2020;08:08:25;C/IN;
2009008;Eko Nugroho Tandijono;04/02/2020;08:14:57;C/IN;
2018009;2018009;04/02/2020;08:28:52;C/IN;
2015041;Karen Grace  Santos;04/02/2020;08:33:10;C/IN;
2011011;Franky Gunawan;04/02/2020;08:37:48;C/IN;
2009007;Sukardi Omar;04/02/2020;08:40:40;C/IN;
2014039;Jimmy, Hendra;04/02/2020;08:40:44;C/IN;
2016015;Sean Carlo Cahuela;04/02/2020;08:41:47;C/IN;
2015072;Mayrose P. Brodeth;04/02/2020;08:48:56;C/IN;
2013016;Hendrik Ong;04/02/2020;08:49:51;C/IN;
2011013;Harley Wongso;04/02/2020;08:50:24;C/IN;
2019026;2019026;04/02/2020;08:50:44;C/IN;
2007006;Suhariadi Hadian;04/02/2020;08:51:43;C/IN;
2011016;Fendi Tan;04/02/2020;08:53:37;C/IN;
2011006;Mark Arvin Bello;04/02/2020;08:58:45;C/IN;
2011015;Hermanto Phang;04/02/2020;08:59:55;C/IN;
2012024;Newton;04/02/2020;09:00:53;C/IN;
2015074;Neil Saquin;04/02/2020;09:02:34;C/IN;
2017030;Karen Danica Maranan;04/02/2020;09:06:57;C/IN;
2018071;2018071;04/02/2020;09:20:21;C/IN;
2008007;Tobias Lawiarso;04/02/2020;09:31:25;C/IN;
2013008;Wilmark John G. Domingo;04/02/2020;09:40:57;C/OUT;
2019066;2019066;04/02/2020;09:51:46;C/IN;
2018046;2018046;04/02/2020;09:53:45;C/IN;
2016003;Anne Bernadette Bustos;04/02/2020;09:54:14;C/IN;
2015071;Cindy Cayubit;04/02/2020;10:05:05;C/IN;
2016076;Mary-Ann Barbadia;04/02/2020;10:54:43;C/IN;
2018013;2018013;04/02/2020;11:24:30;C/IN;
2012023;Leonardo  Delos Santos;04/02/2020;11:33:09;C/IN;
2012023;Leonardo  Delos Santos;04/02/2020;11:33:13;C/IN;
2019025;2019025;04/02/2020;12:24:44;C/IN;
2017005;Nathalie Ocbina;04/02/2020;12:36:02;C/IN;
2016059;Paul Anthony Nuguit;04/02/2020;13:04:29;C/IN;
2017040;Geraldin;04/02/2020;13:12:36;C/IN;
2017040;Geraldin;04/02/2020;13:12:41;C/IN;
2018050;2018050;04/02/2020;13:12:51;C/IN;
2008001;Visna Cabrera;04/02/2020;13:22:18;C/IN;
2018011;2018011;04/02/2020;13:31:00;C/IN;
2018003;2018003;04/02/2020;13:39:51;C/IN;
2019068;2019068;04/02/2020;13:42:12;C/IN;
2016035;Judy Lasay;04/02/2020;13:44:58;C/IN;
2018005;2018005;04/02/2020;13:46:31;C/IN;
2018005;2018005;04/02/2020;13:46:34;C/IN;
2019089;2019089;04/02/2020;13:49:31;C/IN;
2014032;Gretchen Donato;04/02/2020;13:51:44;C/IN;
2018047;2018047;04/02/2020;13:51:50;C/IN;
2019064;2019064;04/02/2020;13:51:56;C/IN;
2018014;2018014;04/02/2020;13:52:14;C/IN;
2019045;2019045;04/02/2020;14:00:42;C/OUT;
2017036;Joemar C;04/02/2020;14:01:13;C/OUT;
2019067;2019067;04/02/2020;14:01:24;C/OUT;
2018074;2018074;04/02/2020;14:02:45;C/OUT;
2018105;2018105;04/02/2020;14:02:56;C/OUT;
2018104;2018104;04/02/2020;14:03:00;C/OUT;
2017004;Elena Gallanes;04/02/2020;14:03:15;C/OUT;
2017004;Elena Gallanes;04/02/2020;14:03:20;C/OUT;
2019049;2019049;04/02/2020;14:04:49;C/OUT;
2019049;2019049;04/02/2020;14:04:52;C/OUT;
2019017;2019017;04/02/2020;14:06:31;C/OUT;
2017006;Percival Lai;04/02/2020;14:06:32;C/IN;
2017006;Percival Lai;04/02/2020;14:06:37;C/IN;
2006013;Lyn Dayame;04/02/2020;14:07:45;C/OUT;
2006013;Lyn Dayame;04/02/2020;14:07:48;C/OUT;
2019087;2019087;04/02/2020;14:12:13;C/IN;
2017042;Allbert Jay Valera;04/02/2020;14:12:18;C/OUT;
2017037;Kristian;04/02/2020;14:18:46;C/IN;
2017037;Kristian;04/02/2020;14:18:49;C/IN;
2019022;2019022;04/02/2020;14:21:43;C/IN;
2019052;2019052;04/02/2020;14:28:46;C/IN;
2011012;Ropin;04/02/2020;14:32:02;C/OUT;
2011012;Ropin;04/02/2020;14:32:03;C/IN;
2006022;Martin Martin;04/02/2020;14:32:08;C/OUT;
2006022;Martin Martin;04/02/2020;14:32:09;C/IN;
2017460;2017460;04/02/2020;14:32:14;C/IN;
2006011;Maureen Lintag;04/02/2020;14:33:26;C/IN;
2019053;2019053;04/02/2020;14:34:46;C/IN;
2016017;Richard Nichole B. Megu;04/02/2020;14:35:01;C/IN;
2007002;Jannet Alvarez;04/02/2020;14:37:42;C/IN;
2011003;Michelle Mangabat;04/02/2020;14:40:03;C/IN;
2009004;Margarita Rivera;04/02/2020;14:40:41;C/IN;
2009004;Margarita Rivera;04/02/2020;14:40:44;C/IN;
2010010;Mae  Aguanza;04/02/2020;14:40:59;C/IN;
2006017;Jennifer Gapasen;04/02/2020;14:41:20;C/IN;
2016074;Ferlyn  Arroyo;04/02/2020;14:41:36;C/IN;
2016074;Ferlyn  Arroyo;04/02/2020;14:41:39;C/IN;
2010007;Elinea Mendoza;04/02/2020;14:42:05;C/IN;
2016040;Janice Borja;04/02/2020;14:42:08;C/IN;
2019078;2019078;04/02/2020;14:42:11;C/IN;
2015024;Jiekka Catugas;04/02/2020;14:42:14;C/IN;
2018085;2018085;04/02/2020;14:42:17;C/IN;
2019081;2019081;04/02/2020;14:42:20;C/IN;
2016049;Lourie Jane Orellano;04/02/2020;14:42:24;C/IN;
2015002;Jerrel Joy Azuelo;04/02/2020;14:42:29;C/IN;
2019037;2019037;04/02/2020;14:42:32;C/IN;
2019039;2019039;04/02/2020;14:42:35;C/IN;
2018094;2018094;04/02/2020;14:42:39;C/IN;
2018026;2018026;04/02/2020;14:42:42;C/IN;
2018028;2018028;04/02/2020;14:42:45;C/IN;
2018022;2018022;04/02/2020;14:42:46;C/IN;
2012014;Mary Joy Calda;04/02/2020;14:42:51;C/IN;
2016044;Vina Estrelle Garcia;04/02/2020;14:42:55;C/IN;
2018032;2018032;04/02/2020;14:42:58;C/IN;
2017052;2017052;04/02/2020;14:43:01;C/IN;
2016078;Antonette Isorena;04/02/2020;14:43:04;C/IN;
2018093;2018093;04/02/2020;14:43:08;C/IN;
2019009;2019009;04/02/2020;14:43:11;C/IN;
2018057;2018057;04/02/2020;14:43:14;C/IN;
2017017;Jonah Jean Algura;04/02/2020;14:43:17;C/IN;
2015003;Virlyn Costales;04/02/2020;14:43:20;C/IN;
2013010;Marlon Harry Cardines;04/02/2020;14:43:23;C/IN;
2011005;Menessa Pascual;04/02/2020;14:43:24;C/IN;
2012001;Lorena De Torres;04/02/2020;14:43:28;C/IN;
2009003;Liezl  Licop;04/02/2020;14:43:32;C/IN;
2015015;Aiza Villania;04/02/2020;14:43:35;C/IN;
2016077;Precious Angelica Liban;04/02/2020;14:43:40;C/IN;
2019062;2019062;04/02/2020;14:43:42;C/IN;
2016062;Maricris Santos;04/02/2020;14:43:43;C/IN;
2018091;2018091;04/02/2020;14:45:17;C/OUT;
2006007;Myleen Bautista;04/02/2020;14:45:22;C/OUT;
2017065;Diane De Guzman;04/02/2020;14:45:44;C/OUT;
2017025;Julie Ann Recaido;04/02/2020;14:46:35;C/OUT;
2010011;Emily D. Daguman;04/02/2020;14:46:51;C/OUT;
2006020;Edi Oei;04/02/2020;14:47:09;C/OUT;
2016043;Abegail D. Dalit;04/02/2020;14:47:31;C/OUT;
2015028;Diana Galang;04/02/2020;14:48:01;C/OUT;
2015028;Diana Galang;04/02/2020;14:48:06;C/OUT;
2012006;Allyanna David;04/02/2020;14:48:22;C/OUT;
2017062;2017062;04/02/2020;14:49:09;C/OUT;
2019069;2019069;04/02/2020;14:49:32;C/IN;
2019005;2019005;04/02/2020;14:49:58;C/OUT;
2019055;2019055;04/02/2020;14:50:50;C/IN;
2016010;Jairah Santos;04/02/2020;14:50:53;C/OUT;
2009005;Mary Rose Gicaraya;04/02/2020;14:51:27;C/OUT;
2018096;2018096;04/02/2020;14:51:33;C/OUT;
2018090;2018090;04/02/2020;14:51:42;C/OUT;
2019038;2019038;04/02/2020;14:51:49;C/OUT;
2007004;Marichu Mariano;04/02/2020;14:52:21;C/OUT;
2007005;Maricris Severo;04/02/2020;14:53:51;C/OUT;
2014016;Narlin Zhang;04/02/2020;14:54:02;C/OUT;
2019074;2019074;04/02/2020;14:54:34;C/OUT;
2019085;2019085;04/02/2020;14:54:49;C/IN;
2018065;2018065;04/02/2020;14:55:31;C/OUT;
2006009;Aileen Sacdalan;04/02/2020;14:56:10;C/OUT;
2018034;2018034;04/02/2020;14:56:15;C/OUT;
2016001;Ronilyn  Bechayda;04/02/2020;14:56:33;C/OUT;
2019054;2019054;04/02/2020;14:56:55;C/IN;
2006004;Evelyn L. Latuga;04/02/2020;14:57:22;C/OUT;
2015027;Rosemin Flores;04/02/2020;14:57:27;C/OUT;
2017068;2017068;04/02/2020;14:58:22;C/OUT;
2015018;Jhanet Rose Viray;04/02/2020;14:58:53;C/OUT;
2017024;Flora Mae Palec;04/02/2020;14:59:20;C/OUT;
2017055;2017055;04/02/2020;14:59:24;C/OUT;
2014004;Lee-Ann Lagahit;04/02/2020;14:59:32;C/OUT;
2016047;Melly Zablan;04/02/2020;15:00:05;C/OUT;
2015012;Mary Rose Gatong;04/02/2020;15:00:11;C/OUT;
2015009;Richelle Balbeja;04/02/2020;15:00:21;C/OUT;
2016089;Julius C;04/02/2020;15:01:16;C/OUT;
2016089;Julius C;04/02/2020;15:01:19;C/OUT;
2017061;2017061;04/02/2020;15:01:24;C/OUT;
2012018;Vincent  Caneza;04/02/2020;15:01:46;C/OUT;
2016088;Ferdinand Francia;04/02/2020;15:02:38;C/OUT;
2018100;2018100;04/02/2020;15:03:08;C/OUT;
2017060;2017060;04/02/2020;15:03:36;C/OUT;
2018062;2018062;04/02/2020;15:04:06;C/OUT;
2018062;2018062;04/02/2020;15:04:07;C/IN;
2019023;2019023;04/02/2020;15:04:14;C/OUT;
2016098;Adi Gunawan;04/02/2020;15:04:21;C/OUT;
2017059;2017059;04/02/2020;15:04:26;C/OUT;
2006015;Reynaldo Enriquez;04/02/2020;15:05:01;C/OUT;
2013005;Nikki Jean Vincoy;04/02/2020;15:06:44;C/OUT;
2013005;Nikki Jean Vincoy;04/02/2020;15:06:51;C/OUT;
2012012;Barbette Talag;04/02/2020;15:08:34;C/OUT;
2018041;2018041;04/02/2020;15:16:04;C/OUT;
2018038;2018038;04/02/2020;15:16:43;C/OUT;
2016016;Jessie John Janairo;04/02/2020;15:18:53;C/OUT;
2019021;2019021;04/02/2020;15:20:56;C/OUT;
2016082;Reginald Bacani;04/02/2020;15:24:32;C/OUT;
2019063;2019063;04/02/2020;15:25:23;C/OUT;
2016018;Rejelle  Corpuz;04/02/2020;15:26:38;C/OUT;
2016020;Michael Jordan Parungao;04/02/2020;15:26:43;C/OUT;
2017046;John Paulo Reyes;04/02/2020;15:26:50;C/OUT;
2018040;2018040;04/02/2020;15:27:05;C/OUT;
2010006;Catherine Cunanan;04/02/2020;15:29:15;C/OUT;
2018077;2018077;04/02/2020;15:29:52;C/OUT;
2015094;2015094;04/02/2020;15:32:17;C/OUT;
2016041;Jobelie Borja;04/02/2020;15:40:46;C/OUT;
2006003;Faith Joy L. Baaco;04/02/2020;16:01:55;C/OUT;
2006002;Rosalie  Magat;04/02/2020;16:02:19;C/OUT;
2018045;2018045;04/02/2020;16:04:15;C/OUT;
2018101;2018101;04/02/2020;16:05:26;C/OUT;
2016081;John Caleb Espanola;04/02/2020;16:13:44;C/OUT;
2009008;Eko Nugroho Tandijono;04/02/2020;16:17:44;C/OUT;
2019026;2019026;04/02/2020;17:00:37;C/OUT;
2009007;Sukardi Omar;04/02/2020;17:01:07;C/OUT;
2014039;Jimmy, Hendra;04/02/2020;17:01:52;C/OUT;
2011016;Fendi Tan;04/02/2020;17:02:51;C/OUT;
2013016;Hendrik Ong;04/02/2020;17:03:20;C/OUT;
2011010;Angel  Abelligos;04/02/2020;17:03:44;C/OUT;
2011010;Angel  Abelligos;04/02/2020;17:03:47;C/OUT;
2013014;Arnold de Gracia;04/02/2020;17:04:01;C/OUT;
2013014;Arnold de Gracia;04/02/2020;17:04:04;C/OUT;
2007006;Suhariadi Hadian;04/02/2020;17:04:16;C/OUT;
2012024;Newton;04/02/2020;17:04:42;C/OUT;
2015041;Karen Grace  Santos;04/02/2020;17:05:46;C/OUT;
2017035;Ivy Besnar;04/02/2020;17:06:42;C/OUT;
2017035;Ivy Besnar;04/02/2020;17:06:45;C/OUT;
2011015;Hermanto Phang;04/02/2020;17:07:07;C/OUT;
2018071;2018071;04/02/2020;17:08:13;C/OUT;
2011013;Harley Wongso;04/02/2020;17:08:21;C/OUT;
2017057;Abigail Cruz;04/02/2020;17:14:21;C/OUT;
2008007;Tobias Lawiarso;04/02/2020;17:21:13;C/OUT;
2011011;Franky Gunawan;04/02/2020;17:21:55;C/OUT;
2018009;2018009;04/02/2020;17:34:18;C/OUT;
2016015;Sean Carlo Cahuela;04/02/2020;18:01:14;C/OUT;
2016015;Sean Carlo Cahuela;04/02/2020;18:01:20;C/OUT;
2015072;Mayrose P. Brodeth;04/02/2020;18:04:36;C/OUT;
2016019;Renz Marrion  Federang;04/02/2020;18:04:40;C/OUT;
2016076;Mary-Ann Barbadia;04/02/2020;18:04:46;C/OUT;
2011006;Mark Arvin Bello;04/02/2020;18:04:59;C/OUT;
2017030;Karen Danica Maranan;04/02/2020;18:06:42;C/OUT;
2008008;Hendra R;04/02/2020;18:20:52;C/OUT;
2013008;Wilmark John G. Domingo;04/02/2020;19:01:38;C/OUT;
2018046;2018046;04/02/2020;19:02:46;C/OUT;
2016003;Anne Bernadette Bustos;04/02/2020;19:05:04;C/OUT;
2019066;2019066;04/02/2020;19:08:05;C/OUT;
2015071;Cindy Cayubit;04/02/2020;19:08:26;C/OUT;
2015074;Neil Saquin;04/02/2020;19:12:14;C/OUT;
2018097;2018097;04/02/2020;20:25:50;C/IN;
2018097;2018097;04/02/2020;20:25:55;C/IN;
2018001;Orlan Relente;04/02/2020;20:48:25;C/IN;
2015006;Jamielou Montealegre;04/02/2020;21:05:19;C/IN;
2015006;Jamielou Montealegre;04/02/2020;21:05:24;C/IN;
2016029;Mary Joyce Santos;04/02/2020;21:08:28;C/IN;
2018013;2018013;04/02/2020;21:13:16;C/OUT;
2017016;Karren  Gonzales;04/02/2020;21:23:09;C/IN;
2018099;2018099;04/02/2020;21:24:32;C/IN;
2019051;2019051;04/02/2020;21:30:33;C/IN;
2018048;2018048;04/02/2020;21:31:00;C/IN;
2018015;2018015;04/02/2020;21:37:05;C/IN;
2015016;Ma. Therese Villanueva;04/02/2020;21:41:30;C/IN;
2019048;2019048;04/02/2020;21:44:57;C/IN;
2016094;Franz Kevin R. Loayon;04/02/2020;21:47:18;C/IN;
2019050;2019050;04/02/2020;21:48:01;C/IN;
2018051;2018051;04/02/2020;21:48:54;C/IN;
2016036;Marivic  Lasay;04/02/2020;21:50:11;C/IN;
2015095;2015095;04/02/2020;21:55:47;C/IN;
2018005;2018005;04/02/2020;22:00:07;C/OUT;
2017040;Geraldin;04/02/2020;22:00:14;C/OUT;
2018011;2018011;04/02/2020;22:00:19;C/OUT;
2016059;Paul Anthony Nuguit;04/02/2020;22:00:23;C/OUT;
2017005;Nathalie Ocbina;04/02/2020;22:00:30;C/OUT;
2016035;Judy Lasay;04/02/2020;22:01:09;C/OUT;
2019025;2019025;04/02/2020;22:01:16;C/OUT;
2019025;2019025;04/02/2020;22:01:19;C/OUT;
2019064;2019064;04/02/2020;22:01:23;C/OUT;
2014032;Gretchen Donato;04/02/2020;22:02:09;C/OUT;
2019068;2019068;04/02/2020;22:02:18;C/OUT;
2018014;2018014;04/02/2020;22:02:22;C/OUT;
2012023;Leonardo  Delos Santos;04/02/2020;22:03:31;C/OUT;
2012023;Leonardo  Delos Santos;04/02/2020;22:03:36;C/OUT;
2011008;Richard Elvambuena;04/02/2020;22:03:59;C/IN;
2007007;Song Boen Lie;04/02/2020;22:09:24;C/IN;
2018050;2018050;04/02/2020;22:12:14;C/OUT;
2018053;2018053;04/02/2020;22:20:04;C/IN;
2018021;2018021;04/02/2020;22:24:58;C/IN;
2018010;2018010;04/02/2020;22:37:37;C/IN;
2008004;Joy Salvador;04/02/2020;22:39:36;C/IN;
2017033;Mico Gumilao;04/02/2020;22:39:58;C/IN;
2017033;Mico Gumilao;04/02/2020;22:40:01;C/IN;
2006008;Malu Sigua;04/02/2020;22:40:16;C/IN;
2006010;Madel Ramos;04/02/2020;22:40:46;C/IN;
2010012;Darlitio;04/02/2020;22:41:20;C/IN;
2010005;Joanna Marie  Agregado;04/02/2020;22:41:38;C/IN;
2016075;Rosario  Filio;04/02/2020;22:41:41;C/IN;
2019047;2019047;04/02/2020;22:41:42;C/IN;
2019077;2019077;04/02/2020;22:41:45;C/IN;
2019057;2019057;04/02/2020;22:41:49;C/IN;
2018025;2018025;04/02/2020;22:41:55;C/IN;
2018030;2018030;04/02/2020;22:42:00;C/IN;
2019007;2019007;04/02/2020;22:42:04;C/IN;
2017053;2017053;04/02/2020;22:42:08;C/IN;
2019001;2019001;04/02/2020;22:42:12;C/IN;
2018017;2018017;04/02/2020;22:42:14;C/IN;
2018088;2018088;04/02/2020;22:42:17;C/IN;
2018059;2018059;04/02/2020;22:42:20;C/IN;
2012008;Janine Magracia;04/02/2020;22:42:23;C/IN;
2018095;2018095;04/02/2020;22:42:27;C/IN;
2018063;2018063;04/02/2020;22:42:36;C/IN;
2019028;2019028;04/02/2020;22:42:40;C/IN;
2018061;2018061;04/02/2020;22:42:43;C/IN;
2012002;Lotlot Flores;04/02/2020;22:42:47;C/IN;
2019076;2019076;04/02/2020;22:42:49;C/IN;
2015004;Dhoriz Escueta;04/02/2020;22:42:54;C/IN;
2019041;2019041;04/02/2020;22:42:58;C/IN;
2010008;2010008;04/02/2020;22:43:02;C/IN;
2018089;2018089;04/02/2020;22:43:05;C/IN;
2019059;2019059;04/02/2020;22:43:08;C/IN;
2018029;2018029;04/02/2020;22:43:18;C/IN;
2016014;Jhovielyn Diane Villarba;04/02/2020;22:43:26;C/IN;
2014006;Jean Pascual;04/02/2020;22:43:32;C/IN;
2019084;2019084;04/02/2020;22:43:36;C/IN;
2006005;Jonalyn Luna;04/02/2020;22:43:39;C/IN;
2018060;2018060;04/02/2020;22:43:53;C/IN;
2010010;Mae  Aguanza;04/02/2020;22:45:15;C/OUT;
2006017;Jennifer Gapasen;04/02/2020;22:45:20;C/OUT;
2006022;Martin Martin;04/02/2020;22:45:35;C/OUT;
2006022;Martin Martin;04/02/2020;22:45:36;C/IN;
2016078;Antonette Isorena;04/02/2020;22:45:51;C/OUT;
2011005;Menessa Pascual;04/02/2020;22:45:54;C/OUT;
2019039;2019039;04/02/2020;22:46:17;C/OUT;
2019088;2019088;04/02/2020;22:47:12;C/IN;
2019037;2019037;04/02/2020;22:49:20;C/OUT;
2019009;2019009;04/02/2020;22:50:15;C/OUT;
2018085;2018085;04/02/2020;22:50:31;C/OUT;
2017460;2017460;04/02/2020;22:50:39;C/OUT;
2017017;Jonah Jean Algura;04/02/2020;22:51:02;C/OUT;
2019062;2019062;04/02/2020;22:51:18;C/OUT;
2007002;Jannet Alvarez;04/02/2020;22:51:36;C/OUT;
2016049;Lourie Jane Orellano;04/02/2020;22:52:10;C/OUT;
2018094;2018094;04/02/2020;22:52:20;C/OUT;
2015002;Jerrel Joy Azuelo;04/02/2020;22:52:29;C/OUT;
2017052;2017052;04/02/2020;22:52:43;C/OUT;
2016077;Precious Angelica Liban;04/02/2020;22:52:47;C/OUT;
2016062;Maricris Santos;04/02/2020;22:52:55;C/OUT;
2018093;2018093;04/02/2020;22:53:12;C/OUT;
2016044;Vina Estrelle Garcia;04/02/2020;22:53:16;C/OUT;
2019078;2019078;04/02/2020;22:53:42;C/OUT;
2015003;Virlyn Costales;04/02/2020;22:54:22;C/OUT;
2010007;Elinea Mendoza;04/02/2020;22:55:13;C/OUT;
2018026;2018026;04/02/2020;22:58:32;C/OUT;
2011003;Michelle Mangabat;04/02/2020;22:58:40;C/OUT;
2018032;2018032;04/02/2020;22:59:21;C/OUT;
2018057;2018057;04/02/2020;22:59:30;C/OUT;
2015024;Jiekka Catugas;04/02/2020;22:59:59;C/OUT;
2017037;Kristian;04/02/2020;23:00:13;C/OUT;
2017037;Kristian;04/02/2020;23:00:16;C/OUT;
2018003;2018003;04/02/2020;23:00:19;C/OUT;
2012014;Mary Joy Calda;04/02/2020;23:00:32;C/OUT;
2009004;Margarita Rivera;04/02/2020;23:01:36;C/OUT;
2009004;Margarita Rivera;04/02/2020;23:01:40;C/OUT;
2009003;Liezl  Licop;04/02/2020;23:01:47;C/OUT;
2016074;Ferlyn  Arroyo;04/02/2020;23:02:04;C/OUT;
2016074;Ferlyn  Arroyo;04/02/2020;23:02:09;C/OUT;
2006011;Maureen Lintag;04/02/2020;23:02:15;C/OUT;
2012001;Lorena De Torres;04/02/2020;23:02:23;C/OUT;
2016040;Janice Borja;04/02/2020;23:02:36;C/OUT;
2016040;Janice Borja;04/02/2020;23:02:44;C/OUT;
2019081;2019081;04/02/2020;23:03:19;C/OUT;
2017006;Percival Lai;04/02/2020;23:03:36;C/OUT;
2017006;Percival Lai;04/02/2020;23:03:40;C/OUT;
2018047;2018047;04/02/2020;23:03:43;C/OUT;
2018047;2018047;04/02/2020;23:03:44;C/IN;
2018047;2018047;04/02/2020;23:03:47;C/OUT;
2018047;2018047;04/02/2020;23:03:48;C/IN;
2019055;2019055;04/02/2020;23:03:51;C/OUT;
2008001;Visna Cabrera;04/02/2020;23:04:53;C/OUT;
2015015;Aiza Villania;04/02/2020;23:07:30;C/OUT;
2016017;Richard Nichole B. Megu;04/02/2020;23:07:37;C/OUT;
2019087;2019087;04/02/2020;23:15:07;C/OUT;
2019085;2019085;04/02/2020;23:15:16;C/OUT;
2019054;2019054;04/02/2020;23:15:37;C/OUT;
2019052;2019052;04/02/2020;23:18:36;C/OUT;
2019053;2019053;04/02/2020;23:18:43;C/OUT;
2019022;2019022;04/02/2020;23:18:48;C/OUT;
2019089;2019089;04/02/2020;23:18:55;C/OUT;
2013010;Marlon Harry Cardines;04/02/2020;23:35:38;C/OUT;
