2018022;2018022;06/02/2020;00:02:45;C/OUT;
2019069;2019069;06/02/2020;00:03:31;C/OUT;
2015073;Antonito Tolin;06/02/2020;00:23:39;C/OUT;
2012018;Vincent  Caneza;06/02/2020;05:21:36;C/IN;
2016019;Renz Marrion  Federang;06/02/2020;05:22:14;C/IN;
2016089;Julius C;06/02/2020;05:22:44;C/IN;
2016089;Julius C;06/02/2020;05:22:47;C/IN;
2018074;2018074;06/02/2020;05:23:53;C/IN;
2018075;2018075;06/02/2020;05:23:58;C/IN;
2018105;2018105;06/02/2020;05:27:02;C/IN;
2019045;2019045;06/02/2020;05:28:48;C/IN;
2018038;2018038;06/02/2020;05:36:46;C/IN;
2016087;Shaira Castillo;06/02/2020;05:39:34;C/IN;
2016087;Shaira Castillo;06/02/2020;05:39:37;C/IN;
2017042;Allbert Jay Valera;06/02/2020;05:42:31;C/IN;
2019017;2019017;06/02/2020;05:48:12;C/IN;
2019023;2019023;06/02/2020;05:48:20;C/IN;
2016088;Ferdinand Francia;06/02/2020;05:51:04;C/IN;
2017003;Nelia E. Germedia;06/02/2020;05:53:29;C/IN;
2018077;2018077;06/02/2020;05:53:38;C/IN;
2017004;Elena Gallanes;06/02/2020;05:54:05;C/IN;
2017004;Elena Gallanes;06/02/2020;05:54:55;C/IN;
2006013;Lyn Dayame;06/02/2020;05:57:29;C/IN;
2006013;Lyn Dayame;06/02/2020;05:57:33;C/IN;
2018104;2018104;06/02/2020;05:57:54;C/IN;
2016029;Mary Joyce Santos;06/02/2020;06:00:13;C/OUT;
2015016;Ma. Therese Villanueva;06/02/2020;06:00:21;C/OUT;
2015006;Jamielou Montealegre;06/02/2020;06:00:25;C/OUT;
2017016;Karren  Gonzales;06/02/2020;06:00:29;C/OUT;
2019048;2019048;06/02/2020;06:01:07;C/OUT;
2015095;2015095;06/02/2020;06:01:37;C/OUT;
2019068;2019068;06/02/2020;06:02:01;C/OUT;
2018100;2018100;06/02/2020;06:04:28;C/IN;
2018051;2018051;06/02/2020;06:06:23;C/OUT;
2017060;2017060;06/02/2020;06:21:58;C/IN;
2016082;Reginald Bacani;06/02/2020;06:28:29;C/IN;
2016018;Rejelle  Corpuz;06/02/2020;06:28:46;C/IN;
2006015;Reynaldo Enriquez;06/02/2020;06:31:08;C/IN;
2013014;Arnold de Gracia;06/02/2020;06:38:18;C/IN;
2019021;2019021;06/02/2020;06:38:44;C/IN;
2006007;Myleen Bautista;06/02/2020;06:39:14;C/IN;
2018041;2018041;06/02/2020;06:39:34;C/IN;
2006009;Aileen Sacdalan;06/02/2020;06:40:10;C/IN;
2006011;Maureen Lintag;06/02/2020;06:41:16;C/IN;
2018062;2018062;06/02/2020;06:41:20;C/IN;
2017055;2017055;06/02/2020;06:41:24;C/IN;
2019037;2019037;06/02/2020;06:41:28;C/IN;
2013005;Nikki Jean Vincoy;06/02/2020;06:41:31;C/IN;
2016045;Aisha May Horca;06/02/2020;06:41:34;C/IN;
2016040;Janice Borja;06/02/2020;06:41:37;C/IN;
2016020;Michael Jordan Parungao;06/02/2020;06:41:42;C/IN;
2006006;Rowena Jane  Arcilla;06/02/2020;06:41:42;C/IN;
2018090;2018090;06/02/2020;06:41:46;C/IN;
2014015;Garlie Jane Walican;06/02/2020;06:41:49;C/IN;
2017018;Melissa Andaya;06/02/2020;06:41:58;C/IN;
2015013;Babylyn Jolo;06/02/2020;06:42:02;C/IN;
2018065;2018065;06/02/2020;06:42:05;C/IN;
2019038;2019038;06/02/2020;06:42:12;C/IN;
2017065;Diane De Guzman;06/02/2020;06:42:15;C/IN;
2016043;Abegail D. Dalit;06/02/2020;06:42:19;C/IN;
2015009;Richelle Balbeja;06/02/2020;06:42:22;C/IN;
2017024;Flora Mae Palec;06/02/2020;06:42:27;C/IN;
2016009;Rizzalie  Salabsab;06/02/2020;06:42:30;C/IN;
2019005;2019005;06/02/2020;06:42:33;C/IN;
2011010;Angel  Abelligos;06/02/2020;06:42:36;C/IN;
2018029;2018029;06/02/2020;06:42:36;C/IN;
2017025;Julie Ann Recaido;06/02/2020;06:42:39;C/IN;
2011010;Angel  Abelligos;06/02/2020;06:42:40;C/IN;
2018028;2018028;06/02/2020;06:42:43;C/IN;
2015003;Virlyn Costales;06/02/2020;06:42:46;C/IN;
2016010;Jairah Santos;06/02/2020;06:42:49;C/IN;
2017062;2017062;06/02/2020;06:42:53;C/IN;
2012012;Barbette Talag;06/02/2020;06:42:56;C/IN;
2018034;2018034;06/02/2020;06:43:00;C/IN;
2015028;Diana Galang;06/02/2020;06:43:04;C/IN;
2017068;2017068;06/02/2020;06:43:07;C/IN;
2016004;Jaylyn David;06/02/2020;06:43:11;C/IN;
2015012;Mary Rose Gatong;06/02/2020;06:43:14;C/IN;
2010006;Catherine Cunanan;06/02/2020;06:43:19;C/IN;
2007005;Maricris Severo;06/02/2020;06:43:23;C/IN;
2013009;Maria Gurrobat;06/02/2020;06:43:33;C/IN;
2015018;Jhanet Rose Viray;06/02/2020;06:43:42;C/IN;
2009005;Mary Rose Gicaraya;06/02/2020;06:44:09;C/IN;
2018101;2018101;06/02/2020;06:44:50;C/IN;
2012008;Janine Magracia;06/02/2020;06:45:06;C/OUT;
2010005;Joanna Marie  Agregado;06/02/2020;06:45:10;C/OUT;
2018045;2018045;06/02/2020;06:45:11;C/IN;
2017059;2017059;06/02/2020;06:45:24;C/IN;
2006020;Edi Oei;06/02/2020;06:46:03;C/IN;
2012002;Lotlot Flores;06/02/2020;06:46:43;C/OUT;
2010012;Darlitio;06/02/2020;06:46:56;C/OUT;
2016037;Madel Adigue;06/02/2020;06:47:05;C/OUT;
2015094;2015094;06/02/2020;06:47:18;C/IN;
2012025;Johny;06/02/2020;06:47:33;C/OUT;
2007007;Song Boen Lie;06/02/2020;06:47:36;C/OUT;
2019063;2019063;06/02/2020;06:48:39;C/IN;
2019059;2019059;06/02/2020;06:49:01;C/OUT;
2012004;Aisa Anthonette Gudao;06/02/2020;06:50:34;C/OUT;
2006005;Jonalyn Luna;06/02/2020;06:51:20;C/OUT;
2006002;Rosalie  Magat;06/02/2020;06:51:47;C/IN;
2019007;2019007;06/02/2020;06:52:36;C/OUT;
2018059;2018059;06/02/2020;06:53:20;C/OUT;
2019044;2019044;06/02/2020;06:53:24;C/OUT;
2019041;2019041;06/02/2020;06:53:32;C/OUT;
2018010;2018010;06/02/2020;06:53:37;C/OUT;
2018095;2018095;06/02/2020;06:54:15;C/OUT;
2018088;2018088;06/02/2020;06:54:29;C/OUT;
2018089;2018089;06/02/2020;06:55:09;C/OUT;
2017070;2017070;06/02/2020;06:55:13;C/OUT;
2016081;John Caleb Espanola;06/02/2020;06:55:19;C/IN;
2018017;2018017;06/02/2020;06:55:29;C/OUT;
2018025;2018025;06/02/2020;06:56:28;C/OUT;
2016016;Jessie John Janairo;06/02/2020;06:57:01;C/IN;
2016098;Adi Gunawan;06/02/2020;06:58:48;C/IN;
2018040;2018040;06/02/2020;06:58:51;C/IN;
2014012;Joana Marie Ondoy;06/02/2020;06:58:57;C/OUT;
2017046;John Paulo Reyes;06/02/2020;07:00:27;C/IN;
2016014;Jhovielyn Diane Villarba;06/02/2020;07:00:42;C/OUT;
2018097;2018097;06/02/2020;07:00:57;C/OUT;
2018097;2018097;06/02/2020;07:01:01;C/OUT;
2014006;Jean Pascual;06/02/2020;07:01:08;C/OUT;
2018001;Orlan Relente;06/02/2020;07:01:23;C/OUT;
2010008;2010008;06/02/2020;07:02:05;C/OUT;
2018030;2018030;06/02/2020;07:02:20;C/OUT;
2008004;Joy Salvador;06/02/2020;07:04:03;C/OUT;
2018053;2018053;06/02/2020;07:04:10;C/OUT;
2018048;2018048;06/02/2020;07:04:16;C/OUT;
2006010;Madel Ramos;06/02/2020;07:04:39;C/OUT;
2017033;Mico Gumilao;06/02/2020;07:04:53;C/OUT;
2017033;Mico Gumilao;06/02/2020;07:04:57;C/OUT;
2018021;2018021;06/02/2020;07:05:02;C/OUT;
2016094;Franz Kevin R. Loayon;06/02/2020;07:05:31;C/OUT;
2015033;Caryl Anne Nocum;06/02/2020;07:05:39;C/OUT;
2015004;Dhoriz Escueta;06/02/2020;07:06:48;C/OUT;
2018082;2018082;06/02/2020;07:07:46;C/OUT;
2019077;2019077;06/02/2020;07:07:52;C/OUT;
2006008;Malu Sigua;06/02/2020;07:08:11;C/OUT;
2017053;2017053;06/02/2020;07:08:23;C/OUT;
2017023;Sharlotte Movilla;06/02/2020;07:11:59;C/OUT;
2018061;2018061;06/02/2020;07:13:28;C/OUT;
2019047;2019047;06/02/2020;07:15:49;C/OUT;
2019088;2019088;06/02/2020;07:15:52;C/OUT;
2019050;2019050;06/02/2020;07:16:27;C/OUT;
2011008;Richard Elvambuena;06/02/2020;07:16:33;C/OUT;
2019051;2019051;06/02/2020;07:16:46;C/OUT;
2019057;2019057;06/02/2020;07:27:01;C/OUT;
2018099;2018099;06/02/2020;07:36:19;C/OUT;
2017035;Ivy Besnar;06/02/2020;07:46:22;C/IN;
2017035;Ivy Besnar;06/02/2020;07:46:26;C/IN;
2016015;Sean Carlo Cahuela;06/02/2020;08:02:06;C/IN;
2009008;Eko Nugroho Tandijono;06/02/2020;08:06:43;C/IN;
2008008;Hendra R;06/02/2020;08:13:07;C/IN;
2018009;2018009;06/02/2020;08:25:56;C/IN;
2015041;Karen Grace  Santos;06/02/2020;08:38:55;C/IN;
2009007;Sukardi Omar;06/02/2020;08:40:13;C/IN;
2015072;Mayrose P. Brodeth;06/02/2020;08:42:26;C/IN;
2013016;Hendrik Ong;06/02/2020;08:43:40;C/IN;
2014039;Jimmy, Hendra;06/02/2020;08:51:23;C/IN;
2011011;Franky Gunawan;06/02/2020;08:51:51;C/IN;
2019049;2019049;06/02/2020;08:52:49;C/IN;
2019049;2019049;06/02/2020;08:52:59;C/IN;
2011016;Fendi Tan;06/02/2020;08:53:03;C/IN;
2007006;Suhariadi Hadian;06/02/2020;08:53:16;C/IN;
2011006;Mark Arvin Bello;06/02/2020;08:57:04;C/IN;
2011015;Hermanto Phang;06/02/2020;08:59:30;C/IN;
2016076;Mary-Ann Barbadia;06/02/2020;08:59:34;C/IN;
2011013;Harley Wongso;06/02/2020;08:59:39;C/IN;
2012024;Newton;06/02/2020;08:59:44;C/IN;
2015074;Neil Saquin;06/02/2020;09:01:16;C/IN;
2008007;Tobias Lawiarso;06/02/2020;09:15:45;C/IN;
2019066;2019066;06/02/2020;09:54:42;C/IN;
2015071;Cindy Cayubit;06/02/2020;09:55:20;C/IN;
2016003;Anne Bernadette Bustos;06/02/2020;09:56:07;C/IN;
2018046;2018046;06/02/2020;09:56:38;C/IN;
2013008;Wilmark John G. Domingo;06/02/2020;09:56:47;C/IN;
2006003;Faith Joy L. Baaco;06/02/2020;10:58:05;C/IN;
2012023;Leonardo  Delos Santos;06/02/2020;11:37:40;C/IN;
2012023;Leonardo  Delos Santos;06/02/2020;11:37:44;C/IN;
2019025;2019025;06/02/2020;12:20:17;C/IN;
2019025;2019025;06/02/2020;12:20:20;C/IN;
2017005;Nathalie Ocbina;06/02/2020;12:23:23;C/IN;
2019055;2019055;06/02/2020;13:02:33;C/IN;
2011016;Fendi Tan;06/02/2020;13:11:41;C/OUT;
2016059;Paul Anthony Nuguit;06/02/2020;13:14:38;C/IN;
2016059;Paul Anthony Nuguit;06/02/2020;13:14:42;C/IN;
2017040;Geraldin;06/02/2020;13:17:55;C/IN;
2017040;Geraldin;06/02/2020;13:18:00;C/IN;
2018050;2018050;06/02/2020;13:20:07;C/IN;
2008001;Visna Cabrera;06/02/2020;13:25:54;C/IN;
2018011;2018011;06/02/2020;13:35:42;C/IN;
2018003;2018003;06/02/2020;13:41:40;C/IN;
2016035;Judy Lasay;06/02/2020;13:44:41;C/IN;
2015073;Antonito Tolin;06/02/2020;13:44:51;C/IN;
2019089;2019089;06/02/2020;13:45:10;C/IN;
2014032;Gretchen Donato;06/02/2020;13:46:35;C/IN;
2014032;Gretchen Donato;06/02/2020;13:46:43;C/IN;
2018005;2018005;06/02/2020;13:47:33;C/IN;
2018005;2018005;06/02/2020;13:47:36;C/IN;
2018014;2018014;06/02/2020;13:52:25;C/IN;
2019064;2019064;06/02/2020;13:52:44;C/IN;
2018071;2018071;06/02/2020;13:53:51;C/IN;
2017042;Allbert Jay Valera;06/02/2020;14:01:54;C/OUT;
2019045;2019045;06/02/2020;14:03:04;C/IN;
2019045;2019045;06/02/2020;14:03:09;C/OUT;
2018104;2018104;06/02/2020;14:04:26;C/OUT;
2018105;2018105;06/02/2020;14:04:50;C/OUT;
2019017;2019017;06/02/2020;14:04:57;C/OUT;
2017003;Nelia E. Germedia;06/02/2020;14:06:11;C/OUT;
2018074;2018074;06/02/2020;14:07:04;C/OUT;
2018075;2018075;06/02/2020;14:07:08;C/OUT;
2018047;2018047;06/02/2020;14:07:47;C/IN;
2006013;Lyn Dayame;06/02/2020;14:09:09;C/OUT;
2006013;Lyn Dayame;06/02/2020;14:09:12;C/OUT;
2017037;Kristian;06/02/2020;14:09:16;C/IN;
2017037;Kristian;06/02/2020;14:09:20;C/IN;
2017006;Percival Lai;06/02/2020;14:11:55;C/IN;
2017006;Percival Lai;06/02/2020;14:11:59;C/IN;
2017006;Percival Lai;06/02/2020;14:12:10;C/IN;
2019016;2019016;06/02/2020;14:14:46;C/IN;
2019052;2019052;06/02/2020;14:24:30;C/IN;
2008005;Catherine Taruc;06/02/2020;14:26:10;C/IN;
2018022;2018022;06/02/2020;14:26:35;C/IN;
2017004;Elena Gallanes;06/02/2020;14:30:25;C/OUT;
2017004;Elena Gallanes;06/02/2020;14:30:30;C/OUT;
2006022;Martin Martin;06/02/2020;14:31:40;C/OUT;
2016017;Richard Nichole B. Megu;06/02/2020;14:33:14;C/IN;
2009004;Margarita Rivera;06/02/2020;14:38:52;C/IN;
2009004;Margarita Rivera;06/02/2020;14:38:56;C/IN;
2007004;Marichu Mariano;06/02/2020;14:39:07;C/IN;
2019053;2019053;06/02/2020;14:39:17;C/IN;
2019087;2019087;06/02/2020;14:39:53;C/IN;
2017054;2017054;06/02/2020;14:41:17;C/IN;
2015002;Jerrel Joy Azuelo;06/02/2020;14:41:22;C/IN;
2018063;2018063;06/02/2020;14:41:25;C/IN;
2016049;Lourie Jane Orellano;06/02/2020;14:41:28;C/IN;
2019081;2019081;06/02/2020;14:41:31;C/IN;
2019076;2019076;06/02/2020;14:41:34;C/IN;
2019084;2019084;06/02/2020;14:41:37;C/IN;
2019039;2019039;06/02/2020;14:41:41;C/IN;
2019078;2019078;06/02/2020;14:41:44;C/IN;
2016074;Ferlyn  Arroyo;06/02/2020;14:41:48;C/IN;
2016078;Antonette Isorena;06/02/2020;14:41:52;C/IN;
2019001;2019001;06/02/2020;14:41:55;C/IN;
2018057;2018057;06/02/2020;14:41:58;C/IN;
2015019;Kimberlyn Bondoc;06/02/2020;14:42:02;C/IN;
2016075;Rosario  Filio;06/02/2020;14:42:08;C/IN;
2017052;2017052;06/02/2020;14:42:14;C/IN;
2015024;Jiekka Catugas;06/02/2020;14:42:23;C/IN;
2010007;Elinea Mendoza;06/02/2020;14:42:28;C/IN;
2019031;2019031;06/02/2020;14:42:32;C/IN;
2016062;Maricris Santos;06/02/2020;14:42:35;C/IN;
2018032;2018032;06/02/2020;14:42:38;C/IN;
2019012;2019012;06/02/2020;14:42:41;C/IN;
2016077;Precious Angelica Liban;06/02/2020;14:42:44;C/IN;
2018060;2018060;06/02/2020;14:42:48;C/IN;
2006017;Jennifer Gapasen;06/02/2020;14:42:52;C/IN;
2011005;Menessa Pascual;06/02/2020;14:42:56;C/IN;
2018085;2018085;06/02/2020;14:42:59;C/IN;
2010011;Emily D. Daguman;06/02/2020;14:43:02;C/IN;
2015015;Aiza Villania;06/02/2020;14:43:06;C/IN;
2015027;Rosemin Flores;06/02/2020;14:43:09;C/IN;
2012001;Lorena De Torres;06/02/2020;14:43:13;C/IN;
2011003;Michelle Mangabat;06/02/2020;14:43:17;C/IN;
2019054;2019054;06/02/2020;14:43:37;C/IN;
2013005;Nikki Jean Vincoy;06/02/2020;14:45:17;C/OUT;
2006007;Myleen Bautista;06/02/2020;14:45:24;C/OUT;
2017062;2017062;06/02/2020;14:45:38;C/OUT;
2006006;Rowena Jane  Arcilla;06/02/2020;14:46:30;C/OUT;
2019062;2019062;06/02/2020;14:48:30;C/IN;
2006020;Edi Oei;06/02/2020;14:48:42;C/OUT;
2019069;2019069;06/02/2020;14:48:55;C/IN;
2019022;2019022;06/02/2020;14:50:19;C/IN;
2019005;2019005;06/02/2020;14:50:32;C/OUT;
2016010;Jairah Santos;06/02/2020;14:50:56;C/OUT;
2016009;Rizzalie  Salabsab;06/02/2020;14:51:18;C/OUT;
2016043;Abegail D. Dalit;06/02/2020;14:52:46;C/OUT;
2017065;Diane De Guzman;06/02/2020;14:53:47;C/OUT;
2013009;Maria Gurrobat;06/02/2020;14:53:55;C/OUT;
2019038;2019038;06/02/2020;14:54:10;C/OUT;
2019037;2019037;06/02/2020;14:54:15;C/OUT;
2007005;Maricris Severo;06/02/2020;14:55:51;C/OUT;
2018034;2018034;06/02/2020;14:56:02;C/OUT;
2018065;2018065;06/02/2020;14:56:13;C/OUT;
2009005;Mary Rose Gicaraya;06/02/2020;14:56:36;C/OUT;
2017068;2017068;06/02/2020;14:56:42;C/OUT;
2018090;2018090;06/02/2020;14:57:08;C/OUT;
2017055;2017055;06/02/2020;14:57:17;C/OUT;
2017018;Melissa Andaya;06/02/2020;14:57:40;C/OUT;
2018029;2018029;06/02/2020;14:57:48;C/OUT;
2016045;Aisha May Horca;06/02/2020;14:57:58;C/OUT;
2015003;Virlyn Costales;06/02/2020;14:58:15;C/OUT;
2018028;2018028;06/02/2020;14:58:45;C/OUT;
2017024;Flora Mae Palec;06/02/2020;14:58:50;C/OUT;
2006009;Aileen Sacdalan;06/02/2020;14:58:59;C/OUT;
2015003;Virlyn Costales;06/02/2020;14:59:14;C/OUT;
2015028;Diana Galang;06/02/2020;14:59:19;C/OUT;
2015028;Diana Galang;06/02/2020;14:59:23;C/OUT;
2016004;Jaylyn David;06/02/2020;14:59:28;C/OUT;
2017025;Julie Ann Recaido;06/02/2020;14:59:59;C/OUT;
2013010;Marlon Harry Cardines;06/02/2020;15:00:20;C/IN;
2017060;2017060;06/02/2020;15:00:24;C/OUT;
2012018;Vincent  Caneza;06/02/2020;15:00:32;C/OUT;
2016088;Ferdinand Francia;06/02/2020;15:01:29;C/OUT;
2018100;2018100;06/02/2020;15:01:38;C/OUT;
2014015;Garlie Jane Walican;06/02/2020;15:01:44;C/OUT;
2016087;Shaira Castillo;06/02/2020;15:02:02;C/OUT;
2019023;2019023;06/02/2020;15:02:11;C/OUT;
2016089;Julius C;06/02/2020;15:02:19;C/OUT;
2016089;Julius C;06/02/2020;15:02:22;C/OUT;
2015018;Jhanet Rose Viray;06/02/2020;15:02:34;C/OUT;
2018062;2018062;06/02/2020;15:03:12;C/OUT;
2006011;Maureen Lintag;06/02/2020;15:03:21;C/OUT;
2015013;Babylyn Jolo;06/02/2020;15:03:26;C/OUT;
2015012;Mary Rose Gatong;06/02/2020;15:03:41;C/OUT;
2006015;Reynaldo Enriquez;06/02/2020;15:03:54;C/OUT;
2015009;Richelle Balbeja;06/02/2020;15:04:02;C/OUT;
2012012;Barbette Talag;06/02/2020;15:04:39;C/OUT;
2016004;Jaylyn David;06/02/2020;15:05:36;C/OUT;
2017059;2017059;06/02/2020;15:07:27;C/OUT;
2016098;Adi Gunawan;06/02/2020;15:07:38;C/OUT;
2010006;Catherine Cunanan;06/02/2020;15:10:06;C/OUT;
2016019;Renz Marrion  Federang;06/02/2020;15:18:40;C/OUT;
2018077;2018077;06/02/2020;15:19:32;C/OUT;
2018038;2018038;06/02/2020;15:19:36;C/OUT;
2016018;Rejelle  Corpuz;06/02/2020;15:20:56;C/OUT;
2016082;Reginald Bacani;06/02/2020;15:21:17;C/OUT;
2016016;Jessie John Janairo;06/02/2020;15:21:26;C/OUT;
2019021;2019021;06/02/2020;15:21:30;C/OUT;
2017046;John Paulo Reyes;06/02/2020;15:25:08;C/OUT;
2016020;Michael Jordan Parungao;06/02/2020;15:25:26;C/OUT;
2018040;2018040;06/02/2020;15:25:29;C/OUT;
2018041;2018041;06/02/2020;15:25:33;C/OUT;
2015094;2015094;06/02/2020;15:28:47;C/OUT;
2015094;2015094;06/02/2020;15:28:55;C/OUT;
2019063;2019063;06/02/2020;15:29:18;C/OUT;
2006002;Rosalie  Magat;06/02/2020;16:02:09;C/OUT;
2013017;Tedy Tan Patti;06/02/2020;16:06:16;C/OUT;
2009008;Eko Nugroho Tandijono;06/02/2020;16:07:19;C/OUT;
2018101;2018101;06/02/2020;16:11:00;C/OUT;
2018045;2018045;06/02/2020;16:11:04;C/OUT;
2016081;John Caleb Espanola;06/02/2020;16:13:30;C/OUT;
2014039;Jimmy, Hendra;06/02/2020;17:02:42;C/OUT;
2019049;2019049;06/02/2020;17:05:23;C/OUT;
2019049;2019049;06/02/2020;17:05:27;C/OUT;
2013014;Arnold de Gracia;06/02/2020;17:05:41;C/OUT;
2013014;Arnold de Gracia;06/02/2020;17:05:45;C/OUT;
2011010;Angel  Abelligos;06/02/2020;17:05:50;C/OUT;
2011010;Angel  Abelligos;06/02/2020;17:05:53;C/OUT;
2013016;Hendrik Ong;06/02/2020;17:07:03;C/OUT;
2011013;Harley Wongso;06/02/2020;17:08:16;C/OUT;
2018009;2018009;06/02/2020;17:10:32;C/OUT;
2012024;Newton;06/02/2020;17:10:38;C/OUT;
2015041;Karen Grace  Santos;06/02/2020;17:11:04;C/OUT;
2011011;Franky Gunawan;06/02/2020;17:50:12;C/OUT;
2011015;Hermanto Phang;06/02/2020;17:50:24;C/OUT;
2007006;Suhariadi Hadian;06/02/2020;17:50:37;C/OUT;
2017035;Ivy Besnar;06/02/2020;17:55:10;C/OUT;
2017035;Ivy Besnar;06/02/2020;17:55:13;C/OUT;
2016015;Sean Carlo Cahuela;06/02/2020;18:02:41;C/OUT;
2011006;Mark Arvin Bello;06/02/2020;18:03:48;C/OUT;
2016076;Mary-Ann Barbadia;06/02/2020;18:04:48;C/OUT;
2015072;Mayrose P. Brodeth;06/02/2020;18:05:13;C/OUT;
2009007;Sukardi Omar;06/02/2020;18:19:01;C/OUT;
2008007;Tobias Lawiarso;06/02/2020;18:21:22;C/OUT;
2018059;2018059;06/02/2020;18:42:43;C/IN;
2016040;Janice Borja;06/02/2020;18:46:06;C/OUT;
2016040;Janice Borja;06/02/2020;18:46:11;C/OUT;
2008008;Hendra R;06/02/2020;18:55:02;C/OUT;
2015074;Neil Saquin;06/02/2020;19:01:05;C/OUT;
2013008;Wilmark John G. Domingo;06/02/2020;19:02:08;C/OUT;
2018046;2018046;06/02/2020;19:02:58;C/OUT;
2016003;Anne Bernadette Bustos;06/02/2020;19:09:29;C/OUT;
2015071;Cindy Cayubit;06/02/2020;19:10:07;C/OUT;
2019066;2019066;06/02/2020;19:10:12;C/OUT;
2018097;2018097;06/02/2020;20:14:43;C/IN;
2018097;2018097;06/02/2020;20:14:46;C/IN;
2006003;Faith Joy L. Baaco;06/02/2020;20:45:10;C/OUT;
2016029;Mary Joyce Santos;06/02/2020;20:59:12;C/IN;
2019051;2019051;06/02/2020;21:06:48;C/IN;
2018099;2018099;06/02/2020;21:20:02;C/IN;
2017016;Karren  Gonzales;06/02/2020;21:23:11;C/IN;
2019048;2019048;06/02/2020;21:24:26;C/IN;
2017036;Joemar C;06/02/2020;21:25:29;C/IN;
2015016;Ma. Therese Villanueva;06/02/2020;21:36:33;C/IN;
2018015;2018015;06/02/2020;21:38:45;C/IN;
2016094;Franz Kevin R. Loayon;06/02/2020;21:47:55;C/IN;
2019068;2019068;06/02/2020;21:49:50;C/IN;
2015095;2015095;06/02/2020;21:51:23;C/IN;
2019067;2019067;06/02/2020;21:53:42;C/IN;
2019025;2019025;06/02/2020;22:00:06;C/OUT;
2017040;Geraldin;06/02/2020;22:00:11;C/OUT;
2018011;2018011;06/02/2020;22:00:15;C/OUT;
2018050;2018050;06/02/2020;22:00:20;C/OUT;
2017005;Nathalie Ocbina;06/02/2020;22:00:23;C/OUT;
2018005;2018005;06/02/2020;22:00:27;C/OUT;
2018003;2018003;06/02/2020;22:00:44;C/OUT;
2016035;Judy Lasay;06/02/2020;22:01:09;C/OUT;
2014032;Gretchen Donato;06/02/2020;22:01:45;C/OUT;
2018014;2018014;06/02/2020;22:01:54;C/OUT;
2016059;Paul Anthony Nuguit;06/02/2020;22:02:13;C/OUT;
2018071;2018071;06/02/2020;22:02:42;C/OUT;
2012023;Leonardo  Delos Santos;06/02/2020;22:03:05;C/OUT;
2012023;Leonardo  Delos Santos;06/02/2020;22:03:08;C/OUT;
2019064;2019064;06/02/2020;22:04:52;C/OUT;
2018021;2018021;06/02/2020;22:24:25;C/IN;
2019050;2019050;06/02/2020;22:28:56;C/IN;
2018053;2018053;06/02/2020;22:29:05;C/IN;
2012025;Johny;06/02/2020;22:32:42;C/IN;
2007007;Song Boen Lie;06/02/2020;22:37:09;C/IN;
2006004;Evelyn L. Latuga;06/02/2020;22:37:11;C/IN;
2006010;Madel Ramos;06/02/2020;22:37:44;C/IN;
2018010;2018010;06/02/2020;22:40:49;C/IN;
2010005;Joanna Marie  Agregado;06/02/2020;22:41:33;C/IN;
2016047;Melly Zablan;06/02/2020;22:41:37;C/IN;
2014012;Joana Marie Ondoy;06/02/2020;22:41:41;C/IN;
2019077;2019077;06/02/2020;22:41:45;C/IN;
2019057;2019057;06/02/2020;22:41:49;C/IN;
2018095;2018095;06/02/2020;22:41:54;C/IN;
2018082;2018082;06/02/2020;22:41:56;C/IN;
2016014;Jhovielyn Diane Villarba;06/02/2020;22:42:04;C/IN;
2019041;2019041;06/02/2020;22:42:14;C/IN;
2015033;Caryl Anne Nocum;06/02/2020;22:42:18;C/IN;
2017070;2017070;06/02/2020;22:42:22;C/IN;
2016041;Jobelie Borja;06/02/2020;22:42:25;C/IN;
2019028;2019028;06/02/2020;22:42:28;C/IN;
2018088;2018088;06/02/2020;22:42:31;C/IN;
2018089;2018089;06/02/2020;22:42:34;C/IN;
2006005;Jonalyn Luna;06/02/2020;22:42:37;C/IN;
2011008;Richard Elvambuena;06/02/2020;22:42:40;C/IN;
2012002;Lotlot Flores;06/02/2020;22:42:41;C/IN;
2014016;Narlin Zhang;06/02/2020;22:42:45;C/IN;
2015004;Dhoriz Escueta;06/02/2020;22:42:48;C/IN;
2016001;Ronilyn  Bechayda;06/02/2020;22:42:51;C/IN;
2018061;2018061;06/02/2020;22:42:56;C/IN;
2010012;Darlitio;06/02/2020;22:42:57;C/IN;
2014004;Lee-Ann Lagahit;06/02/2020;22:42:59;C/IN;
2017053;2017053;06/02/2020;22:43:04;C/IN;
2018030;2018030;06/02/2020;22:43:07;C/IN;
2012004;Aisa Anthonette Gudao;06/02/2020;22:43:12;C/IN;
2017023;Sharlotte Movilla;06/02/2020;22:43:15;C/IN;
2019044;2019044;06/02/2020;22:43:19;C/IN;
2016037;Madel Adigue;06/02/2020;22:43:22;C/IN;
2006008;Malu Sigua;06/02/2020;22:43:26;C/IN;
2017033;Mico Gumilao;06/02/2020;22:43:32;C/IN;
2017033;Mico Gumilao;06/02/2020;22:43:35;C/IN;
2010011;Emily D. Daguman;06/02/2020;22:45:05;C/OUT;
2018060;2018060;06/02/2020;22:45:18;C/OUT;
2011005;Menessa Pascual;06/02/2020;22:45:22;C/OUT;
2006017;Jennifer Gapasen;06/02/2020;22:45:32;C/OUT;
2011012;Ropin;06/02/2020;22:45:50;C/OUT;
2006022;Martin Martin;06/02/2020;22:45:54;C/OUT;
2019039;2019039;06/02/2020;22:46:45;C/OUT;
2016075;Rosario  Filio;06/02/2020;22:47:22;C/OUT;
2010007;Elinea Mendoza;06/02/2020;22:47:41;C/OUT;
2008005;Catherine Taruc;06/02/2020;22:47:52;C/OUT;
2019088;2019088;06/02/2020;22:50:38;C/IN;
2007004;Marichu Mariano;06/02/2020;22:51:18;C/OUT;
2019001;2019001;06/02/2020;22:52:02;C/OUT;
2019062;2019062;06/02/2020;22:52:17;C/OUT;
2019076;2019076;06/02/2020;22:53:12;C/OUT;
2016062;Maricris Santos;06/02/2020;22:53:17;C/OUT;
2018085;2018085;06/02/2020;22:53:22;C/OUT;
2019078;2019078;06/02/2020;22:53:28;C/OUT;
2015002;Jerrel Joy Azuelo;06/02/2020;22:53:43;C/OUT;
2016049;Lourie Jane Orellano;06/02/2020;22:54:12;C/OUT;
2017052;2017052;06/02/2020;22:54:17;C/OUT;
2017054;2017054;06/02/2020;22:54:25;C/OUT;
2019031;2019031;06/02/2020;22:54:30;C/OUT;
2015024;Jiekka Catugas;06/02/2020;22:54:45;C/OUT;
2016077;Precious Angelica Liban;06/02/2020;22:55:12;C/OUT;
2018032;2018032;06/02/2020;22:55:30;C/OUT;
2016078;Antonette Isorena;06/02/2020;22:55:47;C/OUT;
2019084;2019084;06/02/2020;22:56:02;C/OUT;
2019084;2019084;06/02/2020;22:56:21;C/OUT;
2019047;2019047;06/02/2020;22:58:08;C/IN;
2019012;2019012;06/02/2020;22:58:11;C/OUT;
2009004;Margarita Rivera;06/02/2020;22:59:18;C/OUT;
2011003;Michelle Mangabat;06/02/2020;22:59:41;C/OUT;
2017037;Kristian;06/02/2020;23:00:03;C/OUT;
2017037;Kristian;06/02/2020;23:00:07;C/OUT;
2018057;2018057;06/02/2020;23:00:40;C/OUT;
2008001;Visna Cabrera;06/02/2020;23:01:05;C/OUT;
2018063;2018063;06/02/2020;23:01:09;C/OUT;
2015027;Rosemin Flores;06/02/2020;23:01:14;C/OUT;
2012001;Lorena De Torres;06/02/2020;23:01:23;C/OUT;
2019081;2019081;06/02/2020;23:01:32;C/OUT;
2016074;Ferlyn  Arroyo;06/02/2020;23:01:57;C/OUT;
2016074;Ferlyn  Arroyo;06/02/2020;23:02:01;C/OUT;
2016017;Richard Nichole B. Megu;06/02/2020;23:03:29;C/OUT;
2006001;Imelda Dela Torre;06/02/2020;23:04:39;C/OUT;
2019055;2019055;06/02/2020;23:05:59;C/OUT;
2017006;Percival Lai;06/02/2020;23:06:05;C/OUT;
2017006;Percival Lai;06/02/2020;23:06:09;C/OUT;
2018047;2018047;06/02/2020;23:07:07;C/OUT;
2018047;2018047;06/02/2020;23:07:08;C/IN;
2018047;2018047;06/02/2020;23:07:11;C/OUT;
2018047;2018047;06/02/2020;23:07:12;C/IN;
2015019;Kimberlyn Bondoc;06/02/2020;23:07:25;C/OUT;
2019053;2019053;06/02/2020;23:17:18;C/OUT;
2019089;2019089;06/02/2020;23:17:48;C/OUT;
2019022;2019022;06/02/2020;23:18:13;C/OUT;
2019087;2019087;06/02/2020;23:18:53;C/OUT;
2019085;2019085;06/02/2020;23:18:59;C/OUT;
2019054;2019054;06/02/2020;23:26:07;C/OUT;
2019016;2019016;06/02/2020;23:26:09;C/OUT;
2013010;Marlon Harry Cardines;06/02/2020;23:26:15;C/OUT;
2019052;2019052;06/02/2020;23:34:10;C/OUT;
