2018038;2018038;26/01/2020;00:02:09;C/OUT;
2016081;John Caleb Espanola;26/01/2020;00:10:37;C/OUT;
2015073;Antonito Tolin;26/01/2020;00:16:44;C/OUT;
2019063;2019063;26/01/2020;02:23:38;C/OUT;
2016045;Aisha May Horca;26/01/2020;02:45:05;C/OUT;
2019074;2019074;26/01/2020;02:45:09;C/OUT;
2010005;Joanna Marie  Agregado;26/01/2020;02:45:18;C/OUT;
2015018;Jhanet Rose Viray;26/01/2020;02:45:45;C/OUT;
2019048;2019048;26/01/2020;05:14:19;C/IN;
2017016;Karren  Gonzales;26/01/2020;05:17:13;C/IN;
2012018;Vincent  Caneza;26/01/2020;05:22:31;C/IN;
2017040;Geraldin;26/01/2020;05:25:06;C/IN;
2017040;Geraldin;26/01/2020;05:25:10;C/IN;
2018011;2018011;26/01/2020;05:28:59;C/IN;
2016036;Marivic  Lasay;26/01/2020;05:46:46;C/IN;
2018005;2018005;26/01/2020;05:48:05;C/IN;
2018005;2018005;26/01/2020;05:48:09;C/IN;
2018051;2018051;26/01/2020;05:50:35;C/IN;
2019069;2019069;26/01/2020;05:53:19;C/IN;
2018071;2018071;26/01/2020;05:57:28;C/IN;
2016035;Judy Lasay;26/01/2020;06:01:21;C/OUT;
2019064;2019064;26/01/2020;06:02:13;C/OUT;
2017003;Nelia E. Germedia;26/01/2020;06:02:17;C/OUT;
2018075;2018075;26/01/2020;06:02:39;C/OUT;
2018104;2018104;26/01/2020;06:04:10;C/IN;
2019047;2019047;26/01/2020;06:17:55;C/IN;
2018010;2018010;26/01/2020;06:18:01;C/IN;
2017037;Kristian;26/01/2020;06:19:57;C/IN;
2017037;Kristian;26/01/2020;06:20:00;C/IN;
2016018;Rejelle  Corpuz;26/01/2020;06:26:06;C/IN;
2015094;2015094;26/01/2020;06:26:44;C/IN;
2017033;Mico Gumilao;26/01/2020;06:31:16;C/IN;
2017033;Mico Gumilao;26/01/2020;06:31:19;C/IN;
2018097;2018097;26/01/2020;06:32:35;C/IN;
2018097;2018097;26/01/2020;06:32:39;C/IN;
2018021;2018021;26/01/2020;06:32:47;C/IN;
2018045;2018045;26/01/2020;06:33:27;C/IN;
2008003;Rowena Sayo;26/01/2020;06:35:04;C/IN;
2008005;Catherine Taruc;26/01/2020;06:37:03;C/IN;
2015041;Karen Grace  Santos;26/01/2020;06:37:44;C/IN;
2008001;Visna Cabrera;26/01/2020;06:38:46;C/IN;
2014015;Garlie Jane Walican;26/01/2020;06:39:32;C/IN;
2017046;John Paulo Reyes;26/01/2020;06:39:37;C/IN;
2019007;2019007;26/01/2020;06:40:44;C/IN;
2017070;2017070;26/01/2020;06:40:51;C/IN;
2014006;Jean Pascual;26/01/2020;06:41:12;C/IN;
2016044;Vina Estrelle Garcia;26/01/2020;06:41:31;C/IN;
2006020;Edi Oei;26/01/2020;06:41:33;C/IN;
2006020;Edi Oei;26/01/2020;06:41:34;C/IN;
2019084;2019084;26/01/2020;06:41:38;C/IN;
2015019;Kimberlyn Bondoc;26/01/2020;06:41:50;C/IN;
2017053;2017053;26/01/2020;06:41:59;C/IN;
2019036;2019036;26/01/2020;06:42:08;C/IN;
2019076;2019076;26/01/2020;06:42:12;C/IN;
2019001;2019001;26/01/2020;06:42:18;C/IN;
2018088;2018088;26/01/2020;06:42:35;C/IN;
2006005;Jonalyn Luna;26/01/2020;06:42:47;C/IN;
2018089;2018089;26/01/2020;06:42:50;C/IN;
2018095;2018095;26/01/2020;06:42:53;C/IN;
2019031;2019031;26/01/2020;06:42:57;C/IN;
2018063;2018063;26/01/2020;06:43:11;C/IN;
2018030;2018030;26/01/2020;06:43:15;C/IN;
2010006;Catherine Cunanan;26/01/2020;06:43:19;C/IN;
2019059;2019059;26/01/2020;06:43:23;C/IN;
2019044;2019044;26/01/2020;06:43:26;C/IN;
2010008;2010008;26/01/2020;06:43:29;C/IN;
2014016;Narlin Zhang;26/01/2020;06:43:32;C/IN;
2012002;Lotlot Flores;26/01/2020;06:43:36;C/IN;
2006008;Malu Sigua;26/01/2020;06:43:41;C/IN;
2019078;2019078;26/01/2020;06:43:49;C/IN;
2012008;Janine Magracia;26/01/2020;06:43:54;C/IN;
2018060;2018060;26/01/2020;06:44:05;C/IN;
2010010;Mae  Aguanza;26/01/2020;06:44:12;C/IN;
2016014;Jhovielyn Diane Villarba;26/01/2020;06:44:18;C/IN;
2007005;Maricris Severo;26/01/2020;06:44:23;C/IN;
2009005;Mary Rose Gicaraya;26/01/2020;06:44:51;C/IN;
2018094;2018094;26/01/2020;06:45:21;C/OUT;
2010012;Darlitio;26/01/2020;06:45:35;C/OUT;
2007007;Song Boen Lie;26/01/2020;06:45:47;C/OUT;
2016010;Jairah Santos;26/01/2020;06:46:29;C/OUT;
2017052;2017052;26/01/2020;06:46:40;C/OUT;
2017017;Jonah Jean Algura;26/01/2020;06:47:07;C/OUT;
2018053;2018053;26/01/2020;06:47:10;C/IN;
2018065;2018065;26/01/2020;06:48:11;C/OUT;
2019062;2019062;26/01/2020;06:50:06;C/OUT;
2018029;2018029;26/01/2020;06:51:13;C/OUT;
2019037;2019037;26/01/2020;06:52:04;C/OUT;
2006006;Rowena Jane  Arcilla;26/01/2020;06:52:40;C/OUT;
2019081;2019081;26/01/2020;06:53:23;C/OUT;
2016062;Maricris Santos;26/01/2020;06:55:16;C/OUT;
2017025;Julie Ann Recaido;26/01/2020;06:55:54;C/OUT;
2016098;Adi Gunawan;26/01/2020;06:55:56;C/IN;
2015028;Diana Galang;26/01/2020;06:56:32;C/OUT;
2015028;Diana Galang;26/01/2020;06:56:36;C/OUT;
2018028;2018028;26/01/2020;06:56:50;C/OUT;
2016078;Antonette Isorena;26/01/2020;06:58:15;C/OUT;
2018032;2018032;26/01/2020;06:59:09;C/OUT;
2013005;Nikki Jean Vincoy;26/01/2020;06:59:27;C/OUT;
2016016;Jessie John Janairo;26/01/2020;07:00:06;C/IN;
2018026;2018026;26/01/2020;07:00:53;C/OUT;
2019023;2019023;26/01/2020;07:01:17;C/OUT;
2012023;Leonardo  Delos Santos;26/01/2020;07:01:25;C/OUT;
2012023;Leonardo  Delos Santos;26/01/2020;07:01:29;C/OUT;
2015015;Aiza Villania;26/01/2020;07:02:24;C/OUT;
2011003;Michelle Mangabat;26/01/2020;07:03:02;C/OUT;
2016094;Franz Kevin R. Loayon;26/01/2020;07:06:42;C/OUT;
2019016;2019016;26/01/2020;07:06:50;C/OUT;
2010007;Elinea Mendoza;26/01/2020;07:07:15;C/OUT;
2009004;Margarita Rivera;26/01/2020;07:10:05;C/OUT;
2009004;Margarita Rivera;26/01/2020;07:10:09;C/OUT;
2012014;Mary Joy Calda;26/01/2020;07:10:13;C/OUT;
2012012;Barbette Talag;26/01/2020;07:10:18;C/OUT;
2009003;Liezl  Licop;26/01/2020;07:10:23;C/OUT;
2018086;2018086;26/01/2020;07:10:29;C/IN;
2018099;2018099;26/01/2020;07:10:55;C/OUT;
2006011;Maureen Lintag;26/01/2020;07:11:19;C/OUT;
2017023;Sharlotte Movilla;26/01/2020;07:12:19;C/OUT;
2019038;2019038;26/01/2020;07:12:32;C/OUT;
2019054;2019054;26/01/2020;07:16:09;C/OUT;
2018093;2018093;26/01/2020;07:16:48;C/OUT;
2019022;2019022;26/01/2020;07:17:38;C/OUT;
2008007;Tobias Lawiarso;26/01/2020;07:19:01;C/IN;
2016040;Janice Borja;26/01/2020;07:31:33;C/OUT;
2018047;2018047;26/01/2020;08:02:31;C/IN;
2009008;Eko Nugroho Tandijono;26/01/2020;08:14:03;C/IN;
2017004;Elena Gallanes;26/01/2020;08:51:37;C/IN;
2017004;Elena Gallanes;26/01/2020;08:51:45;C/IN;
2011013;Harley Wongso;26/01/2020;08:58:15;C/IN;
2015074;Neil Saquin;26/01/2020;09:02:23;C/IN;
2015073;Antonito Tolin;26/01/2020;11:28:33;C/IN;
2018001;Orlan Relente;26/01/2020;11:37:12;C/IN;
2019025;2019025;26/01/2020;12:19:53;C/IN;
2019025;2019025;26/01/2020;12:19:56;C/IN;
2019045;2019045;26/01/2020;12:49:50;C/IN;
2016029;Mary Joyce Santos;26/01/2020;13:10:34;C/IN;
2018074;2018074;26/01/2020;13:29:57;C/IN;
2016020;Michael Jordan Parungao;26/01/2020;13:40:32;C/IN;
2017036;Joemar C;26/01/2020;13:42:58;C/IN;
2019017;2019017;26/01/2020;13:48:25;C/IN;
2018014;2018014;26/01/2020;13:49:26;C/IN;
2019089;2019089;26/01/2020;13:50:25;C/IN;
2019049;2019049;26/01/2020;13:52:38;C/IN;
2019049;2019049;26/01/2020;13:52:43;C/IN;
2018015;2018015;26/01/2020;13:53:38;C/IN;
2006013;Lyn Dayame;26/01/2020;13:56:35;C/IN;
2006013;Lyn Dayame;26/01/2020;13:56:38;C/IN;
2017016;Karren  Gonzales;26/01/2020;14:00:06;C/OUT;
2017040;Geraldin;26/01/2020;14:00:16;C/OUT;
2018005;2018005;26/01/2020;14:00:20;C/OUT;
2018011;2018011;26/01/2020;14:00:27;C/OUT;
2016036;Marivic  Lasay;26/01/2020;14:01:04;C/OUT;
2018071;2018071;26/01/2020;14:02:10;C/OUT;
2019048;2019048;26/01/2020;14:05:09;C/OUT;
2018051;2018051;26/01/2020;14:14:06;C/OUT;
2018013;2018013;26/01/2020;14:15:47;C/IN;
2018104;2018104;26/01/2020;14:22:27;C/OUT;
2018104;2018104;26/01/2020;14:22:28;C/IN;
2006022;Martin Martin;26/01/2020;14:27:28;C/OUT;
2006022;Martin Martin;26/01/2020;14:27:30;C/IN;
2017460;2017460;26/01/2020;14:27:34;C/IN;
2019077;2019077;26/01/2020;14:28:09;C/IN;
2019021;2019021;26/01/2020;14:29:09;C/IN;
2018041;2018041;26/01/2020;14:29:13;C/IN;
2006009;Aileen Sacdalan;26/01/2020;14:30:08;C/IN;
2019057;2019057;26/01/2020;14:31:08;C/IN;
2006007;Myleen Bautista;26/01/2020;14:32:10;C/IN;
2019074;2019074;26/01/2020;14:35:56;C/IN;
2018091;2018091;26/01/2020;14:36:06;C/IN;
2018090;2018090;26/01/2020;14:38:22;C/IN;
2018059;2018059;26/01/2020;14:38:37;C/IN;
2017065;Diane De Guzman;26/01/2020;14:39:09;C/IN;
2006004;Evelyn L. Latuga;26/01/2020;14:39:28;C/IN;
2019012;2019012;26/01/2020;14:39:37;C/IN;
2018062;2018062;26/01/2020;14:39:41;C/IN;
2012004;Aisa Anthonette Gudao;26/01/2020;14:39:46;C/IN;
2016045;Aisha May Horca;26/01/2020;14:40:01;C/IN;
2007002;Jannet Alvarez;26/01/2020;14:40:15;C/IN;
2018096;2018096;26/01/2020;14:40:20;C/IN;
2017055;2017055;26/01/2020;14:40:54;C/IN;
2015009;Richelle Balbeja;26/01/2020;14:41:25;C/IN;
2019005;2019005;26/01/2020;14:41:38;C/IN;
2017059;2017059;26/01/2020;14:41:59;C/IN;
2019012;2019012;26/01/2020;14:42:04;C/IN;
2016001;Ronilyn  Bechayda;26/01/2020;14:42:18;C/IN;
2014004;Lee-Ann Lagahit;26/01/2020;14:42:21;C/IN;
2015027;Rosemin Flores;26/01/2020;14:42:25;C/IN;
2018091;2018091;26/01/2020;14:42:28;C/IN;
2018034;2018034;26/01/2020;14:42:33;C/IN;
2016047;Melly Zablan;26/01/2020;14:42:40;C/IN;
2019009;2019009;26/01/2020;14:42:44;C/IN;
2015018;Jhanet Rose Viray;26/01/2020;14:42:48;C/IN;
2018082;2018082;26/01/2020;14:42:53;C/IN;
2017018;Melissa Andaya;26/01/2020;14:43:01;C/IN;
2016037;Madel Adigue;26/01/2020;14:43:05;C/IN;
2015033;Caryl Anne Nocum;26/01/2020;14:43:08;C/IN;
2017068;2017068;26/01/2020;14:43:11;C/IN;
2012006;Allyanna David;26/01/2020;14:43:14;C/IN;
2010011;Emily D. Daguman;26/01/2020;14:43:18;C/IN;
2014012;Joana Marie Ondoy;26/01/2020;14:43:29;C/IN;
2019061;2019061;26/01/2020;14:43:43;C/IN;
2017070;2017070;26/01/2020;14:45:26;C/OUT;
2008005;Catherine Taruc;26/01/2020;14:45:35;C/OUT;
2010008;2010008;26/01/2020;14:46:43;C/OUT;
2018086;2018086;26/01/2020;14:47:04;C/OUT;
2012008;Janine Magracia;26/01/2020;14:47:33;C/OUT;
2006020;Edi Oei;26/01/2020;14:47:58;C/OUT;
2006020;Edi Oei;26/01/2020;14:47:59;C/IN;
2019007;2019007;26/01/2020;14:49:14;C/OUT;
2014015;Garlie Jane Walican;26/01/2020;14:50:00;C/OUT;
2014016;Narlin Zhang;26/01/2020;14:50:48;C/OUT;
2008003;Rowena Sayo;26/01/2020;14:51:18;C/OUT;
2018010;2018010;26/01/2020;14:51:31;C/OUT;
2019001;2019001;26/01/2020;14:51:44;C/OUT;
2013009;Maria Gurrobat;26/01/2020;14:52:20;C/IN;
2018095;2018095;26/01/2020;14:52:30;C/OUT;
2018089;2018089;26/01/2020;14:52:34;C/OUT;
2018088;2018088;26/01/2020;14:53:10;C/OUT;
2018088;2018088;26/01/2020;14:53:11;C/IN;
2019031;2019031;26/01/2020;14:53:19;C/OUT;
2019044;2019044;26/01/2020;14:53:44;C/OUT;
2012002;Lotlot Flores;26/01/2020;14:53:52;C/OUT;
2010010;Mae  Aguanza;26/01/2020;14:54:37;C/OUT;
2007005;Maricris Severo;26/01/2020;14:54:52;C/OUT;
2019078;2019078;26/01/2020;14:55:18;C/OUT;
2019076;2019076;26/01/2020;14:55:23;C/OUT;
2019084;2019084;26/01/2020;14:55:48;C/OUT;
2018060;2018060;26/01/2020;14:56:46;C/OUT;
2015019;Kimberlyn Bondoc;26/01/2020;14:57:29;C/OUT;
2014006;Jean Pascual;26/01/2020;14:57:42;C/OUT;
2016044;Vina Estrelle Garcia;26/01/2020;14:57:56;C/OUT;
2016014;Jhovielyn Diane Villarba;26/01/2020;14:58:00;C/OUT;
2010008;2010008;26/01/2020;14:58:04;C/OUT;
2010006;Catherine Cunanan;26/01/2020;14:58:09;C/OUT;
2012018;Vincent  Caneza;26/01/2020;15:00:20;C/OUT;
2017037;Kristian;26/01/2020;15:00:26;C/OUT;
2019036;2019036;26/01/2020;15:00:30;C/OUT;
2015041;Karen Grace  Santos;26/01/2020;15:00:35;C/OUT;
2016098;Adi Gunawan;26/01/2020;15:01:44;C/OUT;
2018030;2018030;26/01/2020;15:02:10;C/OUT;
2019069;2019069;26/01/2020;15:02:36;C/OUT;
2017033;Mico Gumilao;26/01/2020;15:03:47;C/OUT;
2017033;Mico Gumilao;26/01/2020;15:03:51;C/OUT;
2018021;2018021;26/01/2020;15:03:55;C/OUT;
2006005;Jonalyn Luna;26/01/2020;15:04:21;C/OUT;
2009005;Mary Rose Gicaraya;26/01/2020;15:04:26;C/OUT;
2009005;Mary Rose Gicaraya;26/01/2020;15:04:32;C/OUT;
2017053;2017053;26/01/2020;15:04:36;C/OUT;
2017046;John Paulo Reyes;26/01/2020;15:04:41;C/OUT;
2018053;2018053;26/01/2020;15:05:26;C/OUT;
2006008;Malu Sigua;26/01/2020;15:05:55;C/OUT;
2019047;2019047;26/01/2020;15:15:41;C/OUT;
2015094;2015094;26/01/2020;15:16:16;C/OUT;
2016018;Rejelle  Corpuz;26/01/2020;15:16:27;C/OUT;
2016016;Jessie John Janairo;26/01/2020;15:16:38;C/OUT;
2019059;2019059;26/01/2020;15:20:58;C/OUT;
2008001;Visna Cabrera;26/01/2020;16:00:34;C/OUT;
2018045;2018045;26/01/2020;16:04:05;C/OUT;
2009008;Eko Nugroho Tandijono;26/01/2020;16:24:03;C/OUT;
2018097;2018097;26/01/2020;17:02:07;C/OUT;
2018097;2018097;26/01/2020;17:02:10;C/OUT;
2017004;Elena Gallanes;26/01/2020;17:03:38;C/OUT;
2018047;2018047;26/01/2020;17:04:59;C/OUT;
2018047;2018047;26/01/2020;17:05:00;C/IN;
2018047;2018047;26/01/2020;17:05:02;C/OUT;
2018047;2018047;26/01/2020;17:05:03;C/IN;
2011013;Harley Wongso;26/01/2020;17:10:24;C/OUT;
2015074;Neil Saquin;26/01/2020;19:02:11;C/OUT;
2018063;2018063;26/01/2020;19:03:19;C/OUT;
2018050;2018050;26/01/2020;20:41:40;C/IN;
2012023;Leonardo  Delos Santos;26/01/2020;20:41:50;C/IN;
2012023;Leonardo  Delos Santos;26/01/2020;20:41:56;C/IN;
2018048;2018048;26/01/2020;21:01:54;C/IN;
2018075;2018075;26/01/2020;21:12:34;C/IN;
2016059;Paul Anthony Nuguit;26/01/2020;21:17:52;C/IN;
2018099;2018099;26/01/2020;21:19:25;C/IN;
2015073;Antonito Tolin;26/01/2020;21:22:30;C/OUT;
2016094;Franz Kevin R. Loayon;26/01/2020;21:42:33;C/IN;
2016094;Franz Kevin R. Loayon;26/01/2020;21:42:37;C/IN;
2016094;Franz Kevin R. Loayon;26/01/2020;21:42:42;C/IN;
2006011;Maureen Lintag;26/01/2020;21:50:28;C/IN;
2017003;Nelia E. Germedia;26/01/2020;21:51:10;C/IN;
2019026;2019026;26/01/2020;21:51:42;C/IN;
2016035;Judy Lasay;26/01/2020;21:52:56;C/IN;
2017003;Nelia E. Germedia;26/01/2020;21:56:28;C/IN;
2018003;2018003;26/01/2020;21:58:31;C/IN;
2016029;Mary Joyce Santos;26/01/2020;22:00:09;C/OUT;
2019045;2019045;26/01/2020;22:00:13;C/OUT;
2017036;Joemar C;26/01/2020;22:00:24;C/OUT;
2019025;2019025;26/01/2020;22:00:30;C/OUT;
2019025;2019025;26/01/2020;22:00:34;C/OUT;
2019017;2019017;26/01/2020;22:01:31;C/OUT;
2018014;2018014;26/01/2020;22:01:54;C/OUT;
2018015;2018015;26/01/2020;22:02:02;C/OUT;
2019049;2019049;26/01/2020;22:03:18;C/OUT;
2018001;Orlan Relente;26/01/2020;22:03:39;C/OUT;
2006013;Lyn Dayame;26/01/2020;22:05:47;C/OUT;
2006013;Lyn Dayame;26/01/2020;22:05:50;C/OUT;
2018074;2018074;26/01/2020;22:13:09;C/OUT;
2006006;Rowena Jane  Arcilla;26/01/2020;22:19:25;C/IN;
2007007;Song Boen Lie;26/01/2020;22:23:41;C/IN;
2016017;Richard Nichole B. Megu;26/01/2020;22:28:08;C/IN;
2010012;Darlitio;26/01/2020;22:29:18;C/IN;
2009004;Margarita Rivera;26/01/2020;22:35:36;C/IN;
2009004;Margarita Rivera;26/01/2020;22:35:39;C/IN;
2009004;Margarita Rivera;26/01/2020;22:35:42;C/IN;
2019087;2019087;26/01/2020;22:35:48;C/IN;
2011003;Michelle Mangabat;26/01/2020;22:36:18;C/IN;
2018065;2018065;26/01/2020;22:36:58;C/IN;
2018029;2018029;26/01/2020;22:37:51;C/IN;
2016049;Lourie Jane Orellano;26/01/2020;22:38:59;C/IN;
2016040;Janice Borja;26/01/2020;22:39:02;C/IN;
2015002;Jerrel Joy Azuelo;26/01/2020;22:39:06;C/IN;
2010007;Elinea Mendoza;26/01/2020;22:39:15;C/IN;
2019022;2019022;26/01/2020;22:39:38;C/IN;
2018094;2018094;26/01/2020;22:39:43;C/IN;
2018026;2018026;26/01/2020;22:40:00;C/IN;
2015013;Babylyn Jolo;26/01/2020;22:40:23;C/IN;
2019037;2019037;26/01/2020;22:40:29;C/IN;
2018093;2018093;26/01/2020;22:40:57;C/IN;
2016062;Maricris Santos;26/01/2020;22:41:25;C/IN;
2012014;Mary Joy Calda;26/01/2020;22:41:33;C/IN;
2016078;Antonette Isorena;26/01/2020;22:41:48;C/IN;
2018028;2018028;26/01/2020;22:42:15;C/IN;
2009003;Liezl  Licop;26/01/2020;22:42:19;C/IN;
2016009;Rizzalie  Salabsab;26/01/2020;22:42:29;C/IN;
2018032;2018032;26/01/2020;22:42:32;C/IN;
2015015;Aiza Villania;26/01/2020;22:42:36;C/IN;
2016077;Precious Angelica Liban;26/01/2020;22:42:41;C/IN;
2017017;Jonah Jean Algura;26/01/2020;22:42:45;C/IN;
2019038;2019038;26/01/2020;22:42:49;C/IN;
2017023;Sharlotte Movilla;26/01/2020;22:42:53;C/IN;
2018061;2018061;26/01/2020;22:43:37;C/IN;
2016010;Jairah Santos;26/01/2020;22:44:28;C/IN;
2018094;2018094;26/01/2020;22:44:41;C/IN;
2018062;2018062;26/01/2020;22:45:10;C/OUT;
2018062;2018062;26/01/2020;22:45:11;C/IN;
2007002;Jannet Alvarez;26/01/2020;22:45:32;C/OUT;
2010011;Emily D. Daguman;26/01/2020;22:45:36;C/OUT;
2016037;Madel Adigue;26/01/2020;22:45:40;C/OUT;
2017065;Diane De Guzman;26/01/2020;22:46:19;C/OUT;
2011012;Ropin;26/01/2020;22:46:45;C/OUT;
2011012;Ropin;26/01/2020;22:46:46;C/IN;
2019062;2019062;26/01/2020;22:46:46;C/OUT;
2019062;2019062;26/01/2020;22:46:49;C/IN;
2006022;Martin Martin;26/01/2020;22:46:50;C/OUT;
2006022;Martin Martin;26/01/2020;22:46:51;C/IN;
2012006;Allyanna David;26/01/2020;22:47:05;C/OUT;
2016045;Aisha May Horca;26/01/2020;22:47:13;C/OUT;
2006007;Myleen Bautista;26/01/2020;22:47:23;C/OUT;
2012004;Aisa Anthonette Gudao;26/01/2020;22:47:30;C/OUT;
2017068;2017068;26/01/2020;22:48:46;C/OUT;
2013009;Maria Gurrobat;26/01/2020;22:48:59;C/OUT;
2014004;Lee-Ann Lagahit;26/01/2020;22:49:14;C/OUT;
2019009;2019009;26/01/2020;22:50:56;C/OUT;
2015009;Richelle Balbeja;26/01/2020;22:51:06;C/OUT;
2018096;2018096;26/01/2020;22:51:27;C/OUT;
2017059;2017059;26/01/2020;22:51:41;C/OUT;
2017460;2017460;26/01/2020;22:51:48;C/OUT;
2006009;Aileen Sacdalan;26/01/2020;22:52:02;C/OUT;
2018091;2018091;26/01/2020;22:52:29;C/OUT;
2019012;2019012;26/01/2020;22:52:59;C/OUT;
2015018;Jhanet Rose Viray;26/01/2020;22:53:14;C/OUT;
2006004;Evelyn L. Latuga;26/01/2020;22:53:37;C/OUT;
2017018;Melissa Andaya;26/01/2020;22:53:45;C/OUT;
2019074;2019074;26/01/2020;22:54:14;C/OUT;
2018034;2018034;26/01/2020;22:54:40;C/OUT;
2017055;2017055;26/01/2020;22:54:44;C/OUT;
2016001;Ronilyn  Bechayda;26/01/2020;22:56:34;C/OUT;
2014012;Joana Marie Ondoy;26/01/2020;22:56:39;C/OUT;
2015027;Rosemin Flores;26/01/2020;22:57:28;C/OUT;
2016047;Melly Zablan;26/01/2020;22:58:47;C/OUT;
2019061;2019061;26/01/2020;22:59:30;C/OUT;
2018059;2018059;26/01/2020;22:59:35;C/OUT;
2018082;2018082;26/01/2020;23:01:48;C/OUT;
2016020;Michael Jordan Parungao;26/01/2020;23:17:19;C/OUT;
2018041;2018041;26/01/2020;23:17:46;C/OUT;
2019089;2019089;26/01/2020;23:21:16;C/OUT;
2019021;2019021;26/01/2020;23:22:31;C/OUT;
2018038;2018038;26/01/2020;00:02:09;C/OUT;
2016081;John Caleb Espanola;26/01/2020;00:10:37;C/OUT;
2015073;Antonito Tolin;26/01/2020;00:16:44;C/OUT;
2019063;2019063;26/01/2020;02:23:38;C/OUT;
2016045;Aisha May Horca;26/01/2020;02:45:05;C/OUT;
2019074;2019074;26/01/2020;02:45:09;C/OUT;
2010005;Joanna Marie  Agregado;26/01/2020;02:45:18;C/OUT;
2015018;Jhanet Rose Viray;26/01/2020;02:45:45;C/OUT;
2019048;2019048;26/01/2020;05:14:19;C/IN;
2017016;Karren  Gonzales;26/01/2020;05:17:13;C/IN;
2012018;Vincent  Caneza;26/01/2020;05:22:31;C/IN;
2017040;Geraldin;26/01/2020;05:25:06;C/IN;
2017040;Geraldin;26/01/2020;05:25:10;C/IN;
2018011;2018011;26/01/2020;05:28:59;C/IN;
2016036;Marivic  Lasay;26/01/2020;05:46:46;C/IN;
2018005;2018005;26/01/2020;05:48:05;C/IN;
2018005;2018005;26/01/2020;05:48:09;C/IN;
2018051;2018051;26/01/2020;05:50:35;C/IN;
2019069;2019069;26/01/2020;05:53:19;C/IN;
2018071;2018071;26/01/2020;05:57:28;C/IN;
2016035;Judy Lasay;26/01/2020;06:01:21;C/OUT;
2019064;2019064;26/01/2020;06:02:13;C/OUT;
2017003;Nelia E. Germedia;26/01/2020;06:02:17;C/OUT;
2018075;2018075;26/01/2020;06:02:39;C/OUT;
2018104;2018104;26/01/2020;06:04:10;C/IN;
2019047;2019047;26/01/2020;06:17:55;C/IN;
2018010;2018010;26/01/2020;06:18:01;C/IN;
2017037;Kristian;26/01/2020;06:19:57;C/IN;
2017037;Kristian;26/01/2020;06:20:00;C/IN;
2016018;Rejelle  Corpuz;26/01/2020;06:26:06;C/IN;
2015094;2015094;26/01/2020;06:26:44;C/IN;
2017033;Mico Gumilao;26/01/2020;06:31:16;C/IN;
2017033;Mico Gumilao;26/01/2020;06:31:19;C/IN;
2018097;2018097;26/01/2020;06:32:35;C/IN;
2018097;2018097;26/01/2020;06:32:39;C/IN;
2018021;2018021;26/01/2020;06:32:47;C/IN;
2018045;2018045;26/01/2020;06:33:27;C/IN;
2008003;Rowena Sayo;26/01/2020;06:35:04;C/IN;
2008005;Catherine Taruc;26/01/2020;06:37:03;C/IN;
2015041;Karen Grace  Santos;26/01/2020;06:37:44;C/IN;
2008001;Visna Cabrera;26/01/2020;06:38:46;C/IN;
2014015;Garlie Jane Walican;26/01/2020;06:39:32;C/IN;
2017046;John Paulo Reyes;26/01/2020;06:39:37;C/IN;
2019007;2019007;26/01/2020;06:40:44;C/IN;
2017070;2017070;26/01/2020;06:40:51;C/IN;
2014006;Jean Pascual;26/01/2020;06:41:12;C/IN;
2016044;Vina Estrelle Garcia;26/01/2020;06:41:31;C/IN;
2006020;Edi Oei;26/01/2020;06:41:33;C/IN;
2006020;Edi Oei;26/01/2020;06:41:34;C/IN;
2019084;2019084;26/01/2020;06:41:38;C/IN;
2015019;Kimberlyn Bondoc;26/01/2020;06:41:50;C/IN;
2017053;2017053;26/01/2020;06:41:59;C/IN;
2019036;2019036;26/01/2020;06:42:08;C/IN;
2019076;2019076;26/01/2020;06:42:12;C/IN;
2019001;2019001;26/01/2020;06:42:18;C/IN;
2018088;2018088;26/01/2020;06:42:35;C/IN;
2006005;Jonalyn Luna;26/01/2020;06:42:47;C/IN;
2018089;2018089;26/01/2020;06:42:50;C/IN;
2018095;2018095;26/01/2020;06:42:53;C/IN;
2019031;2019031;26/01/2020;06:42:57;C/IN;
2018063;2018063;26/01/2020;06:43:11;C/IN;
2018030;2018030;26/01/2020;06:43:15;C/IN;
2010006;Catherine Cunanan;26/01/2020;06:43:19;C/IN;
2019059;2019059;26/01/2020;06:43:23;C/IN;
2019044;2019044;26/01/2020;06:43:26;C/IN;
2010008;2010008;26/01/2020;06:43:29;C/IN;
2014016;Narlin Zhang;26/01/2020;06:43:32;C/IN;
2012002;Lotlot Flores;26/01/2020;06:43:36;C/IN;
2006008;Malu Sigua;26/01/2020;06:43:41;C/IN;
2019078;2019078;26/01/2020;06:43:49;C/IN;
2012008;Janine Magracia;26/01/2020;06:43:54;C/IN;
2018060;2018060;26/01/2020;06:44:05;C/IN;
2010010;Mae  Aguanza;26/01/2020;06:44:12;C/IN;
2016014;Jhovielyn Diane Villarba;26/01/2020;06:44:18;C/IN;
2007005;Maricris Severo;26/01/2020;06:44:23;C/IN;
2009005;Mary Rose Gicaraya;26/01/2020;06:44:51;C/IN;
2018094;2018094;26/01/2020;06:45:21;C/OUT;
2010012;Darlitio;26/01/2020;06:45:35;C/OUT;
2007007;Song Boen Lie;26/01/2020;06:45:47;C/OUT;
2016010;Jairah Santos;26/01/2020;06:46:29;C/OUT;
2017052;2017052;26/01/2020;06:46:40;C/OUT;
2017017;Jonah Jean Algura;26/01/2020;06:47:07;C/OUT;
2018053;2018053;26/01/2020;06:47:10;C/IN;
2018065;2018065;26/01/2020;06:48:11;C/OUT;
2019062;2019062;26/01/2020;06:50:06;C/OUT;
2018029;2018029;26/01/2020;06:51:13;C/OUT;
2019037;2019037;26/01/2020;06:52:04;C/OUT;
2006006;Rowena Jane  Arcilla;26/01/2020;06:52:40;C/OUT;
2019081;2019081;26/01/2020;06:53:23;C/OUT;
2016062;Maricris Santos;26/01/2020;06:55:16;C/OUT;
2017025;Julie Ann Recaido;26/01/2020;06:55:54;C/OUT;
2016098;Adi Gunawan;26/01/2020;06:55:56;C/IN;
2015028;Diana Galang;26/01/2020;06:56:32;C/OUT;
2015028;Diana Galang;26/01/2020;06:56:36;C/OUT;
2018028;2018028;26/01/2020;06:56:50;C/OUT;
2016078;Antonette Isorena;26/01/2020;06:58:15;C/OUT;
2018032;2018032;26/01/2020;06:59:09;C/OUT;
2013005;Nikki Jean Vincoy;26/01/2020;06:59:27;C/OUT;
2016016;Jessie John Janairo;26/01/2020;07:00:06;C/IN;
2018026;2018026;26/01/2020;07:00:53;C/OUT;
2019023;2019023;26/01/2020;07:01:17;C/OUT;
2012023;Leonardo  Delos Santos;26/01/2020;07:01:25;C/OUT;
2012023;Leonardo  Delos Santos;26/01/2020;07:01:29;C/OUT;
2015015;Aiza Villania;26/01/2020;07:02:24;C/OUT;
2011003;Michelle Mangabat;26/01/2020;07:03:02;C/OUT;
2016094;Franz Kevin R. Loayon;26/01/2020;07:06:42;C/OUT;
2019016;2019016;26/01/2020;07:06:50;C/OUT;
2010007;Elinea Mendoza;26/01/2020;07:07:15;C/OUT;
2009004;Margarita Rivera;26/01/2020;07:10:05;C/OUT;
2009004;Margarita Rivera;26/01/2020;07:10:09;C/OUT;
2012014;Mary Joy Calda;26/01/2020;07:10:13;C/OUT;
2012012;Barbette Talag;26/01/2020;07:10:18;C/OUT;
2009003;Liezl  Licop;26/01/2020;07:10:23;C/OUT;
2018086;2018086;26/01/2020;07:10:29;C/IN;
2018099;2018099;26/01/2020;07:10:55;C/OUT;
2006011;Maureen Lintag;26/01/2020;07:11:19;C/OUT;
2017023;Sharlotte Movilla;26/01/2020;07:12:19;C/OUT;
2019038;2019038;26/01/2020;07:12:32;C/OUT;
2019054;2019054;26/01/2020;07:16:09;C/OUT;
2018093;2018093;26/01/2020;07:16:48;C/OUT;
2019022;2019022;26/01/2020;07:17:38;C/OUT;
2008007;Tobias Lawiarso;26/01/2020;07:19:01;C/IN;
2016040;Janice Borja;26/01/2020;07:31:33;C/OUT;
2018047;2018047;26/01/2020;08:02:31;C/IN;
2009008;Eko Nugroho Tandijono;26/01/2020;08:14:03;C/IN;
2017004;Elena Gallanes;26/01/2020;08:51:37;C/IN;
2017004;Elena Gallanes;26/01/2020;08:51:45;C/IN;
2011013;Harley Wongso;26/01/2020;08:58:15;C/IN;
2015074;Neil Saquin;26/01/2020;09:02:23;C/IN;
2015073;Antonito Tolin;26/01/2020;11:28:33;C/IN;
2018001;Orlan Relente;26/01/2020;11:37:12;C/IN;
2019025;2019025;26/01/2020;12:19:53;C/IN;
2019025;2019025;26/01/2020;12:19:56;C/IN;
2019045;2019045;26/01/2020;12:49:50;C/IN;
2016029;Mary Joyce Santos;26/01/2020;13:10:34;C/IN;
2018074;2018074;26/01/2020;13:29:57;C/IN;
2016020;Michael Jordan Parungao;26/01/2020;13:40:32;C/IN;
2017036;Joemar C;26/01/2020;13:42:58;C/IN;
2019017;2019017;26/01/2020;13:48:25;C/IN;
2018014;2018014;26/01/2020;13:49:26;C/IN;
2019089;2019089;26/01/2020;13:50:25;C/IN;
2019049;2019049;26/01/2020;13:52:38;C/IN;
2019049;2019049;26/01/2020;13:52:43;C/IN;
2018015;2018015;26/01/2020;13:53:38;C/IN;
2006013;Lyn Dayame;26/01/2020;13:56:35;C/IN;
2006013;Lyn Dayame;26/01/2020;13:56:38;C/IN;
2017016;Karren  Gonzales;26/01/2020;14:00:06;C/OUT;
2017040;Geraldin;26/01/2020;14:00:16;C/OUT;
2018005;2018005;26/01/2020;14:00:20;C/OUT;
2018011;2018011;26/01/2020;14:00:27;C/OUT;
2016036;Marivic  Lasay;26/01/2020;14:01:04;C/OUT;
2018071;2018071;26/01/2020;14:02:10;C/OUT;
2019048;2019048;26/01/2020;14:05:09;C/OUT;
2018051;2018051;26/01/2020;14:14:06;C/OUT;
2018013;2018013;26/01/2020;14:15:47;C/IN;
2018104;2018104;26/01/2020;14:22:27;C/OUT;
2018104;2018104;26/01/2020;14:22:28;C/IN;
2006022;Martin Martin;26/01/2020;14:27:28;C/OUT;
2006022;Martin Martin;26/01/2020;14:27:30;C/IN;
2017460;2017460;26/01/2020;14:27:34;C/IN;
2019077;2019077;26/01/2020;14:28:09;C/IN;
2019021;2019021;26/01/2020;14:29:09;C/IN;
2018041;2018041;26/01/2020;14:29:13;C/IN;
2006009;Aileen Sacdalan;26/01/2020;14:30:08;C/IN;
2019057;2019057;26/01/2020;14:31:08;C/IN;
2006007;Myleen Bautista;26/01/2020;14:32:10;C/IN;
2019074;2019074;26/01/2020;14:35:56;C/IN;
2018091;2018091;26/01/2020;14:36:06;C/IN;
2018090;2018090;26/01/2020;14:38:22;C/IN;
2018059;2018059;26/01/2020;14:38:37;C/IN;
2017065;Diane De Guzman;26/01/2020;14:39:09;C/IN;
2006004;Evelyn L. Latuga;26/01/2020;14:39:28;C/IN;
2019012;2019012;26/01/2020;14:39:37;C/IN;
2018062;2018062;26/01/2020;14:39:41;C/IN;
2012004;Aisa Anthonette Gudao;26/01/2020;14:39:46;C/IN;
2016045;Aisha May Horca;26/01/2020;14:40:01;C/IN;
2007002;Jannet Alvarez;26/01/2020;14:40:15;C/IN;
2018096;2018096;26/01/2020;14:40:20;C/IN;
2017055;2017055;26/01/2020;14:40:54;C/IN;
2015009;Richelle Balbeja;26/01/2020;14:41:25;C/IN;
2019005;2019005;26/01/2020;14:41:38;C/IN;
2017059;2017059;26/01/2020;14:41:59;C/IN;
2019012;2019012;26/01/2020;14:42:04;C/IN;
2016001;Ronilyn  Bechayda;26/01/2020;14:42:18;C/IN;
2014004;Lee-Ann Lagahit;26/01/2020;14:42:21;C/IN;
2015027;Rosemin Flores;26/01/2020;14:42:25;C/IN;
2018091;2018091;26/01/2020;14:42:28;C/IN;
2018034;2018034;26/01/2020;14:42:33;C/IN;
2016047;Melly Zablan;26/01/2020;14:42:40;C/IN;
2019009;2019009;26/01/2020;14:42:44;C/IN;
2015018;Jhanet Rose Viray;26/01/2020;14:42:48;C/IN;
2018082;2018082;26/01/2020;14:42:53;C/IN;
2017018;Melissa Andaya;26/01/2020;14:43:01;C/IN;
2016037;Madel Adigue;26/01/2020;14:43:05;C/IN;
2015033;Caryl Anne Nocum;26/01/2020;14:43:08;C/IN;
2017068;2017068;26/01/2020;14:43:11;C/IN;
2012006;Allyanna David;26/01/2020;14:43:14;C/IN;
2010011;Emily D. Daguman;26/01/2020;14:43:18;C/IN;
2014012;Joana Marie Ondoy;26/01/2020;14:43:29;C/IN;
2019061;2019061;26/01/2020;14:43:43;C/IN;
2017070;2017070;26/01/2020;14:45:26;C/OUT;
2008005;Catherine Taruc;26/01/2020;14:45:35;C/OUT;
2010008;2010008;26/01/2020;14:46:43;C/OUT;
2018086;2018086;26/01/2020;14:47:04;C/OUT;
2012008;Janine Magracia;26/01/2020;14:47:33;C/OUT;
2006020;Edi Oei;26/01/2020;14:47:58;C/OUT;
2006020;Edi Oei;26/01/2020;14:47:59;C/IN;
2019007;2019007;26/01/2020;14:49:14;C/OUT;
2014015;Garlie Jane Walican;26/01/2020;14:50:00;C/OUT;
2014016;Narlin Zhang;26/01/2020;14:50:48;C/OUT;
2008003;Rowena Sayo;26/01/2020;14:51:18;C/OUT;
2018010;2018010;26/01/2020;14:51:31;C/OUT;
2019001;2019001;26/01/2020;14:51:44;C/OUT;
2013009;Maria Gurrobat;26/01/2020;14:52:20;C/IN;
2018095;2018095;26/01/2020;14:52:30;C/OUT;
2018089;2018089;26/01/2020;14:52:34;C/OUT;
2018088;2018088;26/01/2020;14:53:10;C/OUT;
2018088;2018088;26/01/2020;14:53:11;C/IN;
2019031;2019031;26/01/2020;14:53:19;C/OUT;
2019044;2019044;26/01/2020;14:53:44;C/OUT;
2012002;Lotlot Flores;26/01/2020;14:53:52;C/OUT;
2010010;Mae  Aguanza;26/01/2020;14:54:37;C/OUT;
2007005;Maricris Severo;26/01/2020;14:54:52;C/OUT;
2019078;2019078;26/01/2020;14:55:18;C/OUT;
2019076;2019076;26/01/2020;14:55:23;C/OUT;
2019084;2019084;26/01/2020;14:55:48;C/OUT;
2018060;2018060;26/01/2020;14:56:46;C/OUT;
2015019;Kimberlyn Bondoc;26/01/2020;14:57:29;C/OUT;
2014006;Jean Pascual;26/01/2020;14:57:42;C/OUT;
2016044;Vina Estrelle Garcia;26/01/2020;14:57:56;C/OUT;
2016014;Jhovielyn Diane Villarba;26/01/2020;14:58:00;C/OUT;
2010008;2010008;26/01/2020;14:58:04;C/OUT;
2010006;Catherine Cunanan;26/01/2020;14:58:09;C/OUT;
2012018;Vincent  Caneza;26/01/2020;15:00:20;C/OUT;
2017037;Kristian;26/01/2020;15:00:26;C/OUT;
2019036;2019036;26/01/2020;15:00:30;C/OUT;
2015041;Karen Grace  Santos;26/01/2020;15:00:35;C/OUT;
2016098;Adi Gunawan;26/01/2020;15:01:44;C/OUT;
2018030;2018030;26/01/2020;15:02:10;C/OUT;
2019069;2019069;26/01/2020;15:02:36;C/OUT;
2017033;Mico Gumilao;26/01/2020;15:03:47;C/OUT;
2017033;Mico Gumilao;26/01/2020;15:03:51;C/OUT;
2018021;2018021;26/01/2020;15:03:55;C/OUT;
2006005;Jonalyn Luna;26/01/2020;15:04:21;C/OUT;
2009005;Mary Rose Gicaraya;26/01/2020;15:04:26;C/OUT;
2009005;Mary Rose Gicaraya;26/01/2020;15:04:32;C/OUT;
2017053;2017053;26/01/2020;15:04:36;C/OUT;
2017046;John Paulo Reyes;26/01/2020;15:04:41;C/OUT;
2018053;2018053;26/01/2020;15:05:26;C/OUT;
2006008;Malu Sigua;26/01/2020;15:05:55;C/OUT;
2019047;2019047;26/01/2020;15:15:41;C/OUT;
2015094;2015094;26/01/2020;15:16:16;C/OUT;
2016018;Rejelle  Corpuz;26/01/2020;15:16:27;C/OUT;
2016016;Jessie John Janairo;26/01/2020;15:16:38;C/OUT;
2019059;2019059;26/01/2020;15:20:58;C/OUT;
2008001;Visna Cabrera;26/01/2020;16:00:34;C/OUT;
2018045;2018045;26/01/2020;16:04:05;C/OUT;
2009008;Eko Nugroho Tandijono;26/01/2020;16:24:03;C/OUT;
2018097;2018097;26/01/2020;17:02:07;C/OUT;
2018097;2018097;26/01/2020;17:02:10;C/OUT;
2017004;Elena Gallanes;26/01/2020;17:03:38;C/OUT;
2018047;2018047;26/01/2020;17:04:59;C/OUT;
2018047;2018047;26/01/2020;17:05:00;C/IN;
2018047;2018047;26/01/2020;17:05:02;C/OUT;
2018047;2018047;26/01/2020;17:05:03;C/IN;
2011013;Harley Wongso;26/01/2020;17:10:24;C/OUT;
2015074;Neil Saquin;26/01/2020;19:02:11;C/OUT;
2018063;2018063;26/01/2020;19:03:19;C/OUT;
2018050;2018050;26/01/2020;20:41:40;C/IN;
2012023;Leonardo  Delos Santos;26/01/2020;20:41:50;C/IN;
2012023;Leonardo  Delos Santos;26/01/2020;20:41:56;C/IN;
2018048;2018048;26/01/2020;21:01:54;C/IN;
2018075;2018075;26/01/2020;21:12:34;C/IN;
2016059;Paul Anthony Nuguit;26/01/2020;21:17:52;C/IN;
2018099;2018099;26/01/2020;21:19:25;C/IN;
2015073;Antonito Tolin;26/01/2020;21:22:30;C/OUT;
2016094;Franz Kevin R. Loayon;26/01/2020;21:42:33;C/IN;
2016094;Franz Kevin R. Loayon;26/01/2020;21:42:37;C/IN;
2016094;Franz Kevin R. Loayon;26/01/2020;21:42:42;C/IN;
2006011;Maureen Lintag;26/01/2020;21:50:28;C/IN;
2017003;Nelia E. Germedia;26/01/2020;21:51:10;C/IN;
2019026;2019026;26/01/2020;21:51:42;C/IN;
2016035;Judy Lasay;26/01/2020;21:52:56;C/IN;
2017003;Nelia E. Germedia;26/01/2020;21:56:28;C/IN;
2018003;2018003;26/01/2020;21:58:31;C/IN;
2016029;Mary Joyce Santos;26/01/2020;22:00:09;C/OUT;
2019045;2019045;26/01/2020;22:00:13;C/OUT;
2017036;Joemar C;26/01/2020;22:00:24;C/OUT;
2019025;2019025;26/01/2020;22:00:30;C/OUT;
2019025;2019025;26/01/2020;22:00:34;C/OUT;
2019017;2019017;26/01/2020;22:01:31;C/OUT;
2018014;2018014;26/01/2020;22:01:54;C/OUT;
2018015;2018015;26/01/2020;22:02:02;C/OUT;
2019049;2019049;26/01/2020;22:03:18;C/OUT;
2018001;Orlan Relente;26/01/2020;22:03:39;C/OUT;
2006013;Lyn Dayame;26/01/2020;22:05:47;C/OUT;
2006013;Lyn Dayame;26/01/2020;22:05:50;C/OUT;
2018074;2018074;26/01/2020;22:13:09;C/OUT;
2006006;Rowena Jane  Arcilla;26/01/2020;22:19:25;C/IN;
2007007;Song Boen Lie;26/01/2020;22:23:41;C/IN;
2016017;Richard Nichole B. Megu;26/01/2020;22:28:08;C/IN;
2010012;Darlitio;26/01/2020;22:29:18;C/IN;
2009004;Margarita Rivera;26/01/2020;22:35:36;C/IN;
2009004;Margarita Rivera;26/01/2020;22:35:39;C/IN;
2009004;Margarita Rivera;26/01/2020;22:35:42;C/IN;
2019087;2019087;26/01/2020;22:35:48;C/IN;
2011003;Michelle Mangabat;26/01/2020;22:36:18;C/IN;
2018065;2018065;26/01/2020;22:36:58;C/IN;
2018029;2018029;26/01/2020;22:37:51;C/IN;
2016049;Lourie Jane Orellano;26/01/2020;22:38:59;C/IN;
2016040;Janice Borja;26/01/2020;22:39:02;C/IN;
2015002;Jerrel Joy Azuelo;26/01/2020;22:39:06;C/IN;
2010007;Elinea Mendoza;26/01/2020;22:39:15;C/IN;
2019022;2019022;26/01/2020;22:39:38;C/IN;
2018094;2018094;26/01/2020;22:39:43;C/IN;
2018026;2018026;26/01/2020;22:40:00;C/IN;
2015013;Babylyn Jolo;26/01/2020;22:40:23;C/IN;
2019037;2019037;26/01/2020;22:40:29;C/IN;
2018093;2018093;26/01/2020;22:40:57;C/IN;
2016062;Maricris Santos;26/01/2020;22:41:25;C/IN;
2012014;Mary Joy Calda;26/01/2020;22:41:33;C/IN;
2016078;Antonette Isorena;26/01/2020;22:41:48;C/IN;
2018028;2018028;26/01/2020;22:42:15;C/IN;
2009003;Liezl  Licop;26/01/2020;22:42:19;C/IN;
2016009;Rizzalie  Salabsab;26/01/2020;22:42:29;C/IN;
2018032;2018032;26/01/2020;22:42:32;C/IN;
2015015;Aiza Villania;26/01/2020;22:42:36;C/IN;
2016077;Precious Angelica Liban;26/01/2020;22:42:41;C/IN;
2017017;Jonah Jean Algura;26/01/2020;22:42:45;C/IN;
2019038;2019038;26/01/2020;22:42:49;C/IN;
2017023;Sharlotte Movilla;26/01/2020;22:42:53;C/IN;
2018061;2018061;26/01/2020;22:43:37;C/IN;
2016010;Jairah Santos;26/01/2020;22:44:28;C/IN;
2018094;2018094;26/01/2020;22:44:41;C/IN;
2018062;2018062;26/01/2020;22:45:10;C/OUT;
2018062;2018062;26/01/2020;22:45:11;C/IN;
2007002;Jannet Alvarez;26/01/2020;22:45:32;C/OUT;
2010011;Emily D. Daguman;26/01/2020;22:45:36;C/OUT;
2016037;Madel Adigue;26/01/2020;22:45:40;C/OUT;
2017065;Diane De Guzman;26/01/2020;22:46:19;C/OUT;
2011012;Ropin;26/01/2020;22:46:45;C/OUT;
2019062;2019062;26/01/2020;22:46:46;C/OUT;
2011012;Ropin;26/01/2020;22:46:46;C/IN;
2019062;2019062;26/01/2020;22:46:49;C/IN;
2006022;Martin Martin;26/01/2020;22:46:50;C/OUT;
2006022;Martin Martin;26/01/2020;22:46:51;C/IN;
2012006;Allyanna David;26/01/2020;22:47:05;C/OUT;
2016045;Aisha May Horca;26/01/2020;22:47:13;C/OUT;
2006007;Myleen Bautista;26/01/2020;22:47:23;C/OUT;
2012004;Aisa Anthonette Gudao;26/01/2020;22:47:30;C/OUT;
2017068;2017068;26/01/2020;22:48:46;C/OUT;
2013009;Maria Gurrobat;26/01/2020;22:48:59;C/OUT;
2014004;Lee-Ann Lagahit;26/01/2020;22:49:14;C/OUT;
2019009;2019009;26/01/2020;22:50:56;C/OUT;
2015009;Richelle Balbeja;26/01/2020;22:51:06;C/OUT;
2018096;2018096;26/01/2020;22:51:27;C/OUT;
2017059;2017059;26/01/2020;22:51:41;C/OUT;
2017460;2017460;26/01/2020;22:51:48;C/OUT;
2006009;Aileen Sacdalan;26/01/2020;22:52:02;C/OUT;
2018091;2018091;26/01/2020;22:52:29;C/OUT;
2019012;2019012;26/01/2020;22:52:59;C/OUT;
2015018;Jhanet Rose Viray;26/01/2020;22:53:14;C/OUT;
2006004;Evelyn L. Latuga;26/01/2020;22:53:37;C/OUT;
2017018;Melissa Andaya;26/01/2020;22:53:45;C/OUT;
2019074;2019074;26/01/2020;22:54:14;C/OUT;
2018034;2018034;26/01/2020;22:54:40;C/OUT;
2017055;2017055;26/01/2020;22:54:44;C/OUT;
2016001;Ronilyn  Bechayda;26/01/2020;22:56:34;C/OUT;
2014012;Joana Marie Ondoy;26/01/2020;22:56:39;C/OUT;
2015027;Rosemin Flores;26/01/2020;22:57:28;C/OUT;
2016047;Melly Zablan;26/01/2020;22:58:47;C/OUT;
2019061;2019061;26/01/2020;22:59:30;C/OUT;
2018059;2018059;26/01/2020;22:59:35;C/OUT;
2018082;2018082;26/01/2020;23:01:48;C/OUT;
2016020;Michael Jordan Parungao;26/01/2020;23:17:19;C/OUT;
2018041;2018041;26/01/2020;23:17:46;C/OUT;
2019089;2019089;26/01/2020;23:21:16;C/OUT;
2019021;2019021;26/01/2020;23:22:31;C/OUT;
2018038;2018038;26/01/2020;00:02:09;C/OUT;
2016081;John Caleb Espanola;26/01/2020;00:10:37;C/OUT;
2015073;Antonito Tolin;26/01/2020;00:16:44;C/OUT;
2019063;2019063;26/01/2020;02:23:38;C/OUT;
2016045;Aisha May Horca;26/01/2020;02:45:05;C/OUT;
2019074;2019074;26/01/2020;02:45:09;C/OUT;
2010005;Joanna Marie  Agregado;26/01/2020;02:45:18;C/OUT;
2015018;Jhanet Rose Viray;26/01/2020;02:45:45;C/OUT;
2019048;2019048;26/01/2020;05:14:19;C/IN;
2017016;Karren  Gonzales;26/01/2020;05:17:13;C/IN;
2012018;Vincent  Caneza;26/01/2020;05:22:31;C/IN;
2017040;Geraldin;26/01/2020;05:25:06;C/IN;
2017040;Geraldin;26/01/2020;05:25:10;C/IN;
2018011;2018011;26/01/2020;05:28:59;C/IN;
2016036;Marivic  Lasay;26/01/2020;05:46:46;C/IN;
2018005;2018005;26/01/2020;05:48:05;C/IN;
2018005;2018005;26/01/2020;05:48:09;C/IN;
2018051;2018051;26/01/2020;05:50:35;C/IN;
2019069;2019069;26/01/2020;05:53:19;C/IN;
2018071;2018071;26/01/2020;05:57:28;C/IN;
2016035;Judy Lasay;26/01/2020;06:01:21;C/OUT;
2019064;2019064;26/01/2020;06:02:13;C/OUT;
2017003;Nelia E. Germedia;26/01/2020;06:02:17;C/OUT;
2018075;2018075;26/01/2020;06:02:39;C/OUT;
2018104;2018104;26/01/2020;06:04:10;C/IN;
2019047;2019047;26/01/2020;06:17:55;C/IN;
2018010;2018010;26/01/2020;06:18:01;C/IN;
2017037;Kristian;26/01/2020;06:19:57;C/IN;
2017037;Kristian;26/01/2020;06:20:00;C/IN;
2016018;Rejelle  Corpuz;26/01/2020;06:26:06;C/IN;
2015094;2015094;26/01/2020;06:26:44;C/IN;
2017033;Mico Gumilao;26/01/2020;06:31:16;C/IN;
2017033;Mico Gumilao;26/01/2020;06:31:19;C/IN;
2018097;2018097;26/01/2020;06:32:35;C/IN;
2018097;2018097;26/01/2020;06:32:39;C/IN;
2018021;2018021;26/01/2020;06:32:47;C/IN;
2018045;2018045;26/01/2020;06:33:27;C/IN;
2008003;Rowena Sayo;26/01/2020;06:35:04;C/IN;
2008005;Catherine Taruc;26/01/2020;06:37:03;C/IN;
2015041;Karen Grace  Santos;26/01/2020;06:37:44;C/IN;
2008001;Visna Cabrera;26/01/2020;06:38:46;C/IN;
2014015;Garlie Jane Walican;26/01/2020;06:39:32;C/IN;
2017046;John Paulo Reyes;26/01/2020;06:39:37;C/IN;
2019007;2019007;26/01/2020;06:40:44;C/IN;
2017070;2017070;26/01/2020;06:40:51;C/IN;
2014006;Jean Pascual;26/01/2020;06:41:12;C/IN;
2016044;Vina Estrelle Garcia;26/01/2020;06:41:31;C/IN;
2006020;Edi Oei;26/01/2020;06:41:33;C/IN;
2006020;Edi Oei;26/01/2020;06:41:34;C/IN;
2019084;2019084;26/01/2020;06:41:38;C/IN;
2015019;Kimberlyn Bondoc;26/01/2020;06:41:50;C/IN;
2017053;2017053;26/01/2020;06:41:59;C/IN;
2019036;2019036;26/01/2020;06:42:08;C/IN;
2019076;2019076;26/01/2020;06:42:12;C/IN;
2019001;2019001;26/01/2020;06:42:18;C/IN;
2018088;2018088;26/01/2020;06:42:35;C/IN;
2006005;Jonalyn Luna;26/01/2020;06:42:47;C/IN;
2018089;2018089;26/01/2020;06:42:50;C/IN;
2018095;2018095;26/01/2020;06:42:53;C/IN;
2019031;2019031;26/01/2020;06:42:57;C/IN;
2018063;2018063;26/01/2020;06:43:11;C/IN;
2018030;2018030;26/01/2020;06:43:15;C/IN;
2010006;Catherine Cunanan;26/01/2020;06:43:19;C/IN;
2019059;2019059;26/01/2020;06:43:23;C/IN;
2019044;2019044;26/01/2020;06:43:26;C/IN;
2010008;2010008;26/01/2020;06:43:29;C/IN;
2014016;Narlin Zhang;26/01/2020;06:43:32;C/IN;
2012002;Lotlot Flores;26/01/2020;06:43:36;C/IN;
2006008;Malu Sigua;26/01/2020;06:43:41;C/IN;
2019078;2019078;26/01/2020;06:43:49;C/IN;
2012008;Janine Magracia;26/01/2020;06:43:54;C/IN;
2018060;2018060;26/01/2020;06:44:05;C/IN;
2010010;Mae  Aguanza;26/01/2020;06:44:12;C/IN;
2016014;Jhovielyn Diane Villarba;26/01/2020;06:44:18;C/IN;
2007005;Maricris Severo;26/01/2020;06:44:23;C/IN;
2009005;Mary Rose Gicaraya;26/01/2020;06:44:51;C/IN;
2018094;2018094;26/01/2020;06:45:21;C/OUT;
2010012;Darlitio;26/01/2020;06:45:35;C/OUT;
2007007;Song Boen Lie;26/01/2020;06:45:47;C/OUT;
2016010;Jairah Santos;26/01/2020;06:46:29;C/OUT;
2017052;2017052;26/01/2020;06:46:40;C/OUT;
2017017;Jonah Jean Algura;26/01/2020;06:47:07;C/OUT;
2018053;2018053;26/01/2020;06:47:10;C/IN;
2018065;2018065;26/01/2020;06:48:11;C/OUT;
2019062;2019062;26/01/2020;06:50:06;C/OUT;
2018029;2018029;26/01/2020;06:51:13;C/OUT;
2019037;2019037;26/01/2020;06:52:04;C/OUT;
2006006;Rowena Jane  Arcilla;26/01/2020;06:52:40;C/OUT;
2019081;2019081;26/01/2020;06:53:23;C/OUT;
2016062;Maricris Santos;26/01/2020;06:55:16;C/OUT;
2017025;Julie Ann Recaido;26/01/2020;06:55:54;C/OUT;
2016098;Adi Gunawan;26/01/2020;06:55:56;C/IN;
2015028;Diana Galang;26/01/2020;06:56:32;C/OUT;
2015028;Diana Galang;26/01/2020;06:56:36;C/OUT;
2018028;2018028;26/01/2020;06:56:50;C/OUT;
2016078;Antonette Isorena;26/01/2020;06:58:15;C/OUT;
2018032;2018032;26/01/2020;06:59:09;C/OUT;
2013005;Nikki Jean Vincoy;26/01/2020;06:59:27;C/OUT;
2016016;Jessie John Janairo;26/01/2020;07:00:06;C/IN;
2018026;2018026;26/01/2020;07:00:53;C/OUT;
2019023;2019023;26/01/2020;07:01:17;C/OUT;
2012023;Leonardo  Delos Santos;26/01/2020;07:01:25;C/OUT;
2012023;Leonardo  Delos Santos;26/01/2020;07:01:29;C/OUT;
2015015;Aiza Villania;26/01/2020;07:02:24;C/OUT;
2011003;Michelle Mangabat;26/01/2020;07:03:02;C/OUT;
2016094;Franz Kevin R. Loayon;26/01/2020;07:06:42;C/OUT;
2019016;2019016;26/01/2020;07:06:50;C/OUT;
2010007;Elinea Mendoza;26/01/2020;07:07:15;C/OUT;
2009004;Margarita Rivera;26/01/2020;07:10:05;C/OUT;
2009004;Margarita Rivera;26/01/2020;07:10:09;C/OUT;
2012014;Mary Joy Calda;26/01/2020;07:10:13;C/OUT;
2012012;Barbette Talag;26/01/2020;07:10:18;C/OUT;
2009003;Liezl  Licop;26/01/2020;07:10:23;C/OUT;
2018086;2018086;26/01/2020;07:10:29;C/IN;
2018099;2018099;26/01/2020;07:10:55;C/OUT;
2006011;Maureen Lintag;26/01/2020;07:11:19;C/OUT;
2017023;Sharlotte Movilla;26/01/2020;07:12:19;C/OUT;
2019038;2019038;26/01/2020;07:12:32;C/OUT;
2019054;2019054;26/01/2020;07:16:09;C/OUT;
2018093;2018093;26/01/2020;07:16:48;C/OUT;
2019022;2019022;26/01/2020;07:17:38;C/OUT;
2008007;Tobias Lawiarso;26/01/2020;07:19:01;C/IN;
2016040;Janice Borja;26/01/2020;07:31:33;C/OUT;
2018047;2018047;26/01/2020;08:02:31;C/IN;
2009008;Eko Nugroho Tandijono;26/01/2020;08:14:03;C/IN;
2017004;Elena Gallanes;26/01/2020;08:51:37;C/IN;
2017004;Elena Gallanes;26/01/2020;08:51:45;C/IN;
2011013;Harley Wongso;26/01/2020;08:58:15;C/IN;
2015074;Neil Saquin;26/01/2020;09:02:23;C/IN;
2015073;Antonito Tolin;26/01/2020;11:28:33;C/IN;
2018001;Orlan Relente;26/01/2020;11:37:12;C/IN;
2019025;2019025;26/01/2020;12:19:53;C/IN;
2019025;2019025;26/01/2020;12:19:56;C/IN;
2019045;2019045;26/01/2020;12:49:50;C/IN;
2016029;Mary Joyce Santos;26/01/2020;13:10:34;C/IN;
2018074;2018074;26/01/2020;13:29:57;C/IN;
2016020;Michael Jordan Parungao;26/01/2020;13:40:32;C/IN;
2017036;Joemar C;26/01/2020;13:42:58;C/IN;
2019017;2019017;26/01/2020;13:48:25;C/IN;
2018014;2018014;26/01/2020;13:49:26;C/IN;
2019089;2019089;26/01/2020;13:50:25;C/IN;
2019049;2019049;26/01/2020;13:52:38;C/IN;
2019049;2019049;26/01/2020;13:52:43;C/IN;
2018015;2018015;26/01/2020;13:53:38;C/IN;
2006013;Lyn Dayame;26/01/2020;13:56:35;C/IN;
2006013;Lyn Dayame;26/01/2020;13:56:38;C/IN;
2017016;Karren  Gonzales;26/01/2020;14:00:06;C/OUT;
2017040;Geraldin;26/01/2020;14:00:16;C/OUT;
2018005;2018005;26/01/2020;14:00:20;C/OUT;
2018011;2018011;26/01/2020;14:00:27;C/OUT;
2016036;Marivic  Lasay;26/01/2020;14:01:04;C/OUT;
2018071;2018071;26/01/2020;14:02:10;C/OUT;
2019048;2019048;26/01/2020;14:05:09;C/OUT;
2018051;2018051;26/01/2020;14:14:06;C/OUT;
2018013;2018013;26/01/2020;14:15:47;C/IN;
2018104;2018104;26/01/2020;14:22:27;C/OUT;
2018104;2018104;26/01/2020;14:22:28;C/IN;
2006022;Martin Martin;26/01/2020;14:27:28;C/OUT;
2006022;Martin Martin;26/01/2020;14:27:30;C/IN;
2017460;2017460;26/01/2020;14:27:34;C/IN;
2019077;2019077;26/01/2020;14:28:09;C/IN;
2019021;2019021;26/01/2020;14:29:09;C/IN;
2018041;2018041;26/01/2020;14:29:13;C/IN;
2006009;Aileen Sacdalan;26/01/2020;14:30:08;C/IN;
2019057;2019057;26/01/2020;14:31:08;C/IN;
2006007;Myleen Bautista;26/01/2020;14:32:10;C/IN;
2019074;2019074;26/01/2020;14:35:56;C/IN;
2018091;2018091;26/01/2020;14:36:06;C/IN;
2018090;2018090;26/01/2020;14:38:22;C/IN;
2018059;2018059;26/01/2020;14:38:37;C/IN;
2017065;Diane De Guzman;26/01/2020;14:39:09;C/IN;
2006004;Evelyn L. Latuga;26/01/2020;14:39:28;C/IN;
2019012;2019012;26/01/2020;14:39:37;C/IN;
2018062;2018062;26/01/2020;14:39:41;C/IN;
2012004;Aisa Anthonette Gudao;26/01/2020;14:39:46;C/IN;
2016045;Aisha May Horca;26/01/2020;14:40:01;C/IN;
2007002;Jannet Alvarez;26/01/2020;14:40:15;C/IN;
2018096;2018096;26/01/2020;14:40:20;C/IN;
2017055;2017055;26/01/2020;14:40:54;C/IN;
2015009;Richelle Balbeja;26/01/2020;14:41:25;C/IN;
2019005;2019005;26/01/2020;14:41:38;C/IN;
2017059;2017059;26/01/2020;14:41:59;C/IN;
2019012;2019012;26/01/2020;14:42:04;C/IN;
2016001;Ronilyn  Bechayda;26/01/2020;14:42:18;C/IN;
2014004;Lee-Ann Lagahit;26/01/2020;14:42:21;C/IN;
2015027;Rosemin Flores;26/01/2020;14:42:25;C/IN;
2018091;2018091;26/01/2020;14:42:28;C/IN;
2018034;2018034;26/01/2020;14:42:33;C/IN;
2016047;Melly Zablan;26/01/2020;14:42:40;C/IN;
2019009;2019009;26/01/2020;14:42:44;C/IN;
2015018;Jhanet Rose Viray;26/01/2020;14:42:48;C/IN;
2018082;2018082;26/01/2020;14:42:53;C/IN;
2017018;Melissa Andaya;26/01/2020;14:43:01;C/IN;
2016037;Madel Adigue;26/01/2020;14:43:05;C/IN;
2015033;Caryl Anne Nocum;26/01/2020;14:43:08;C/IN;
2017068;2017068;26/01/2020;14:43:11;C/IN;
2012006;Allyanna David;26/01/2020;14:43:14;C/IN;
2010011;Emily D. Daguman;26/01/2020;14:43:18;C/IN;
2014012;Joana Marie Ondoy;26/01/2020;14:43:29;C/IN;
2019061;2019061;26/01/2020;14:43:43;C/IN;
2017070;2017070;26/01/2020;14:45:26;C/OUT;
2008005;Catherine Taruc;26/01/2020;14:45:35;C/OUT;
2010008;2010008;26/01/2020;14:46:43;C/OUT;
2018086;2018086;26/01/2020;14:47:04;C/OUT;
2012008;Janine Magracia;26/01/2020;14:47:33;C/OUT;
2006020;Edi Oei;26/01/2020;14:47:58;C/OUT;
2006020;Edi Oei;26/01/2020;14:47:59;C/IN;
2019007;2019007;26/01/2020;14:49:14;C/OUT;
2014015;Garlie Jane Walican;26/01/2020;14:50:00;C/OUT;
2014016;Narlin Zhang;26/01/2020;14:50:48;C/OUT;
2008003;Rowena Sayo;26/01/2020;14:51:18;C/OUT;
2018010;2018010;26/01/2020;14:51:31;C/OUT;
2019001;2019001;26/01/2020;14:51:44;C/OUT;
2013009;Maria Gurrobat;26/01/2020;14:52:20;C/IN;
2018095;2018095;26/01/2020;14:52:30;C/OUT;
2018089;2018089;26/01/2020;14:52:34;C/OUT;
2018088;2018088;26/01/2020;14:53:10;C/OUT;
2018088;2018088;26/01/2020;14:53:11;C/IN;
2019031;2019031;26/01/2020;14:53:19;C/OUT;
2019044;2019044;26/01/2020;14:53:44;C/OUT;
2012002;Lotlot Flores;26/01/2020;14:53:52;C/OUT;
2010010;Mae  Aguanza;26/01/2020;14:54:37;C/OUT;
2007005;Maricris Severo;26/01/2020;14:54:52;C/OUT;
2019078;2019078;26/01/2020;14:55:18;C/OUT;
2019076;2019076;26/01/2020;14:55:23;C/OUT;
2019084;2019084;26/01/2020;14:55:48;C/OUT;
2018060;2018060;26/01/2020;14:56:46;C/OUT;
2015019;Kimberlyn Bondoc;26/01/2020;14:57:29;C/OUT;
2014006;Jean Pascual;26/01/2020;14:57:42;C/OUT;
2016044;Vina Estrelle Garcia;26/01/2020;14:57:56;C/OUT;
2016014;Jhovielyn Diane Villarba;26/01/2020;14:58:00;C/OUT;
2010008;2010008;26/01/2020;14:58:04;C/OUT;
2010006;Catherine Cunanan;26/01/2020;14:58:09;C/OUT;
2012018;Vincent  Caneza;26/01/2020;15:00:20;C/OUT;
2017037;Kristian;26/01/2020;15:00:26;C/OUT;
2019036;2019036;26/01/2020;15:00:30;C/OUT;
2015041;Karen Grace  Santos;26/01/2020;15:00:35;C/OUT;
2016098;Adi Gunawan;26/01/2020;15:01:44;C/OUT;
2018030;2018030;26/01/2020;15:02:10;C/OUT;
2019069;2019069;26/01/2020;15:02:36;C/OUT;
2017033;Mico Gumilao;26/01/2020;15:03:47;C/OUT;
2017033;Mico Gumilao;26/01/2020;15:03:51;C/OUT;
2018021;2018021;26/01/2020;15:03:55;C/OUT;
2006005;Jonalyn Luna;26/01/2020;15:04:21;C/OUT;
2009005;Mary Rose Gicaraya;26/01/2020;15:04:26;C/OUT;
2009005;Mary Rose Gicaraya;26/01/2020;15:04:32;C/OUT;
2017053;2017053;26/01/2020;15:04:36;C/OUT;
2017046;John Paulo Reyes;26/01/2020;15:04:41;C/OUT;
2018053;2018053;26/01/2020;15:05:26;C/OUT;
2006008;Malu Sigua;26/01/2020;15:05:55;C/OUT;
2019047;2019047;26/01/2020;15:15:41;C/OUT;
2015094;2015094;26/01/2020;15:16:16;C/OUT;
2016018;Rejelle  Corpuz;26/01/2020;15:16:27;C/OUT;
2016016;Jessie John Janairo;26/01/2020;15:16:38;C/OUT;
2019059;2019059;26/01/2020;15:20:58;C/OUT;
2008001;Visna Cabrera;26/01/2020;16:00:34;C/OUT;
2018045;2018045;26/01/2020;16:04:05;C/OUT;
2009008;Eko Nugroho Tandijono;26/01/2020;16:24:03;C/OUT;
2018097;2018097;26/01/2020;17:02:07;C/OUT;
2018097;2018097;26/01/2020;17:02:10;C/OUT;
2017004;Elena Gallanes;26/01/2020;17:03:38;C/OUT;
2018047;2018047;26/01/2020;17:04:59;C/OUT;
2018047;2018047;26/01/2020;17:05:00;C/IN;
2018047;2018047;26/01/2020;17:05:02;C/OUT;
2018047;2018047;26/01/2020;17:05:03;C/IN;
2011013;Harley Wongso;26/01/2020;17:10:24;C/OUT;
2015074;Neil Saquin;26/01/2020;19:02:11;C/OUT;
2018063;2018063;26/01/2020;19:03:19;C/OUT;
2018050;2018050;26/01/2020;20:41:40;C/IN;
2012023;Leonardo  Delos Santos;26/01/2020;20:41:50;C/IN;
2012023;Leonardo  Delos Santos;26/01/2020;20:41:56;C/IN;
2018048;2018048;26/01/2020;21:01:54;C/IN;
2018075;2018075;26/01/2020;21:12:34;C/IN;
2016059;Paul Anthony Nuguit;26/01/2020;21:17:52;C/IN;
2018099;2018099;26/01/2020;21:19:25;C/IN;
2015073;Antonito Tolin;26/01/2020;21:22:30;C/OUT;
2016094;Franz Kevin R. Loayon;26/01/2020;21:42:33;C/IN;
2016094;Franz Kevin R. Loayon;26/01/2020;21:42:37;C/IN;
2016094;Franz Kevin R. Loayon;26/01/2020;21:42:42;C/IN;
2006011;Maureen Lintag;26/01/2020;21:50:28;C/IN;
2017003;Nelia E. Germedia;26/01/2020;21:51:10;C/IN;
2019026;2019026;26/01/2020;21:51:42;C/IN;
2016035;Judy Lasay;26/01/2020;21:52:56;C/IN;
2017003;Nelia E. Germedia;26/01/2020;21:56:28;C/IN;
2018003;2018003;26/01/2020;21:58:31;C/IN;
2016029;Mary Joyce Santos;26/01/2020;22:00:09;C/OUT;
2019045;2019045;26/01/2020;22:00:13;C/OUT;
2017036;Joemar C;26/01/2020;22:00:24;C/OUT;
2019025;2019025;26/01/2020;22:00:30;C/OUT;
2019025;2019025;26/01/2020;22:00:34;C/OUT;
2019017;2019017;26/01/2020;22:01:31;C/OUT;
2018014;2018014;26/01/2020;22:01:54;C/OUT;
2018015;2018015;26/01/2020;22:02:02;C/OUT;
2019049;2019049;26/01/2020;22:03:18;C/OUT;
2018001;Orlan Relente;26/01/2020;22:03:39;C/OUT;
2006013;Lyn Dayame;26/01/2020;22:05:47;C/OUT;
2006013;Lyn Dayame;26/01/2020;22:05:50;C/OUT;
2018074;2018074;26/01/2020;22:13:09;C/OUT;
2006006;Rowena Jane  Arcilla;26/01/2020;22:19:25;C/IN;
2007007;Song Boen Lie;26/01/2020;22:23:41;C/IN;
2016017;Richard Nichole B. Megu;26/01/2020;22:28:08;C/IN;
2010012;Darlitio;26/01/2020;22:29:18;C/IN;
2009004;Margarita Rivera;26/01/2020;22:35:36;C/IN;
2009004;Margarita Rivera;26/01/2020;22:35:39;C/IN;
2009004;Margarita Rivera;26/01/2020;22:35:42;C/IN;
2019087;2019087;26/01/2020;22:35:48;C/IN;
2011003;Michelle Mangabat;26/01/2020;22:36:18;C/IN;
2018065;2018065;26/01/2020;22:36:58;C/IN;
2018029;2018029;26/01/2020;22:37:51;C/IN;
2016049;Lourie Jane Orellano;26/01/2020;22:38:59;C/IN;
2016040;Janice Borja;26/01/2020;22:39:02;C/IN;
2015002;Jerrel Joy Azuelo;26/01/2020;22:39:06;C/IN;
2010007;Elinea Mendoza;26/01/2020;22:39:15;C/IN;
2019022;2019022;26/01/2020;22:39:38;C/IN;
2018094;2018094;26/01/2020;22:39:43;C/IN;
2018026;2018026;26/01/2020;22:40:00;C/IN;
2015013;Babylyn Jolo;26/01/2020;22:40:23;C/IN;
2019037;2019037;26/01/2020;22:40:29;C/IN;
2018093;2018093;26/01/2020;22:40:57;C/IN;
2016062;Maricris Santos;26/01/2020;22:41:25;C/IN;
2012014;Mary Joy Calda;26/01/2020;22:41:33;C/IN;
2016078;Antonette Isorena;26/01/2020;22:41:48;C/IN;
2018028;2018028;26/01/2020;22:42:15;C/IN;
2009003;Liezl  Licop;26/01/2020;22:42:19;C/IN;
2016009;Rizzalie  Salabsab;26/01/2020;22:42:29;C/IN;
2018032;2018032;26/01/2020;22:42:32;C/IN;
2015015;Aiza Villania;26/01/2020;22:42:36;C/IN;
2016077;Precious Angelica Liban;26/01/2020;22:42:41;C/IN;
2017017;Jonah Jean Algura;26/01/2020;22:42:45;C/IN;
2019038;2019038;26/01/2020;22:42:49;C/IN;
2017023;Sharlotte Movilla;26/01/2020;22:42:53;C/IN;
2018061;2018061;26/01/2020;22:43:37;C/IN;
2016010;Jairah Santos;26/01/2020;22:44:28;C/IN;
2018094;2018094;26/01/2020;22:44:41;C/IN;
2018062;2018062;26/01/2020;22:45:10;C/OUT;
2018062;2018062;26/01/2020;22:45:11;C/IN;
2007002;Jannet Alvarez;26/01/2020;22:45:32;C/OUT;
2010011;Emily D. Daguman;26/01/2020;22:45:36;C/OUT;
2016037;Madel Adigue;26/01/2020;22:45:40;C/OUT;
2017065;Diane De Guzman;26/01/2020;22:46:19;C/OUT;
2011012;Ropin;26/01/2020;22:46:45;C/OUT;
2019062;2019062;26/01/2020;22:46:46;C/OUT;
2011012;Ropin;26/01/2020;22:46:46;C/IN;
2019062;2019062;26/01/2020;22:46:49;C/IN;
2006022;Martin Martin;26/01/2020;22:46:50;C/OUT;
2006022;Martin Martin;26/01/2020;22:46:51;C/IN;
2012006;Allyanna David;26/01/2020;22:47:05;C/OUT;
2016045;Aisha May Horca;26/01/2020;22:47:13;C/OUT;
2006007;Myleen Bautista;26/01/2020;22:47:23;C/OUT;
2012004;Aisa Anthonette Gudao;26/01/2020;22:47:30;C/OUT;
2017068;2017068;26/01/2020;22:48:46;C/OUT;
2013009;Maria Gurrobat;26/01/2020;22:48:59;C/OUT;
2014004;Lee-Ann Lagahit;26/01/2020;22:49:14;C/OUT;
2019009;2019009;26/01/2020;22:50:56;C/OUT;
2015009;Richelle Balbeja;26/01/2020;22:51:06;C/OUT;
2018096;2018096;26/01/2020;22:51:27;C/OUT;
2017059;2017059;26/01/2020;22:51:41;C/OUT;
2017460;2017460;26/01/2020;22:51:48;C/OUT;
2006009;Aileen Sacdalan;26/01/2020;22:52:02;C/OUT;
2018091;2018091;26/01/2020;22:52:29;C/OUT;
2019012;2019012;26/01/2020;22:52:59;C/OUT;
2015018;Jhanet Rose Viray;26/01/2020;22:53:14;C/OUT;
2006004;Evelyn L. Latuga;26/01/2020;22:53:37;C/OUT;
2017018;Melissa Andaya;26/01/2020;22:53:45;C/OUT;
2019074;2019074;26/01/2020;22:54:14;C/OUT;
2018034;2018034;26/01/2020;22:54:40;C/OUT;
2017055;2017055;26/01/2020;22:54:44;C/OUT;
2016001;Ronilyn  Bechayda;26/01/2020;22:56:34;C/OUT;
2014012;Joana Marie Ondoy;26/01/2020;22:56:39;C/OUT;
2015027;Rosemin Flores;26/01/2020;22:57:28;C/OUT;
2016047;Melly Zablan;26/01/2020;22:58:47;C/OUT;
2019061;2019061;26/01/2020;22:59:30;C/OUT;
2018059;2018059;26/01/2020;22:59:35;C/OUT;
2018082;2018082;26/01/2020;23:01:48;C/OUT;
2016020;Michael Jordan Parungao;26/01/2020;23:17:19;C/OUT;
2018041;2018041;26/01/2020;23:17:46;C/OUT;
2019089;2019089;26/01/2020;23:21:16;C/OUT;
2019021;2019021;26/01/2020;23:22:31;C/OUT;
2018038;2018038;26/01/2020;00:02:09;C/OUT;
2016081;John Caleb Espanola;26/01/2020;00:10:37;C/OUT;
2015073;Antonito Tolin;26/01/2020;00:16:44;C/OUT;
2019063;2019063;26/01/2020;02:23:38;C/OUT;
2016045;Aisha May Horca;26/01/2020;02:45:05;C/OUT;
2019074;2019074;26/01/2020;02:45:09;C/OUT;
2010005;Joanna Marie  Agregado;26/01/2020;02:45:18;C/OUT;
2015018;Jhanet Rose Viray;26/01/2020;02:45:45;C/OUT;
2019048;2019048;26/01/2020;05:14:19;C/IN;
2017016;Karren  Gonzales;26/01/2020;05:17:13;C/IN;
2012018;Vincent  Caneza;26/01/2020;05:22:31;C/IN;
2017040;Geraldin;26/01/2020;05:25:06;C/IN;
2017040;Geraldin;26/01/2020;05:25:10;C/IN;
2018011;2018011;26/01/2020;05:28:59;C/IN;
2016036;Marivic  Lasay;26/01/2020;05:46:46;C/IN;
2018005;2018005;26/01/2020;05:48:05;C/IN;
2018005;2018005;26/01/2020;05:48:09;C/IN;
2018051;2018051;26/01/2020;05:50:35;C/IN;
2019069;2019069;26/01/2020;05:53:19;C/IN;
2018071;2018071;26/01/2020;05:57:28;C/IN;
2016035;Judy Lasay;26/01/2020;06:01:21;C/OUT;
2019064;2019064;26/01/2020;06:02:13;C/OUT;
2017003;Nelia E. Germedia;26/01/2020;06:02:17;C/OUT;
2018075;2018075;26/01/2020;06:02:39;C/OUT;
2018104;2018104;26/01/2020;06:04:10;C/IN;
2019047;2019047;26/01/2020;06:17:55;C/IN;
2018010;2018010;26/01/2020;06:18:01;C/IN;
2017037;Kristian;26/01/2020;06:19:57;C/IN;
2017037;Kristian;26/01/2020;06:20:00;C/IN;
2016018;Rejelle  Corpuz;26/01/2020;06:26:06;C/IN;
2015094;2015094;26/01/2020;06:26:44;C/IN;
2017033;Mico Gumilao;26/01/2020;06:31:16;C/IN;
2017033;Mico Gumilao;26/01/2020;06:31:19;C/IN;
2018097;2018097;26/01/2020;06:32:35;C/IN;
2018097;2018097;26/01/2020;06:32:39;C/IN;
2018021;2018021;26/01/2020;06:32:47;C/IN;
2018045;2018045;26/01/2020;06:33:27;C/IN;
2008003;Rowena Sayo;26/01/2020;06:35:04;C/IN;
2008005;Catherine Taruc;26/01/2020;06:37:03;C/IN;
2015041;Karen Grace  Santos;26/01/2020;06:37:44;C/IN;
2008001;Visna Cabrera;26/01/2020;06:38:46;C/IN;
2014015;Garlie Jane Walican;26/01/2020;06:39:32;C/IN;
2017046;John Paulo Reyes;26/01/2020;06:39:37;C/IN;
2019007;2019007;26/01/2020;06:40:44;C/IN;
2017070;2017070;26/01/2020;06:40:51;C/IN;
2014006;Jean Pascual;26/01/2020;06:41:12;C/IN;
2016044;Vina Estrelle Garcia;26/01/2020;06:41:31;C/IN;
2006020;Edi Oei;26/01/2020;06:41:33;C/IN;
2006020;Edi Oei;26/01/2020;06:41:34;C/IN;
2019084;2019084;26/01/2020;06:41:38;C/IN;
2015019;Kimberlyn Bondoc;26/01/2020;06:41:50;C/IN;
2017053;2017053;26/01/2020;06:41:59;C/IN;
2019036;2019036;26/01/2020;06:42:08;C/IN;
2019076;2019076;26/01/2020;06:42:12;C/IN;
2019001;2019001;26/01/2020;06:42:18;C/IN;
2018088;2018088;26/01/2020;06:42:35;C/IN;
2006005;Jonalyn Luna;26/01/2020;06:42:47;C/IN;
2018089;2018089;26/01/2020;06:42:50;C/IN;
2018095;2018095;26/01/2020;06:42:53;C/IN;
2019031;2019031;26/01/2020;06:42:57;C/IN;
2018063;2018063;26/01/2020;06:43:11;C/IN;
2018030;2018030;26/01/2020;06:43:15;C/IN;
2010006;Catherine Cunanan;26/01/2020;06:43:19;C/IN;
2019059;2019059;26/01/2020;06:43:23;C/IN;
2019044;2019044;26/01/2020;06:43:26;C/IN;
2010008;2010008;26/01/2020;06:43:29;C/IN;
2014016;Narlin Zhang;26/01/2020;06:43:32;C/IN;
2012002;Lotlot Flores;26/01/2020;06:43:36;C/IN;
2006008;Malu Sigua;26/01/2020;06:43:41;C/IN;
2019078;2019078;26/01/2020;06:43:49;C/IN;
2012008;Janine Magracia;26/01/2020;06:43:54;C/IN;
2018060;2018060;26/01/2020;06:44:05;C/IN;
2010010;Mae  Aguanza;26/01/2020;06:44:12;C/IN;
2016014;Jhovielyn Diane Villarba;26/01/2020;06:44:18;C/IN;
2007005;Maricris Severo;26/01/2020;06:44:23;C/IN;
2009005;Mary Rose Gicaraya;26/01/2020;06:44:51;C/IN;
2018094;2018094;26/01/2020;06:45:21;C/OUT;
2010012;Darlitio;26/01/2020;06:45:35;C/OUT;
2007007;Song Boen Lie;26/01/2020;06:45:47;C/OUT;
2016010;Jairah Santos;26/01/2020;06:46:29;C/OUT;
2017052;2017052;26/01/2020;06:46:40;C/OUT;
2017017;Jonah Jean Algura;26/01/2020;06:47:07;C/OUT;
2018053;2018053;26/01/2020;06:47:10;C/IN;
2018065;2018065;26/01/2020;06:48:11;C/OUT;
2019062;2019062;26/01/2020;06:50:06;C/OUT;
2018029;2018029;26/01/2020;06:51:13;C/OUT;
2019037;2019037;26/01/2020;06:52:04;C/OUT;
2006006;Rowena Jane  Arcilla;26/01/2020;06:52:40;C/OUT;
2019081;2019081;26/01/2020;06:53:23;C/OUT;
2016062;Maricris Santos;26/01/2020;06:55:16;C/OUT;
2017025;Julie Ann Recaido;26/01/2020;06:55:54;C/OUT;
2016098;Adi Gunawan;26/01/2020;06:55:56;C/IN;
2015028;Diana Galang;26/01/2020;06:56:32;C/OUT;
2015028;Diana Galang;26/01/2020;06:56:36;C/OUT;
2018028;2018028;26/01/2020;06:56:50;C/OUT;
2016078;Antonette Isorena;26/01/2020;06:58:15;C/OUT;
2018032;2018032;26/01/2020;06:59:09;C/OUT;
2013005;Nikki Jean Vincoy;26/01/2020;06:59:27;C/OUT;
2016016;Jessie John Janairo;26/01/2020;07:00:06;C/IN;
2018026;2018026;26/01/2020;07:00:53;C/OUT;
2019023;2019023;26/01/2020;07:01:17;C/OUT;
2012023;Leonardo  Delos Santos;26/01/2020;07:01:25;C/OUT;
2012023;Leonardo  Delos Santos;26/01/2020;07:01:29;C/OUT;
2015015;Aiza Villania;26/01/2020;07:02:24;C/OUT;
2011003;Michelle Mangabat;26/01/2020;07:03:02;C/OUT;
2016094;Franz Kevin R. Loayon;26/01/2020;07:06:42;C/OUT;
2019016;2019016;26/01/2020;07:06:50;C/OUT;
2010007;Elinea Mendoza;26/01/2020;07:07:15;C/OUT;
2009004;Margarita Rivera;26/01/2020;07:10:05;C/OUT;
2009004;Margarita Rivera;26/01/2020;07:10:09;C/OUT;
2012014;Mary Joy Calda;26/01/2020;07:10:13;C/OUT;
2012012;Barbette Talag;26/01/2020;07:10:18;C/OUT;
2009003;Liezl  Licop;26/01/2020;07:10:23;C/OUT;
2018086;2018086;26/01/2020;07:10:29;C/IN;
2018099;2018099;26/01/2020;07:10:55;C/OUT;
2006011;Maureen Lintag;26/01/2020;07:11:19;C/OUT;
2017023;Sharlotte Movilla;26/01/2020;07:12:19;C/OUT;
2019038;2019038;26/01/2020;07:12:32;C/OUT;
2019054;2019054;26/01/2020;07:16:09;C/OUT;
2018093;2018093;26/01/2020;07:16:48;C/OUT;
2019022;2019022;26/01/2020;07:17:38;C/OUT;
2008007;Tobias Lawiarso;26/01/2020;07:19:01;C/IN;
2016040;Janice Borja;26/01/2020;07:31:33;C/OUT;
2018047;2018047;26/01/2020;08:02:31;C/IN;
2009008;Eko Nugroho Tandijono;26/01/2020;08:14:03;C/IN;
2017004;Elena Gallanes;26/01/2020;08:51:37;C/IN;
2017004;Elena Gallanes;26/01/2020;08:51:45;C/IN;
2011013;Harley Wongso;26/01/2020;08:58:15;C/IN;
2015074;Neil Saquin;26/01/2020;09:02:23;C/IN;
2015073;Antonito Tolin;26/01/2020;11:28:33;C/IN;
2018001;Orlan Relente;26/01/2020;11:37:12;C/IN;
2019025;2019025;26/01/2020;12:19:53;C/IN;
2019025;2019025;26/01/2020;12:19:56;C/IN;
2019045;2019045;26/01/2020;12:49:50;C/IN;
2016029;Mary Joyce Santos;26/01/2020;13:10:34;C/IN;
2018074;2018074;26/01/2020;13:29:57;C/IN;
2016020;Michael Jordan Parungao;26/01/2020;13:40:32;C/IN;
2017036;Joemar C;26/01/2020;13:42:58;C/IN;
2019017;2019017;26/01/2020;13:48:25;C/IN;
2018014;2018014;26/01/2020;13:49:26;C/IN;
2019089;2019089;26/01/2020;13:50:25;C/IN;
2019049;2019049;26/01/2020;13:52:38;C/IN;
2019049;2019049;26/01/2020;13:52:43;C/IN;
2018015;2018015;26/01/2020;13:53:38;C/IN;
2006013;Lyn Dayame;26/01/2020;13:56:35;C/IN;
2006013;Lyn Dayame;26/01/2020;13:56:38;C/IN;
2017016;Karren  Gonzales;26/01/2020;14:00:06;C/OUT;
2017040;Geraldin;26/01/2020;14:00:16;C/OUT;
2018005;2018005;26/01/2020;14:00:20;C/OUT;
2018011;2018011;26/01/2020;14:00:27;C/OUT;
2016036;Marivic  Lasay;26/01/2020;14:01:04;C/OUT;
2018071;2018071;26/01/2020;14:02:10;C/OUT;
2019048;2019048;26/01/2020;14:05:09;C/OUT;
2018051;2018051;26/01/2020;14:14:06;C/OUT;
2018013;2018013;26/01/2020;14:15:47;C/IN;
2018104;2018104;26/01/2020;14:22:27;C/OUT;
2018104;2018104;26/01/2020;14:22:28;C/IN;
2006022;Martin Martin;26/01/2020;14:27:28;C/OUT;
2006022;Martin Martin;26/01/2020;14:27:30;C/IN;
2017460;2017460;26/01/2020;14:27:34;C/IN;
2019077;2019077;26/01/2020;14:28:09;C/IN;
2019021;2019021;26/01/2020;14:29:09;C/IN;
2018041;2018041;26/01/2020;14:29:13;C/IN;
2006009;Aileen Sacdalan;26/01/2020;14:30:08;C/IN;
2019057;2019057;26/01/2020;14:31:08;C/IN;
2006007;Myleen Bautista;26/01/2020;14:32:10;C/IN;
2019074;2019074;26/01/2020;14:35:56;C/IN;
2018091;2018091;26/01/2020;14:36:06;C/IN;
2018090;2018090;26/01/2020;14:38:22;C/IN;
2018059;2018059;26/01/2020;14:38:37;C/IN;
2017065;Diane De Guzman;26/01/2020;14:39:09;C/IN;
2006004;Evelyn L. Latuga;26/01/2020;14:39:28;C/IN;
2019012;2019012;26/01/2020;14:39:37;C/IN;
2018062;2018062;26/01/2020;14:39:41;C/IN;
2012004;Aisa Anthonette Gudao;26/01/2020;14:39:46;C/IN;
2016045;Aisha May Horca;26/01/2020;14:40:01;C/IN;
2007002;Jannet Alvarez;26/01/2020;14:40:15;C/IN;
2018096;2018096;26/01/2020;14:40:20;C/IN;
2017055;2017055;26/01/2020;14:40:54;C/IN;
2015009;Richelle Balbeja;26/01/2020;14:41:25;C/IN;
2019005;2019005;26/01/2020;14:41:38;C/IN;
2017059;2017059;26/01/2020;14:41:59;C/IN;
2019012;2019012;26/01/2020;14:42:04;C/IN;
2016001;Ronilyn  Bechayda;26/01/2020;14:42:18;C/IN;
2014004;Lee-Ann Lagahit;26/01/2020;14:42:21;C/IN;
2015027;Rosemin Flores;26/01/2020;14:42:25;C/IN;
2018091;2018091;26/01/2020;14:42:28;C/IN;
2018034;2018034;26/01/2020;14:42:33;C/IN;
2016047;Melly Zablan;26/01/2020;14:42:40;C/IN;
2019009;2019009;26/01/2020;14:42:44;C/IN;
2015018;Jhanet Rose Viray;26/01/2020;14:42:48;C/IN;
2018082;2018082;26/01/2020;14:42:53;C/IN;
2017018;Melissa Andaya;26/01/2020;14:43:01;C/IN;
2016037;Madel Adigue;26/01/2020;14:43:05;C/IN;
2015033;Caryl Anne Nocum;26/01/2020;14:43:08;C/IN;
2017068;2017068;26/01/2020;14:43:11;C/IN;
2012006;Allyanna David;26/01/2020;14:43:14;C/IN;
2010011;Emily D. Daguman;26/01/2020;14:43:18;C/IN;
2014012;Joana Marie Ondoy;26/01/2020;14:43:29;C/IN;
2019061;2019061;26/01/2020;14:43:43;C/IN;
2017070;2017070;26/01/2020;14:45:26;C/OUT;
2008005;Catherine Taruc;26/01/2020;14:45:35;C/OUT;
2010008;2010008;26/01/2020;14:46:43;C/OUT;
2018086;2018086;26/01/2020;14:47:04;C/OUT;
2012008;Janine Magracia;26/01/2020;14:47:33;C/OUT;
2006020;Edi Oei;26/01/2020;14:47:58;C/OUT;
2006020;Edi Oei;26/01/2020;14:47:59;C/IN;
2019007;2019007;26/01/2020;14:49:14;C/OUT;
2014015;Garlie Jane Walican;26/01/2020;14:50:00;C/OUT;
2014016;Narlin Zhang;26/01/2020;14:50:48;C/OUT;
2008003;Rowena Sayo;26/01/2020;14:51:18;C/OUT;
2018010;2018010;26/01/2020;14:51:31;C/OUT;
2019001;2019001;26/01/2020;14:51:44;C/OUT;
2013009;Maria Gurrobat;26/01/2020;14:52:20;C/IN;
2018095;2018095;26/01/2020;14:52:30;C/OUT;
2018089;2018089;26/01/2020;14:52:34;C/OUT;
2018088;2018088;26/01/2020;14:53:10;C/OUT;
2018088;2018088;26/01/2020;14:53:11;C/IN;
2019031;2019031;26/01/2020;14:53:19;C/OUT;
2019044;2019044;26/01/2020;14:53:44;C/OUT;
2012002;Lotlot Flores;26/01/2020;14:53:52;C/OUT;
2010010;Mae  Aguanza;26/01/2020;14:54:37;C/OUT;
2007005;Maricris Severo;26/01/2020;14:54:52;C/OUT;
2019078;2019078;26/01/2020;14:55:18;C/OUT;
2019076;2019076;26/01/2020;14:55:23;C/OUT;
2019084;2019084;26/01/2020;14:55:48;C/OUT;
2018060;2018060;26/01/2020;14:56:46;C/OUT;
2015019;Kimberlyn Bondoc;26/01/2020;14:57:29;C/OUT;
2014006;Jean Pascual;26/01/2020;14:57:42;C/OUT;
2016044;Vina Estrelle Garcia;26/01/2020;14:57:56;C/OUT;
2016014;Jhovielyn Diane Villarba;26/01/2020;14:58:00;C/OUT;
2010008;2010008;26/01/2020;14:58:04;C/OUT;
2010006;Catherine Cunanan;26/01/2020;14:58:09;C/OUT;
2012018;Vincent  Caneza;26/01/2020;15:00:20;C/OUT;
2017037;Kristian;26/01/2020;15:00:26;C/OUT;
2019036;2019036;26/01/2020;15:00:30;C/OUT;
2015041;Karen Grace  Santos;26/01/2020;15:00:35;C/OUT;
2016098;Adi Gunawan;26/01/2020;15:01:44;C/OUT;
2018030;2018030;26/01/2020;15:02:10;C/OUT;
2019069;2019069;26/01/2020;15:02:36;C/OUT;
2017033;Mico Gumilao;26/01/2020;15:03:47;C/OUT;
2017033;Mico Gumilao;26/01/2020;15:03:51;C/OUT;
2018021;2018021;26/01/2020;15:03:55;C/OUT;
2006005;Jonalyn Luna;26/01/2020;15:04:21;C/OUT;
2009005;Mary Rose Gicaraya;26/01/2020;15:04:26;C/OUT;
2009005;Mary Rose Gicaraya;26/01/2020;15:04:32;C/OUT;
2017053;2017053;26/01/2020;15:04:36;C/OUT;
2017046;John Paulo Reyes;26/01/2020;15:04:41;C/OUT;
2018053;2018053;26/01/2020;15:05:26;C/OUT;
2006008;Malu Sigua;26/01/2020;15:05:55;C/OUT;
2019047;2019047;26/01/2020;15:15:41;C/OUT;
2015094;2015094;26/01/2020;15:16:16;C/OUT;
2016018;Rejelle  Corpuz;26/01/2020;15:16:27;C/OUT;
2016016;Jessie John Janairo;26/01/2020;15:16:38;C/OUT;
2019059;2019059;26/01/2020;15:20:58;C/OUT;
2008001;Visna Cabrera;26/01/2020;16:00:34;C/OUT;
2018045;2018045;26/01/2020;16:04:05;C/OUT;
2009008;Eko Nugroho Tandijono;26/01/2020;16:24:03;C/OUT;
2018097;2018097;26/01/2020;17:02:07;C/OUT;
2018097;2018097;26/01/2020;17:02:10;C/OUT;
2017004;Elena Gallanes;26/01/2020;17:03:38;C/OUT;
2018047;2018047;26/01/2020;17:04:59;C/OUT;
2018047;2018047;26/01/2020;17:05:00;C/IN;
2018047;2018047;26/01/2020;17:05:02;C/OUT;
2018047;2018047;26/01/2020;17:05:03;C/IN;
2011013;Harley Wongso;26/01/2020;17:10:24;C/OUT;
2015074;Neil Saquin;26/01/2020;19:02:11;C/OUT;
2018063;2018063;26/01/2020;19:03:19;C/OUT;
2018050;2018050;26/01/2020;20:41:40;C/IN;
2012023;Leonardo  Delos Santos;26/01/2020;20:41:50;C/IN;
2012023;Leonardo  Delos Santos;26/01/2020;20:41:56;C/IN;
2018048;2018048;26/01/2020;21:01:54;C/IN;
2018075;2018075;26/01/2020;21:12:34;C/IN;
2016059;Paul Anthony Nuguit;26/01/2020;21:17:52;C/IN;
2018099;2018099;26/01/2020;21:19:25;C/IN;
2015073;Antonito Tolin;26/01/2020;21:22:30;C/OUT;
2016094;Franz Kevin R. Loayon;26/01/2020;21:42:33;C/IN;
2016094;Franz Kevin R. Loayon;26/01/2020;21:42:37;C/IN;
2016094;Franz Kevin R. Loayon;26/01/2020;21:42:42;C/IN;
2006011;Maureen Lintag;26/01/2020;21:50:28;C/IN;
2017003;Nelia E. Germedia;26/01/2020;21:51:10;C/IN;
2019026;2019026;26/01/2020;21:51:42;C/IN;
2016035;Judy Lasay;26/01/2020;21:52:56;C/IN;
2017003;Nelia E. Germedia;26/01/2020;21:56:28;C/IN;
2018003;2018003;26/01/2020;21:58:31;C/IN;
2016029;Mary Joyce Santos;26/01/2020;22:00:09;C/OUT;
2019045;2019045;26/01/2020;22:00:13;C/OUT;
2017036;Joemar C;26/01/2020;22:00:24;C/OUT;
2019025;2019025;26/01/2020;22:00:30;C/OUT;
2019025;2019025;26/01/2020;22:00:34;C/OUT;
2019017;2019017;26/01/2020;22:01:31;C/OUT;
2018014;2018014;26/01/2020;22:01:54;C/OUT;
2018015;2018015;26/01/2020;22:02:02;C/OUT;
2019049;2019049;26/01/2020;22:03:18;C/OUT;
2018001;Orlan Relente;26/01/2020;22:03:39;C/OUT;
2006013;Lyn Dayame;26/01/2020;22:05:47;C/OUT;
2006013;Lyn Dayame;26/01/2020;22:05:50;C/OUT;
2018074;2018074;26/01/2020;22:13:09;C/OUT;
2006006;Rowena Jane  Arcilla;26/01/2020;22:19:25;C/IN;
2007007;Song Boen Lie;26/01/2020;22:23:41;C/IN;
2016017;Richard Nichole B. Megu;26/01/2020;22:28:08;C/IN;
2010012;Darlitio;26/01/2020;22:29:18;C/IN;
2009004;Margarita Rivera;26/01/2020;22:35:36;C/IN;
2009004;Margarita Rivera;26/01/2020;22:35:39;C/IN;
2009004;Margarita Rivera;26/01/2020;22:35:42;C/IN;
2019087;2019087;26/01/2020;22:35:48;C/IN;
2011003;Michelle Mangabat;26/01/2020;22:36:18;C/IN;
2018065;2018065;26/01/2020;22:36:58;C/IN;
2018029;2018029;26/01/2020;22:37:51;C/IN;
2016049;Lourie Jane Orellano;26/01/2020;22:38:59;C/IN;
2016040;Janice Borja;26/01/2020;22:39:02;C/IN;
2015002;Jerrel Joy Azuelo;26/01/2020;22:39:06;C/IN;
2010007;Elinea Mendoza;26/01/2020;22:39:15;C/IN;
2019022;2019022;26/01/2020;22:39:38;C/IN;
2018094;2018094;26/01/2020;22:39:43;C/IN;
2018026;2018026;26/01/2020;22:40:00;C/IN;
2015013;Babylyn Jolo;26/01/2020;22:40:23;C/IN;
2019037;2019037;26/01/2020;22:40:29;C/IN;
2018093;2018093;26/01/2020;22:40:57;C/IN;
2016062;Maricris Santos;26/01/2020;22:41:25;C/IN;
2012014;Mary Joy Calda;26/01/2020;22:41:33;C/IN;
2016078;Antonette Isorena;26/01/2020;22:41:48;C/IN;
2018028;2018028;26/01/2020;22:42:15;C/IN;
2009003;Liezl  Licop;26/01/2020;22:42:19;C/IN;
2016009;Rizzalie  Salabsab;26/01/2020;22:42:29;C/IN;
2018032;2018032;26/01/2020;22:42:32;C/IN;
2015015;Aiza Villania;26/01/2020;22:42:36;C/IN;
2016077;Precious Angelica Liban;26/01/2020;22:42:41;C/IN;
2017017;Jonah Jean Algura;26/01/2020;22:42:45;C/IN;
2019038;2019038;26/01/2020;22:42:49;C/IN;
2017023;Sharlotte Movilla;26/01/2020;22:42:53;C/IN;
2018061;2018061;26/01/2020;22:43:37;C/IN;
2016010;Jairah Santos;26/01/2020;22:44:28;C/IN;
2018094;2018094;26/01/2020;22:44:41;C/IN;
2018062;2018062;26/01/2020;22:45:10;C/OUT;
2018062;2018062;26/01/2020;22:45:11;C/IN;
2007002;Jannet Alvarez;26/01/2020;22:45:32;C/OUT;
2010011;Emily D. Daguman;26/01/2020;22:45:36;C/OUT;
2016037;Madel Adigue;26/01/2020;22:45:40;C/OUT;
2017065;Diane De Guzman;26/01/2020;22:46:19;C/OUT;
2011012;Ropin;26/01/2020;22:46:45;C/OUT;
2019062;2019062;26/01/2020;22:46:46;C/OUT;
2011012;Ropin;26/01/2020;22:46:46;C/IN;
2019062;2019062;26/01/2020;22:46:49;C/IN;
2006022;Martin Martin;26/01/2020;22:46:50;C/OUT;
2006022;Martin Martin;26/01/2020;22:46:51;C/IN;
2012006;Allyanna David;26/01/2020;22:47:05;C/OUT;
2016045;Aisha May Horca;26/01/2020;22:47:13;C/OUT;
2006007;Myleen Bautista;26/01/2020;22:47:23;C/OUT;
2012004;Aisa Anthonette Gudao;26/01/2020;22:47:30;C/OUT;
2017068;2017068;26/01/2020;22:48:46;C/OUT;
2013009;Maria Gurrobat;26/01/2020;22:48:59;C/OUT;
2014004;Lee-Ann Lagahit;26/01/2020;22:49:14;C/OUT;
2019009;2019009;26/01/2020;22:50:56;C/OUT;
2015009;Richelle Balbeja;26/01/2020;22:51:06;C/OUT;
2018096;2018096;26/01/2020;22:51:27;C/OUT;
2017059;2017059;26/01/2020;22:51:41;C/OUT;
2017460;2017460;26/01/2020;22:51:48;C/OUT;
2006009;Aileen Sacdalan;26/01/2020;22:52:02;C/OUT;
2018091;2018091;26/01/2020;22:52:29;C/OUT;
2019012;2019012;26/01/2020;22:52:59;C/OUT;
2015018;Jhanet Rose Viray;26/01/2020;22:53:14;C/OUT;
2006004;Evelyn L. Latuga;26/01/2020;22:53:37;C/OUT;
2017018;Melissa Andaya;26/01/2020;22:53:45;C/OUT;
2019074;2019074;26/01/2020;22:54:14;C/OUT;
2018034;2018034;26/01/2020;22:54:40;C/OUT;
2017055;2017055;26/01/2020;22:54:44;C/OUT;
2016001;Ronilyn  Bechayda;26/01/2020;22:56:34;C/OUT;
2014012;Joana Marie Ondoy;26/01/2020;22:56:39;C/OUT;
2015027;Rosemin Flores;26/01/2020;22:57:28;C/OUT;
2016047;Melly Zablan;26/01/2020;22:58:47;C/OUT;
2019061;2019061;26/01/2020;22:59:30;C/OUT;
2018059;2018059;26/01/2020;22:59:35;C/OUT;
2018082;2018082;26/01/2020;23:01:48;C/OUT;
2016020;Michael Jordan Parungao;26/01/2020;23:17:19;C/OUT;
2018041;2018041;26/01/2020;23:17:46;C/OUT;
2019089;2019089;26/01/2020;23:21:16;C/OUT;
2019021;2019021;26/01/2020;23:22:31;C/OUT;
