2017035;Ivy Besnar;13/06/2019;13:13:31;C/IN;
2017035;Ivy Besnar;13/06/2019;13:13:34;C/IN;
2018048;2018048;13/06/2019;13:27:39;C/IN;
2015073;Antonito Tolin;13/06/2019;13:28:37;C/IN;
2015006;Jamielou Montealegre;13/06/2019;13:31:54;C/IN;
2015006;Jamielou Montealegre;13/06/2019;13:31:58;C/IN;
2015006;Jamielou Montealegre;13/06/2019;13:32:02;C/IN;
2018105;2018105;13/06/2019;13:33:25;C/IN;
2017036;Joemar C;13/06/2019;13:40:36;C/IN;
2016067;Akiko Bianca Bartolo;13/06/2019;13:47:28;C/IN;
